what,kind,bundleId,bundleVersion,description,time
started,bundle,org.eclipse.jst.common.frameworks,1.1.403.v201012160000,"org.eclipse.jst.common.frameworks",1383789773458
started,bundle,org.eclipse.jst.common.project.facet.core,1.4.102.v201008182136,"org.eclipse.jst.common.project.facet.core",1383789773458
started,bundle,org.eclipse.jst.j2ee,1.1.404.v201102081800,"org.eclipse.jst.j2ee",1383789773473
started,bundle,org.eclipse.jst.j2ee.core,1.2.4.v201102101900,"org.eclipse.jst.j2ee.core",1383789773504
started,bundle,org.eclipse.jst.j2ee.navigator.ui,1.1.403.v201012020600,"org.eclipse.jst.j2ee.navigator.ui",1383789773504
started,bundle,org.eclipse.jst.j2ee.ui,1.1.404.v201101122300,"org.eclipse.jst.j2ee.ui",1383789773504
started,bundle,org.eclipse.jst.j2ee.web,1.1.404.v201102030400,"org.eclipse.jst.j2ee.web",1383789773504
started,bundle,org.eclipse.jst.j2ee.webservice,1.1.400.v201004110600,"org.eclipse.jst.j2ee.webservice",1383789773504
started,bundle,org.eclipse.jst.j2ee.webservice.ui,1.1.400.v201004110600,"org.eclipse.jst.j2ee.webservice.ui",1383789773504
started,bundle,org.eclipse.jst.jee,1.0.302.v201101122300,"org.eclipse.jst.jee",1383789773504
started,bundle,org.eclipse.jst.jee.ui,1.0.304.v201101272100,"org.eclipse.jst.jee.ui",1383789773504
started,bundle,org.eclipse.jst.jsf.common,1.2.2.v201101211220,"org.eclipse.jst.jsf.common",1383789773520
started,bundle,org.eclipse.jst.jsf.core,1.3.3.v201102021253,"org.eclipse.jst.jsf.core",1383789773520
started,bundle,org.eclipse.jst.jsf.facelet.ui,1.0.0.v20100602,"org.eclipse.jst.jsf.facelet.ui",1383789773520
started,bundle,org.eclipse.jst.jsf.ui,1.3.1.v20100906,"org.eclipse.jst.jsf.ui",1383789773520
started,bundle,org.eclipse.jst.jsp.core,1.2.304.v201102160550,"org.eclipse.jst.jsp.core",1383789773520
started,bundle,org.eclipse.jst.jsp.ui,1.1.503.v201101262228,"org.eclipse.jst.jsp.ui",1383789773520
started,bundle,org.eclipse.jst.server.core,1.2.101.v20100421,"org.eclipse.jst.server.core",1383789773520
started,bundle,org.eclipse.jst.server.tomcat.core,1.1.203.v20110201,"org.eclipse.jst.server.tomcat.core",1383789773520
started,bundle,org.eclipse.jst.ws.jaxrs.core,1.0.201.v201011231540,"org.eclipse.jst.ws.jaxrs.core",1383789773520
started,bundle,org.eclipse.team.core,3.5.101.R36x_v20110203-1036,"org.eclipse.team.core",1383789773520
started,bundle,org.eclipse.ui,3.6.2.M20110203-1100,"org.eclipse.ui",1383789773520
started,bundle,org.eclipse.ui.editors,3.6.1.r361_v20100825-0800,"org.eclipse.ui.editors",1383789773520
started,bundle,org.eclipse.ui.ide,3.6.2.M20101201-0800,"org.eclipse.ui.ide",1383789773520
started,bundle,org.eclipse.ui.navigator,3.5.0.I20100601-0800,"org.eclipse.ui.navigator",1383789773520
started,bundle,org.eclipse.ui.navigator.resources,3.4.202.M20101124-0800,"org.eclipse.ui.navigator.resources",1383789773520
started,bundle,org.eclipse.ui.net,1.2.100.I20100505-1245,"org.eclipse.ui.net",1383789773536
started,bundle,org.eclipse.ui.views,3.5.1.M20110202-0800,"org.eclipse.ui.views",1383789773536
started,bundle,org.eclipse.ui.workbench,3.6.2.M20110210-1200,"org.eclipse.ui.workbench",1383789773536
started,bundle,org.eclipse.ui.workbench.texteditor,3.6.1.r361_v20100714-0800,"org.eclipse.ui.workbench.texteditor",1383789773536
started,bundle,org.eclipse.wst.common.core,1.2.0.v200908252030,"org.eclipse.wst.common.core",1383789773536
started,bundle,org.eclipse.wst.common.emf,1.2.3.v201012100400,"org.eclipse.wst.common.emf",1383789773536
started,bundle,org.eclipse.wst.common.emfworkbench.integration,1.2.3.v201012020600,"org.eclipse.wst.common.emfworkbench.integration",1383789773536
started,bundle,org.eclipse.wst.common.frameworks,1.2.0.v201003040800,"org.eclipse.wst.common.frameworks",1383789773536
started,bundle,org.eclipse.wst.common.frameworks.ui,1.2.0.v201004080500,"org.eclipse.wst.common.frameworks.ui",1383789773536
started,bundle,org.eclipse.wst.common.modulecore,1.2.5.v201101270100,"org.eclipse.wst.common.modulecore",1383789773536
started,bundle,org.eclipse.wst.common.project.facet.core,1.4.102.v201008170019,"org.eclipse.wst.common.project.facet.core",1383789773536
started,bundle,org.eclipse.wst.common.ui,1.1.500.v200911190730,"org.eclipse.wst.common.ui",1383789773536
started,bundle,org.eclipse.wst.common.uriresolver,1.1.401.v201004280700,"org.eclipse.wst.common.uriresolver",1383789773536
started,bundle,org.eclipse.wst.css.core,1.1.402.v201102031915,"org.eclipse.wst.css.core",1383789773536
started,bundle,org.eclipse.wst.css.ui,1.0.502.v201101122002,"org.eclipse.wst.css.ui",1383789773536
started,bundle,org.eclipse.wst.dtd.ui,1.0.500.v201004290328,"org.eclipse.wst.dtd.ui",1383789773551
started,bundle,org.eclipse.wst.html.core,1.1.404.v201101190004,"org.eclipse.wst.html.core",1383789773551
started,bundle,org.eclipse.wst.html.ui,1.0.504.v201101122108,"org.eclipse.wst.html.ui",1383789773551
started,bundle,org.eclipse.wst.jsdt.core,1.1.4.v201102102045,"org.eclipse.wst.jsdt.core",1383789773629
started,bundle,org.eclipse.wst.jsdt.manipulation,1.0.200.v201004150600,"org.eclipse.wst.jsdt.manipulation",1383789773629
started,bundle,org.eclipse.wst.jsdt.ui,1.1.4.v201102160540,"org.eclipse.wst.jsdt.ui",1383789774097
started,bundle,org.eclipse.wst.jsdt.web.core,1.0.304.v201102160550,"org.eclipse.wst.jsdt.web.core",1383789774097
started,bundle,org.eclipse.wst.jsdt.web.support.jsp,1.0.303.v201012160047,"org.eclipse.wst.jsdt.web.support.jsp",1383789774097
started,bundle,org.eclipse.wst.jsdt.web.ui,1.0.304.v201012160349,"org.eclipse.wst.jsdt.web.ui",1383789774097
started,bundle,org.eclipse.wst.server.ui,1.1.207.v20110119,"org.eclipse.wst.server.ui",1383789774097
started,bundle,org.eclipse.wst.sse.core,1.1.504.v201102160550,"org.eclipse.wst.sse.core",1383789774113
started,bundle,org.eclipse.wst.sse.ui,1.2.3.v201102102045,"org.eclipse.wst.sse.ui",1383789774113
started,bundle,org.eclipse.wst.validation,1.2.201.v201101270100,"org.eclipse.wst.validation",1383789774113
started,bundle,org.eclipse.wst.web,1.1.402.v201012160000,"org.eclipse.wst.web",1383789774113
started,bundle,org.eclipse.wst.wsdl,1.2.104.v201012082239,"org.eclipse.wst.wsdl",1383789774113
started,bundle,org.eclipse.wst.xml.core,1.1.503.v201102102045,"org.eclipse.wst.xml.core",1383789774113
started,bundle,org.eclipse.wst.xml.ui,1.1.103.v201101122108,"org.eclipse.wst.xml.ui",1383789774113
started,bundle,oracle.eclipse.tools.common,3.2.3.201107052022,"oracle.eclipse.tools.common",1383789774113
started,bundle,oracle.eclipse.tools.common.ui,3.2.3.201107052022,"oracle.eclipse.tools.common.ui",1383789774113
started,bundle,oracle.eclipse.tools.weblogic,3.2.3.201107052022,"oracle.eclipse.tools.weblogic",1383789774222
started,bundle,oracle.eclipse.tools.weblogic.ui,3.2.3.201107052022,"oracle.eclipse.tools.weblogic.ui",1383789774222
started,bundle,org.eclipse.core.jobs,3.5.1.R36x_v20100824-p001,"org.eclipse.core.jobs",1383789774222
started,bundle,org.eclipse.sapphire.modeling,0.2.3.201106221307,"org.eclipse.sapphire.modeling",1383789774222
started,bundle,org.eclipse.wst.server.core,1.1.206.v20110110_p001,"org.eclipse.wst.server.core",1383789774222
os,sysinfo,,,"win32",1383789774378
arch,sysinfo,,,"x86",1383789774378
ws,sysinfo,,,"win32",1383789774378
locale,sysinfo,,,"en_US",1383789774378
processors,sysinfo,,,"4",1383789774378
java.runtime.name,sysinfo,,,"Java(TM) SE Runtime Environment",1383789774378
java.runtime.version,sysinfo,,,"1.7.0_45-b18",1383789774378
java.specification.name,sysinfo,,,"Java Platform API Specification",1383789774378
java.specification.vendor,sysinfo,,,"Oracle Corporation",1383789774378
java.specification.version,sysinfo,,,"1.7",1383789774378
java.vendor,sysinfo,,,"Oracle Corporation",1383789774378
java.version,sysinfo,,,"1.7.0_45",1383789774378
java.vm.info,sysinfo,,,"mixed mode, sharing",1383789774378
java.vm.name,sysinfo,,,"Java HotSpot(TM) Client VM",1383789774378
java.vm.specification.name,sysinfo,,,"Java Virtual Machine Specification",1383789774378
java.vm.specification.vendor,sysinfo,,,"Oracle Corporation",1383789774378
java.vm.specification.version,sysinfo,,,"1.7",1383789774378
java.vm.vendor,sysinfo,,,"Oracle Corporation",1383789774378
java.vm.version,sysinfo,,,"24.45-b08",1383789774378
activated,view,org.eclipse.wst.server.ui,1.1.207.v20110119,"org.eclipse.wst.server.ui.ServersView",1383789774550
started,bundle,org.eclipse.jst.ws.jaxws.utils,1.0.0.v201004171919,"org.eclipse.jst.ws.jaxws.utils",1383789775610
started,bundle,org.eclipse.mylyn.monitor.ui,3.4.1.v20110131-0100-e3x,"org.eclipse.mylyn.monitor.ui",1383789776344
started,bundle,org.eclipse.mylyn.commons.net,3.4.1.v20100625-2100-e3x,"org.eclipse.mylyn.commons.net",1383789776968
executed,command,org.eclipse.wst.server.ui,1.1.207.v20110119,"org.eclipse.wst.server.run",1383789777139
started,bundle,org.eclipse.jsch.core,1.1.200.I20100505-1245,"org.eclipse.jsch.core",1383789782459
started,bundle,org.eclipse.team.cvs.core,3.3.301.R36x_v20110119-0815,"org.eclipse.team.cvs.core",1383789782459
started,bundle,org.eclipse.mylyn.commons.ui,3.4.0.v20100608-0100-e3x,"org.eclipse.mylyn.commons.ui",1383789783426
started,bundle,org.eclipse.mylyn.bugzilla.core,3.4.2.v20100902-0100-e3x,"org.eclipse.mylyn.bugzilla.core",1383789784019
started,bundle,org.eclipse.mylyn.bugzilla.ui,3.4.3.v20110131-0100-e3x,"org.eclipse.mylyn.bugzilla.ui",1383789784487
started,bundle,org.eclipse.ui.forms,3.5.2.r36_v20100702,"org.eclipse.ui.forms",1383789785672
started,bundle,org.eclipse.mylyn.context.core,3.4.1.v20100909-0100-e3x,"org.eclipse.mylyn.context.core",1383789785906
started,bundle,org.eclipse.mylyn.context.ui,3.4.2.v20110131-0100-e3x,"org.eclipse.mylyn.context.ui",1383789785953
started,bundle,org.eclipse.team.ui,3.5.102.R36x_v20110203-1036,"org.eclipse.team.ui",1383789785969
started,bundle,org.eclipse.ui.console,3.5.0.v20100526,"org.eclipse.ui.console",1383789786000
started,bundle,org.eclipse.jdt.debug,3.6.1.v20100715_r361,"org.eclipse.jdt.debug",1383789786796
started,bundle,org.eclipse.team.cvs.ui,3.3.302.R36x_v20110203-1036,"org.eclipse.team.cvs.ui",1383789786796
started,bundle,org.eclipse.jst.server.tomcat.ui,1.1.200.v20100418,"org.eclipse.jst.server.tomcat.ui",1383789786998
started,bundle,org.eclipse.mylyn.tasks.ui,3.4.3.v20110131-0100-e3x,"org.eclipse.mylyn.tasks.ui",1383789787014
started,bundle,org.eclipse.mylyn.team.ui,3.4.3.v20110131-0100-e3x,"org.eclipse.mylyn.team.ui",1383789787139
started,bundle,org.eclipse.update.scheduler,3.2.300.v20100512,"org.eclipse.update.scheduler",1383789787248
started,bundle,org.eclipse.core.variables,3.2.400.v20100505,"org.eclipse.core.variables",1383789788746
started,bundle,org.eclipse.jdt.debug.ui,3.5.2.v20100928a_r362,"org.eclipse.jdt.debug.ui",1383789790852
started,bundle,org.eclipse.update.configurator,3.3.100.v20100512,"org.eclipse.update.configurator",1383789794564
started,bundle,org.eclipse.update.core,3.2.402.R36x_v20100629,"org.eclipse.update.core",1383789794720
started,bundle,oracle.eclipse.tools.common.upgrade,3.2.3.201107052022,"oracle.eclipse.tools.common.upgrade",1383789794720
started,bundle,oracle.eclipse.tools.xmlbeans,3.2.3.201107052022,"oracle.eclipse.tools.xmlbeans",1383789795220
started,bundle,oracle.eclipse.tools.envcheck,3.2.3.201107052022,"oracle.eclipse.tools.envcheck",1383789795516
opened,view,org.eclipse.ui.console,3.5.0.v20100526,"org.eclipse.ui.console.ConsoleView",1383789796687
activated,view,org.eclipse.ui.console,3.5.0.v20100526,"org.eclipse.ui.console.ConsoleView",1383789796734
activated,view,org.eclipse.wst.server.ui,1.1.207.v20110119,"org.eclipse.wst.server.ui.ServersView",1383789802461
started,bundle,org.eclipse.jdt.apt.core,3.3.402.R36_v20110120-1000,"org.eclipse.jdt.apt.core",1383789802523
started,bundle,org.eclipse.jdt.apt.pluggable.core,1.0.301.R36_v20100727-0110,"org.eclipse.jdt.apt.pluggable.core",1383789802570
started,bundle,org.eclipse.wst.dtd.core,1.1.401.v201101122255,"org.eclipse.wst.dtd.core",1383789802804
started,bundle,org.eclipse.wst.wsdl.validation,1.1.501.v201004201506,"org.eclipse.wst.wsdl.validation",1383789802867
started,bundle,org.eclipse.wst.xsd.core,1.1.503.v201011121919,"org.eclipse.wst.xsd.core",1383789802898
started,bundle,org.eclipse.wst.xsl.core,1.1.0.v201004290328,"org.eclipse.wst.xsl.core",1383789802929
activated,view,org.eclipse.ui.navigator.resources,3.4.202.M20101124-0800,"org.eclipse.ui.navigator.ProjectExplorer",1383789805862
started,bundle,org.eclipse.jst.ws.jaxws.dom.integration,1.0.0.v201004171919,"org.eclipse.jst.ws.jaxws.dom.integration",1383789805940
started,bundle,org.eclipse.jst.ws.jaxws.dom.ui,1.0.0.v201004171919,"org.eclipse.jst.ws.jaxws.dom.ui",1383789806002
started,bundle,org.eclipse.jst.j2ee.ejb,1.1.402.v201102071010,"org.eclipse.jst.j2ee.ejb",1383789806080
started,bundle,org.eclipse.jst.j2ee.jca,1.1.400.v201005270700,"org.eclipse.jst.j2ee.jca",1383789806205
started,bundle,org.eclipse.jst.jee.ejb,1.0.301.v201007070821,"org.eclipse.jst.jee.ejb",1383789806267
started,bundle,org.eclipse.jst.jee.web,1.0.301.v201007070907,"org.eclipse.jst.jee.web",1383789806314
started,bundle,org.eclipse.xsd,2.6.0.v20100914-1218,"org.eclipse.xsd",1383789806470
started,bundle,org.eclipse.jst.servlet.ui,1.1.404.v201101270100,"org.eclipse.jst.servlet.ui",1383789806782
started,bundle,oracle.eclipse.tools.webservices.ui,3.2.3.201107052022,"oracle.eclipse.tools.webservices.ui",1383789992750
started,bundle,oracle.eclipse.tools.webservices,3.2.3.201107052022,"oracle.eclipse.tools.webservices",1383789992875
started,bundle,org.eclipse.ltk.core.refactoring,3.5.101.r362_v20101117-0800,"org.eclipse.ltk.core.refactoring",1383789994014
started,bundle,org.eclipse.compare,3.5.101.R36x_v20100929-0800,"org.eclipse.compare",1383789994263
started,bundle,org.eclipse.wst.command.env.ui,1.1.3.v201004211805,"org.eclipse.wst.command.env.ui",1383789996401
started,bundle,org.eclipse.wst.common.environment,1.0.400.v200912181832,"org.eclipse.wst.common.environment",1383789996447
started,bundle,org.eclipse.wst.command.env,1.0.409.v201004211805,"org.eclipse.wst.command.env",1383789996525
started,bundle,org.eclipse.jst.ws.creation.ui,1.0.510.v201011041151,"org.eclipse.jst.ws.creation.ui",1383789996666
started,bundle,org.eclipse.jst.ws.consumption.ui,1.1.302.v201101191731,"org.eclipse.jst.ws.consumption.ui",1383789996728
started,bundle,org.eclipse.jst.ws.ui,1.0.403.v201004211805,"org.eclipse.jst.ws.ui",1383789996806
started,bundle,org.eclipse.jst.ws.uddiregistry,1.0.500.v201004211805,"org.eclipse.jst.ws.uddiregistry",1383789996806
started,bundle,org.eclipse.jst.ws.consumption,1.0.507.v201004211805,"org.eclipse.jst.ws.consumption",1383789996884
started,bundle,org.eclipse.wst.ws.ui,1.1.200.v201004211805,"org.eclipse.wst.ws.ui",1383789996931
started,bundle,org.eclipse.wst.ws,1.1.203.v201004211805,"org.eclipse.wst.ws",1383789996978
started,bundle,org.eclipse.wst.ws.parser,1.0.403.v201004211805,"org.eclipse.wst.ws.parser",1383789997040
started,bundle,org.eclipse.wst.ws.explorer,1.0.507.v201004220342,"org.eclipse.wst.ws.explorer",1383789997087
started,bundle,org.eclipse.jst.ws,1.0.507.v201004211805,"org.eclipse.jst.ws",1383789997103
started,bundle,org.eclipse.jst.ws.axis.creation.ui,1.0.600.v201008171516,"org.eclipse.jst.ws.axis.creation.ui",1383789997820
deactivated,workbench,org.eclipse.ui.workbench,3.6.2.M20110210-1200,"",1383789997898
started,bundle,org.eclipse.jst.ws.axis.consumption.ui,1.0.505.v201004211805,"org.eclipse.jst.ws.axis.consumption.ui",1383790000129
started,bundle,org.eclipse.jst.ws.axis.consumption.core,1.0.406.v201004211805,"org.eclipse.jst.ws.axis.consumption.core",1383790000176
started,bundle,org.eclipse.wst.ws.service.policy,1.0.204.v201011011834,"org.eclipse.wst.ws.service.policy",1383790000519
started,bundle,org.eclipse.wst.xsl.exslt.core,1.0.0.v201005240426,"org.eclipse.wst.xsl.exslt.core",1383790003827
started,bundle,org.eclipse.wst.internet.cache,1.0.400.v201004280700,"org.eclipse.wst.internet.cache",1383790004905
started,bundle,org.eclipse.wst.wsi,1.0.400.v201004220210,"org.eclipse.wst.wsi",1383790005419
activated,workbench,org.eclipse.ui.workbench,3.6.2.M20110210-1200,"",1383790008431
deactivated,workbench,org.eclipse.ui.workbench,3.6.2.M20110210-1200,"",1383790011738
error,log,,,"Task failed",1383790014952
activated,workbench,org.eclipse.ui.workbench,3.6.2.M20110210-1200,"",1383790021099
deactivated,workbench,org.eclipse.ui.workbench,3.6.2.M20110210-1200,"",1383790028197
activated,workbench,org.eclipse.ui.workbench,3.6.2.M20110210-1200,"",1383790041709
activated,view,org.eclipse.wst.server.ui,1.1.207.v20110119,"org.eclipse.wst.server.ui.ServersView",1383790044595
executed,command,org.eclipse.wst.server.ui,1.1.207.v20110119,"org.eclipse.wst.server.run",1383790045765
activated,view,org.eclipse.ui.console,3.5.0.v20100526,"org.eclipse.ui.console.ConsoleView",1383790046499
activated,view,org.eclipse.wst.server.ui,1.1.207.v20110119,"org.eclipse.wst.server.ui.ServersView",1383790047515
activated,view,org.eclipse.ui.console,3.5.0.v20100526,"org.eclipse.ui.console.ConsoleView",1383790048358
activated,view,org.eclipse.wst.server.ui,1.1.207.v20110119,"org.eclipse.wst.server.ui.ServersView",1383790050106
activated,editor,org.eclipse.jst.jsp.ui,1.1.503.v201101262228,"org.eclipse.jst.jsp.core.jspsource.source",1383790053226
activated,view,org.eclipse.wst.server.ui,1.1.207.v20110119,"org.eclipse.wst.server.ui.ServersView",1383790054193
closed,editor,org.eclipse.jst.jsp.ui,1.1.503.v201101262228,"org.eclipse.jst.jsp.core.jspsource.source",1383790054193
activated,view,org.eclipse.ui.navigator.resources,3.4.202.M20101124-0800,"org.eclipse.ui.navigator.ProjectExplorer",1383790054926
deactivated,workbench,org.eclipse.ui.workbench,3.6.2.M20110210-1200,"",1383790056814
activated,workbench,org.eclipse.ui.workbench,3.6.2.M20110210-1200,"",1383790069503
started,bundle,oracle.eclipse.tools.sapphire.modeling.legacy,3.2.3.201107052022,"oracle.eclipse.tools.sapphire.modeling.legacy",1383790070969
started,bundle,org.eclipse.ltk.ui.refactoring,3.5.0.v20100526-0800,"org.eclipse.ltk.ui.refactoring",1383790072279
deactivated,workbench,org.eclipse.ui.workbench,3.6.2.M20110210-1200,"",1383790072716
activated,workbench,org.eclipse.ui.workbench,3.6.2.M20110210-1200,"",1383790074526
executed,command,org.eclipse.ui,3.6.2.M20110203-1100,"org.eclipse.ui.edit.delete",1383790074541
activated,view,org.eclipse.wst.server.ui,1.1.207.v20110119,"org.eclipse.wst.server.ui.ServersView",1383790075228
deactivated,workbench,org.eclipse.ui.workbench,3.6.2.M20110210-1200,"",1383790077225
activated,workbench,org.eclipse.ui.workbench,3.6.2.M20110210-1200,"",1383790078410
executed,command,org.eclipse.ui,3.6.2.M20110203-1100,"org.eclipse.ui.edit.delete",1383790078426
activated,view,org.eclipse.ui.console,3.5.0.v20100526,"org.eclipse.ui.console.ConsoleView",1383790079176
activated,view,org.eclipse.wst.server.ui,1.1.207.v20110119,"org.eclipse.wst.server.ui.ServersView",1383790080207
activated,view,org.eclipse.ui.console,3.5.0.v20100526,"org.eclipse.ui.console.ConsoleView",1383790080332
activated,view,org.eclipse.wst.server.ui,1.1.207.v20110119,"org.eclipse.wst.server.ui.ServersView",1383790080410
deactivated,workbench,org.eclipse.ui.workbench,3.6.2.M20110210-1200,"",1383790083109
activated,workbench,org.eclipse.ui.workbench,3.6.2.M20110210-1200,"",1383790084388
executed,command,org.eclipse.wst.server.ui,1.1.207.v20110119,"org.eclipse.wst.server.run",1383790088616
activated,view,org.eclipse.ui.console,3.5.0.v20100526,"org.eclipse.ui.console.ConsoleView",1383790089739
activated,view,org.eclipse.wst.server.ui,1.1.207.v20110119,"org.eclipse.wst.server.ui.ServersView",1383790091472
deactivated,workbench,org.eclipse.ui.workbench,3.6.2.M20110210-1200,"",1383790095793
activated,workbench,org.eclipse.ui.workbench,3.6.2.M20110210-1200,"",1383790097290
activated,view,org.eclipse.ui.navigator.resources,3.4.202.M20101124-0800,"org.eclipse.ui.navigator.ProjectExplorer",1383790102906
deactivated,workbench,org.eclipse.ui.workbench,3.6.2.M20110210-1200,"",1383790104841
activated,workbench,org.eclipse.ui.workbench,3.6.2.M20110210-1200,"",1383790110974
deactivated,workbench,org.eclipse.ui.workbench,3.6.2.M20110210-1200,"",1383790116933
activated,workbench,org.eclipse.ui.workbench,3.6.2.M20110210-1200,"",1383790123317
deactivated,workbench,org.eclipse.ui.workbench,3.6.2.M20110210-1200,"",1383790129916
activated,workbench,org.eclipse.ui.workbench,3.6.2.M20110210-1200,"",1383790135910
deactivated,workbench,org.eclipse.ui.workbench,3.6.2.M20110210-1200,"",1383790141417
activated,workbench,org.eclipse.ui.workbench,3.6.2.M20110210-1200,"",1383790149686
activated,view,org.eclipse.wst.server.ui,1.1.207.v20110119,"org.eclipse.wst.server.ui.ServersView",1383790151605
executed,command,org.eclipse.wst.server.ui,1.1.207.v20110119,"org.eclipse.wst.server.run",1383790154413
activated,view,org.eclipse.ui.console,3.5.0.v20100526,"org.eclipse.ui.console.ConsoleView",1383790157144
activated,view,org.eclipse.wst.server.ui,1.1.207.v20110119,"org.eclipse.wst.server.ui.ServersView",1383790158627
activated,view,org.eclipse.ui.navigator.resources,3.4.202.M20101124-0800,"org.eclipse.ui.navigator.ProjectExplorer",1383790162043
deactivated,workbench,org.eclipse.ui.workbench,3.6.2.M20110210-1200,"",1383790164149
activated,workbench,org.eclipse.ui.workbench,3.6.2.M20110210-1200,"",1383790170427
deactivated,workbench,org.eclipse.ui.workbench,3.6.2.M20110210-1200,"",1383790173937
activated,workbench,org.eclipse.ui.workbench,3.6.2.M20110210-1200,"",1383790180097
deactivated,workbench,org.eclipse.ui.workbench,3.6.2.M20110210-1200,"",1383790183435
activated,workbench,org.eclipse.ui.workbench,3.6.2.M20110210-1200,"",1383790190798
deactivated,workbench,org.eclipse.ui.workbench,3.6.2.M20110210-1200,"",1383790194074
activated,workbench,org.eclipse.ui.workbench,3.6.2.M20110210-1200,"",1383790199505
deactivated,workbench,org.eclipse.ui.workbench,3.6.2.M20110210-1200,"",1383790203093
activated,workbench,org.eclipse.ui.workbench,3.6.2.M20110210-1200,"",1383790209009
deactivated,workbench,org.eclipse.ui.workbench,3.6.2.M20110210-1200,"",1383790212410
activated,workbench,org.eclipse.ui.workbench,3.6.2.M20110210-1200,"",1383790218746
deactivated,workbench,org.eclipse.ui.workbench,3.6.2.M20110210-1200,"",1383790222428
activated,workbench,org.eclipse.ui.workbench,3.6.2.M20110210-1200,"",1383790228436
executed,command,org.eclipse.ui,3.6.2.M20110203-1100,"org.eclipse.ui.navigate.collapseAll",1383790304860
started,bundle,org.eclipse.wst.ws.service.policy.ui,1.0.202.v201004211732,"org.eclipse.wst.ws.service.policy.ui",1383790305874
deactivated,workbench,org.eclipse.ui.workbench,3.6.2.M20110210-1200,"",1383790308464
activated,workbench,org.eclipse.ui.workbench,3.6.2.M20110210-1200,"",1383790317340
executed,command,org.eclipse.ui,3.6.2.M20110203-1100,"org.eclipse.ui.newWizard",1383790317356
deactivated,workbench,org.eclipse.ui.workbench,3.6.2.M20110210-1200,"",1383790319899
activated,workbench,org.eclipse.ui.workbench,3.6.2.M20110210-1200,"",1383790329119
executed,command,org.eclipse.ui,3.6.2.M20110203-1100,"org.eclipse.ui.newWizard",1383790329119
activated,view,org.eclipse.ui.console,3.5.0.v20100526,"org.eclipse.ui.console.ConsoleView",1383790330679
activated,view,org.eclipse.wst.server.ui,1.1.207.v20110119,"org.eclipse.wst.server.ui.ServersView",1383790337029
deactivated,workbench,org.eclipse.ui.workbench,3.6.2.M20110210-1200,"",1383790339961
activated,workbench,org.eclipse.ui.workbench,3.6.2.M20110210-1200,"",1383790341381
executed,command,org.eclipse.wst.server.ui,1.1.207.v20110119,"org.eclipse.wst.server.run",1383790343066
activated,view,org.eclipse.ui.console,3.5.0.v20100526,"org.eclipse.ui.console.ConsoleView",1383790345797
activated,view,org.eclipse.wst.server.ui,1.1.207.v20110119,"org.eclipse.wst.server.ui.ServersView",1383790347264
activated,view,org.eclipse.ui.navigator.resources,3.4.202.M20101124-0800,"org.eclipse.ui.navigator.ProjectExplorer",1383790347592
deactivated,workbench,org.eclipse.ui.workbench,3.6.2.M20110210-1200,"",1383790350431
activated,workbench,org.eclipse.ui.workbench,3.6.2.M20110210-1200,"",1383790359385
executed,command,org.eclipse.ui,3.6.2.M20110203-1100,"org.eclipse.ui.newWizard",1383790359401
deactivated,workbench,org.eclipse.ui.workbench,3.6.2.M20110210-1200,"",1383790365095
activated,workbench,org.eclipse.ui.workbench,3.6.2.M20110210-1200,"",1383790373879
executed,command,org.eclipse.ui,3.6.2.M20110203-1100,"org.eclipse.ui.newWizard",1383790373894
deactivated,workbench,org.eclipse.ui.workbench,3.6.2.M20110210-1200,"",1383790379557
activated,workbench,org.eclipse.ui.workbench,3.6.2.M20110210-1200,"",1383790390758
executed,command,org.eclipse.ui,3.6.2.M20110203-1100,"org.eclipse.ui.newWizard",1383790390774
deactivated,workbench,org.eclipse.ui.workbench,3.6.2.M20110210-1200,"",1383790393316
activated,workbench,org.eclipse.ui.workbench,3.6.2.M20110210-1200,"",1383790402427
executed,command,org.eclipse.ui,3.6.2.M20110203-1100,"org.eclipse.ui.newWizard",1383790402442
deactivated,workbench,org.eclipse.ui.workbench,3.6.2.M20110210-1200,"",1383790405141
activated,workbench,org.eclipse.ui.workbench,3.6.2.M20110210-1200,"",1383790419025
executed,command,org.eclipse.ui,3.6.2.M20110203-1100,"org.eclipse.ui.newWizard",1383790419041
deactivated,workbench,org.eclipse.ui.workbench,3.6.2.M20110210-1200,"",1383790422301
activated,workbench,org.eclipse.ui.workbench,3.6.2.M20110210-1200,"",1383790431396
executed,command,org.eclipse.ui,3.6.2.M20110203-1100,"org.eclipse.ui.newWizard",1383790431412
deactivated,workbench,org.eclipse.ui.workbench,3.6.2.M20110210-1200,"",1383790433565
activated,workbench,org.eclipse.ui.workbench,3.6.2.M20110210-1200,"",1383790443237
executed,command,org.eclipse.ui,3.6.2.M20110203-1100,"org.eclipse.ui.newWizard",1383790443252
deactivated,workbench,org.eclipse.ui.workbench,3.6.2.M20110210-1200,"",1383790445561
activated,workbench,org.eclipse.ui.workbench,3.6.2.M20110210-1200,"",1383790453907
executed,command,org.eclipse.ui,3.6.2.M20110203-1100,"org.eclipse.ui.newWizard",1383790453923
deactivated,workbench,org.eclipse.ui.workbench,3.6.2.M20110210-1200,"",1383790456419
activated,workbench,org.eclipse.ui.workbench,3.6.2.M20110210-1200,"",1383790465420
executed,command,org.eclipse.ui,3.6.2.M20110203-1100,"org.eclipse.ui.newWizard",1383790465435
deactivated,workbench,org.eclipse.ui.workbench,3.6.2.M20110210-1200,"",1383790468836
activated,workbench,org.eclipse.ui.workbench,3.6.2.M20110210-1200,"",1383790476699
executed,command,org.eclipse.ui,3.6.2.M20110203-1100,"org.eclipse.ui.newWizard",1383790476714
deactivated,workbench,org.eclipse.ui.workbench,3.6.2.M20110210-1200,"",1383790479273
activated,workbench,org.eclipse.ui.workbench,3.6.2.M20110210-1200,"",1383790487868
executed,command,org.eclipse.ui,3.6.2.M20110203-1100,"org.eclipse.ui.newWizard",1383790487884
deactivated,workbench,org.eclipse.ui.workbench,3.6.2.M20110210-1200,"",1383790491129
started,bundle,org.eclipse.jst.server.preview.adapter,1.1.100.v20100308,"org.eclipse.jst.server.preview.adapter",1383790491253
activated,workbench,org.eclipse.ui.workbench,3.6.2.M20110210-1200,"",1383790491924
deactivated,workbench,org.eclipse.ui.workbench,3.6.2.M20110210-1200,"",1383790491955
activated,workbench,org.eclipse.ui.workbench,3.6.2.M20110210-1200,"",1383790492938
