what,kind,bundleId,bundleVersion,description,time
activated,view,org.eclipse.ui.navigator.resources,3.4.202.M20101124-0800,"org.eclipse.ui.navigator.ProjectExplorer",1383204806418
opened,editor,org.eclipse.jdt.ui,3.6.2.r362_v20110203,"org.eclipse.jdt.ui.CompilationUnitEditor",1383204808232
activated,editor,org.eclipse.jdt.ui,3.6.2.r362_v20110203,"org.eclipse.jdt.ui.CompilationUnitEditor",1383204808305
activated,view,org.eclipse.ui.navigator.resources,3.4.202.M20101124-0800,"org.eclipse.ui.navigator.ProjectExplorer",1383204852776
opened,editor,org.eclipse.jdt.ui,3.6.2.r362_v20110203,"org.eclipse.jdt.ui.CompilationUnitEditor",1383204852980
activated,editor,org.eclipse.jdt.ui,3.6.2.r362_v20110203,"org.eclipse.jdt.ui.CompilationUnitEditor",1383204853035
activated,editor,org.eclipse.jdt.ui,3.6.2.r362_v20110203,"org.eclipse.jdt.ui.CompilationUnitEditor",1383204856710
executed,command,org.eclipse.ui,3.6.2.M20110203-1100,"org.eclipse.ui.edit.copy",1383204905925
executed,command,org.eclipse.ui,3.6.2.M20110203-1100,"org.eclipse.ui.edit.paste",1383204907769
executed,command,org.eclipse.ui,3.6.2.M20110203-1100,"org.eclipse.ui.edit.text.contentAssist.proposals",1383204946074
executed,command,org.eclipse.ui,3.6.2.M20110203-1100,"org.eclipse.ui.file.save",1383204949699
executed,command,org.eclipse.ui,3.6.2.M20110203-1100,"org.eclipse.ui.file.save",1383204952659
activated,editor,org.eclipse.jdt.ui,3.6.2.r362_v20110203,"org.eclipse.jdt.ui.CompilationUnitEditor",1383204955805
executed,command,org.eclipse.ui,3.6.2.M20110203-1100,"org.eclipse.ui.edit.cut",1383204964053
executed,command,org.eclipse.ui,3.6.2.M20110203-1100,"org.eclipse.ui.file.save",1383204964482
activated,editor,org.eclipse.jdt.ui,3.6.2.r362_v20110203,"org.eclipse.jdt.ui.CompilationUnitEditor",1383204966031
activated,editor,org.eclipse.jdt.ui,3.6.2.r362_v20110203,"org.eclipse.jdt.ui.CompilationUnitEditor",1383204972689
executed,command,org.eclipse.ui,3.6.2.M20110203-1100,"org.eclipse.ui.file.save",1383205002480
executed,command,org.eclipse.ui,3.6.2.M20110203-1100,"org.eclipse.ui.file.save",1383205004281
activated,editor,org.eclipse.jdt.ui,3.6.2.r362_v20110203,"org.eclipse.jdt.ui.CompilationUnitEditor",1383205006598
activated,editor,org.eclipse.jdt.ui,3.6.2.r362_v20110203,"org.eclipse.jdt.ui.CompilationUnitEditor",1383205011703
activated,view,org.eclipse.ui.navigator.resources,3.4.202.M20101124-0800,"org.eclipse.ui.navigator.ProjectExplorer",1383205014932
deactivated,workbench,org.eclipse.ui.workbench,3.6.2.M20110210-1200,"",1383205017076
activated,workbench,org.eclipse.ui.workbench,3.6.2.M20110210-1200,"",1383205021918
deactivated,workbench,org.eclipse.ui.workbench,3.6.2.M20110210-1200,"",1383205037298
activated,workbench,org.eclipse.ui.workbench,3.6.2.M20110210-1200,"",1383205039740
activated,editor,org.eclipse.jdt.ui,3.6.2.r362_v20110203,"org.eclipse.jdt.ui.CompilationUnitEditor",1383205039829
activated,view,org.eclipse.ui.navigator.resources,3.4.202.M20101124-0800,"org.eclipse.ui.navigator.ProjectExplorer",1383205042433
deactivated,workbench,org.eclipse.ui.workbench,3.6.2.M20110210-1200,"",1383205045819
opened,editor,org.eclipse.ui.browser,3.3.1.r36_20101216,"org.eclipse.ui.browser.editor",1383205059587
activated,editor,org.eclipse.ui.browser,3.3.1.r36_20101216,"org.eclipse.ui.browser.editor",1383205059626
activated,workbench,org.eclipse.ui.workbench,3.6.2.M20110210-1200,"",1383205059662
activated,view,org.eclipse.ui.navigator.resources,3.4.202.M20101124-0800,"org.eclipse.ui.navigator.ProjectExplorer",1383205068593
deactivated,workbench,org.eclipse.ui.workbench,3.6.2.M20110210-1200,"",1383205071300
activated,workbench,org.eclipse.ui.workbench,3.6.2.M20110210-1200,"",1383205077474
executed,command,org.eclipse.ui,3.6.2.M20110203-1100,"org.eclipse.ui.newWizard",1383205077483
deactivated,workbench,org.eclipse.ui.workbench,3.6.2.M20110210-1200,"",1383205080843
activated,workbench,org.eclipse.ui.workbench,3.6.2.M20110210-1200,"",1383205081707
deactivated,workbench,org.eclipse.ui.workbench,3.6.2.M20110210-1200,"",1383205081742
activated,workbench,org.eclipse.ui.workbench,3.6.2.M20110210-1200,"",1383205083094
executed,command,org.eclipse.wst.server.ui,1.1.207.v20110119,"org.eclipse.wst.server.launchShortcut.run",1383205083108
opened,editor,org.eclipse.ui.browser,3.3.1.r36_20101216,"org.eclipse.ui.browser.editor",1383205088522
activated,editor,org.eclipse.ui.browser,3.3.1.r36_20101216,"org.eclipse.ui.browser.editor",1383205088589
activated,view,org.eclipse.ui.navigator.resources,3.4.202.M20101124-0800,"org.eclipse.ui.navigator.ProjectExplorer",1383205093656
closed,editor,org.eclipse.jdt.ui,3.6.2.r362_v20110203,"org.eclipse.jdt.ui.CompilationUnitEditor",1383205093657
closed,editor,org.eclipse.jdt.ui,3.6.2.r362_v20110203,"org.eclipse.jdt.ui.CompilationUnitEditor",1383205093698
closed,editor,org.eclipse.jdt.ui,3.6.2.r362_v20110203,"org.eclipse.jdt.ui.CompilationUnitEditor",1383205093817
closed,editor,org.eclipse.ui.browser,3.3.1.r36_20101216,"org.eclipse.ui.browser.editor",1383205093837
closed,editor,org.eclipse.ui.browser,3.3.1.r36_20101216,"org.eclipse.ui.browser.editor",1383205093913
opened,editor,org.eclipse.jdt.ui,3.6.2.r362_v20110203,"org.eclipse.jdt.ui.CompilationUnitEditor",1383205097392
activated,editor,org.eclipse.jdt.ui,3.6.2.r362_v20110203,"org.eclipse.jdt.ui.CompilationUnitEditor",1383205097466
activated,view,org.eclipse.ui.navigator.resources,3.4.202.M20101124-0800,"org.eclipse.ui.navigator.ProjectExplorer",1383205099224
opened,editor,org.eclipse.jst.jsp.ui,1.1.503.v201101262228,"org.eclipse.jst.jsp.core.jspsource.source",1383205100821
activated,editor,org.eclipse.jst.jsp.ui,1.1.503.v201101262228,"org.eclipse.jst.jsp.core.jspsource.source",1383205100994
activated,editor,org.eclipse.jdt.ui,3.6.2.r362_v20110203,"org.eclipse.jdt.ui.CompilationUnitEditor",1383205114009
executed,command,org.eclipse.ui,3.6.2.M20110203-1100,"org.eclipse.ui.edit.copy",1383205116923
activated,editor,org.eclipse.jst.jsp.ui,1.1.503.v201101262228,"org.eclipse.jst.jsp.core.jspsource.source",1383205118029
deactivated,workbench,org.eclipse.ui.workbench,3.6.2.M20110210-1200,"",1383205121225
executed,command,org.eclipse.ui,3.6.2.M20110203-1100,"org.eclipse.ui.edit.findReplace",1383205121277
activated,workbench,org.eclipse.ui.workbench,3.6.2.M20110210-1200,"",1383205122452
executed,command,org.eclipse.ui,3.6.2.M20110203-1100,"org.eclipse.ui.edit.paste",1383205123089
executed,command,org.eclipse.ui,3.6.2.M20110203-1100,"org.eclipse.ui.edit.delete",1383205124230
executed,command,org.eclipse.ui,3.6.2.M20110203-1100,"org.eclipse.ui.file.save",1383205124620
activated,view,org.eclipse.ui.navigator.resources,3.4.202.M20101124-0800,"org.eclipse.ui.navigator.ProjectExplorer",1383205127517
deactivated,workbench,org.eclipse.ui.workbench,3.6.2.M20110210-1200,"",1383205131193
activated,workbench,org.eclipse.ui.workbench,3.6.2.M20110210-1200,"",1383205132172
executed,command,org.eclipse.wst.server.ui,1.1.207.v20110119,"org.eclipse.wst.server.launchShortcut.run",1383205132201
opened,editor,org.eclipse.ui.browser,3.3.1.r36_20101216,"org.eclipse.ui.browser.editor",1383205132520
activated,editor,org.eclipse.ui.browser,3.3.1.r36_20101216,"org.eclipse.ui.browser.editor",1383205132561
executed,command,org.eclipse.ui,3.6.2.M20110203-1100,"org.eclipse.ui.edit.copy",1383205134055
deactivated,workbench,org.eclipse.ui.workbench,3.6.2.M20110210-1200,"",1383205134486
activated,workbench,org.eclipse.ui.workbench,3.6.2.M20110210-1200,"",1383205137792
executed,command,org.eclipse.ui,3.6.2.M20110203-1100,"org.eclipse.ui.edit.copy",1383205138515
deactivated,workbench,org.eclipse.ui.workbench,3.6.2.M20110210-1200,"",1383205138948
activated,workbench,org.eclipse.ui.workbench,3.6.2.M20110210-1200,"",1383205175081
activated,editor,org.eclipse.jst.jsp.ui,1.1.503.v201101262228,"org.eclipse.jst.jsp.core.jspsource.source",1383205176467
activated,editor,org.eclipse.jdt.ui,3.6.2.r362_v20110203,"org.eclipse.jdt.ui.CompilationUnitEditor",1383205182519
executed,command,org.eclipse.ui,3.6.2.M20110203-1100,"org.eclipse.ui.file.save",1383205188902
deactivated,workbench,org.eclipse.ui.workbench,3.6.2.M20110210-1200,"",1383205192507
activated,workbench,org.eclipse.ui.workbench,3.6.2.M20110210-1200,"",1383205322807
activated,editor,org.eclipse.jst.jsp.ui,1.1.503.v201101262228,"org.eclipse.jst.jsp.core.jspsource.source",1383205325229
executed,command,org.eclipse.ui,3.6.2.M20110203-1100,"org.eclipse.ui.file.save",1383205326697
activated,editor,org.eclipse.jdt.ui,3.6.2.r362_v20110203,"org.eclipse.jdt.ui.CompilationUnitEditor",1383205328775
activated,view,org.eclipse.ui.navigator.resources,3.4.202.M20101124-0800,"org.eclipse.ui.navigator.ProjectExplorer",1383205330246
deactivated,workbench,org.eclipse.ui.workbench,3.6.2.M20110210-1200,"",1383205333592
activated,workbench,org.eclipse.ui.workbench,3.6.2.M20110210-1200,"",1383205334690
executed,command,org.eclipse.jdt.debug.ui,3.5.2.v20100928a_r362,"org.eclipse.jdt.debug.ui.javaAppletShortcut.run",1383205334702
deactivated,workbench,org.eclipse.ui.workbench,3.6.2.M20110210-1200,"",1383205337401
activated,workbench,org.eclipse.ui.workbench,3.6.2.M20110210-1200,"",1383205338311
deactivated,workbench,org.eclipse.ui.workbench,3.6.2.M20110210-1200,"",1383205338342
activated,workbench,org.eclipse.ui.workbench,3.6.2.M20110210-1200,"",1383205339116
executed,command,org.eclipse.wst.server.ui,1.1.207.v20110119,"org.eclipse.wst.server.launchShortcut.run",1383205339132
activated,editor,org.eclipse.ui.browser,3.3.1.r36_20101216,"org.eclipse.ui.browser.editor",1383205341513
executed,command,org.eclipse.ui,3.6.2.M20110203-1100,"org.eclipse.ui.edit.copy",1383205343097
executed,command,org.eclipse.ui,3.6.2.M20110203-1100,"org.eclipse.ui.edit.copy",1383205343299
opened,editor,org.eclipse.ui.browser,3.3.1.r36_20101216,"org.eclipse.ui.browser.editor",1383205343808
activated,editor,org.eclipse.ui.browser,3.3.1.r36_20101216,"org.eclipse.ui.browser.editor",1383205343843
closed,editor,org.eclipse.ui.browser,3.3.1.r36_20101216,"org.eclipse.ui.browser.editor",1383205344655
executed,command,org.eclipse.ui,3.6.2.M20110203-1100,"org.eclipse.ui.edit.copy",1383205345493
deactivated,workbench,org.eclipse.ui.workbench,3.6.2.M20110210-1200,"",1383205346018
activated,workbench,org.eclipse.ui.workbench,3.6.2.M20110210-1200,"",1383205360123
deactivated,workbench,org.eclipse.ui.workbench,3.6.2.M20110210-1200,"",1383205360736
activated,workbench,org.eclipse.ui.workbench,3.6.2.M20110210-1200,"",1383205365045
deactivated,workbench,org.eclipse.ui.workbench,3.6.2.M20110210-1200,"",1383205365743
activated,workbench,org.eclipse.ui.workbench,3.6.2.M20110210-1200,"",1383205387406
activated,editor,org.eclipse.jst.jsp.ui,1.1.503.v201101262228,"org.eclipse.jst.jsp.core.jspsource.source",1383205388815
executed,command,org.eclipse.ui,3.6.2.M20110203-1100,"org.eclipse.ui.edit.cut",1383205393133
executed,command,org.eclipse.ui,3.6.2.M20110203-1100,"org.eclipse.ui.file.save",1383205393532
executed,command,org.eclipse.ui,3.6.2.M20110203-1100,"org.eclipse.ui.file.save",1383205402503
executed,command,org.eclipse.ui,3.6.2.M20110203-1100,"org.eclipse.ui.edit.copy",1383205404691
executed,command,org.eclipse.ui,3.6.2.M20110203-1100,"org.eclipse.ui.edit.paste",1383205406411
executed,command,org.eclipse.ui,3.6.2.M20110203-1100,"org.eclipse.ui.edit.paste",1383205407592
executed,command,org.eclipse.ui,3.6.2.M20110203-1100,"org.eclipse.ui.edit.undo",1383205408274
executed,command,org.eclipse.ui,3.6.2.M20110203-1100,"org.eclipse.ui.edit.paste",1383205411094
executed,command,org.eclipse.ui,3.6.2.M20110203-1100,"org.eclipse.ui.edit.paste",1383205412772
executed,command,org.eclipse.ui,3.6.2.M20110203-1100,"org.eclipse.ui.edit.paste",1383205415772
executed,command,org.eclipse.ui,3.6.2.M20110203-1100,"org.eclipse.ui.edit.paste",1383205417031
executed,command,org.eclipse.ui,3.6.2.M20110203-1100,"org.eclipse.ui.edit.paste",1383205418218
executed,command,org.eclipse.ui,3.6.2.M20110203-1100,"org.eclipse.ui.edit.paste",1383205419618
executed,command,org.eclipse.ui,3.6.2.M20110203-1100,"org.eclipse.ui.file.save",1383205420084
deactivated,workbench,org.eclipse.ui.workbench,3.6.2.M20110210-1200,"",1383205421426
activated,workbench,org.eclipse.ui.workbench,3.6.2.M20110210-1200,"",1383205426705
activated,view,org.eclipse.ui.console,3.5.0.v20100526,"org.eclipse.ui.console.ConsoleView",1383205426716
deactivated,workbench,org.eclipse.ui.workbench,3.6.2.M20110210-1200,"",1383205430097
activated,workbench,org.eclipse.ui.workbench,3.6.2.M20110210-1200,"",1383205453512
activated,editor,org.eclipse.jst.jsp.ui,1.1.503.v201101262228,"org.eclipse.jst.jsp.core.jspsource.source",1383205454771
executed,command,org.eclipse.ui,3.6.2.M20110203-1100,"org.eclipse.ui.edit.copy",1383205462017
executed,command,org.eclipse.ui,3.6.2.M20110203-1100,"org.eclipse.ui.edit.copy",1383205462288
activated,editor,org.eclipse.jdt.ui,3.6.2.r362_v20110203,"org.eclipse.jdt.ui.CompilationUnitEditor",1383205463597
activated,view,org.eclipse.ui.navigator.resources,3.4.202.M20101124-0800,"org.eclipse.ui.navigator.ProjectExplorer",1383205464990
opened,editor,org.eclipse.wst.css.ui,1.0.502.v201101122002,"org.eclipse.wst.css.core.csssource.source",1383205470112
activated,editor,org.eclipse.wst.css.ui,1.0.502.v201101122002,"org.eclipse.wst.css.core.csssource.source",1383205470202
deactivated,workbench,org.eclipse.ui.workbench,3.6.2.M20110210-1200,"",1383205470868
executed,command,org.eclipse.ui,3.6.2.M20110203-1100,"org.eclipse.ui.edit.findReplace",1383205470921
executed,command,org.eclipse.ui,3.6.2.M20110203-1100,"org.eclipse.ui.edit.paste",1383205471111
activated,workbench,org.eclipse.ui.workbench,3.6.2.M20110210-1200,"",1383205472909
deactivated,workbench,org.eclipse.ui.workbench,3.6.2.M20110210-1200,"",1383205474450
activated,workbench,org.eclipse.ui.workbench,3.6.2.M20110210-1200,"",1383205478761
deactivated,workbench,org.eclipse.ui.workbench,3.6.2.M20110210-1200,"",1383205479077
activated,workbench,org.eclipse.ui.workbench,3.6.2.M20110210-1200,"",1383205481164
deactivated,workbench,org.eclipse.ui.workbench,3.6.2.M20110210-1200,"",1383205481411
activated,workbench,org.eclipse.ui.workbench,3.6.2.M20110210-1200,"",1383205484364
activated,editor,org.eclipse.jst.jsp.ui,1.1.503.v201101262228,"org.eclipse.jst.jsp.core.jspsource.source",1383205485910
deactivated,workbench,org.eclipse.ui.workbench,3.6.2.M20110210-1200,"",1383205487724
activated,workbench,org.eclipse.ui.workbench,3.6.2.M20110210-1200,"",1383205489351
deactivated,workbench,org.eclipse.ui.workbench,3.6.2.M20110210-1200,"",1383205496295
activated,workbench,org.eclipse.ui.workbench,3.6.2.M20110210-1200,"",1383205497027
executed,command,org.eclipse.ui,3.6.2.M20110203-1100,"org.eclipse.ui.file.save",1383205504594
deactivated,workbench,org.eclipse.ui.workbench,3.6.2.M20110210-1200,"",1383205504898
activated,workbench,org.eclipse.ui.workbench,3.6.2.M20110210-1200,"",1383205509274
executed,command,org.eclipse.ui,3.6.2.M20110203-1100,"org.eclipse.ui.file.save",1383205515066
executed,command,org.eclipse.ui,3.6.2.M20110203-1100,"org.eclipse.ui.file.save",1383205518233
deactivated,workbench,org.eclipse.ui.workbench,3.6.2.M20110210-1200,"",1383205519018
activated,workbench,org.eclipse.ui.workbench,3.6.2.M20110210-1200,"",1383205521479
executed,command,org.eclipse.ui.workbench.texteditor,3.6.1.r361_v20100714-0800,"org.eclipse.ui.edit.text.delete.line",1383205525343
executed,command,org.eclipse.ui,3.6.2.M20110203-1100,"org.eclipse.ui.edit.undo",1383205526291
executed,command,org.eclipse.ui.workbench.texteditor,3.6.1.r361_v20100714-0800,"org.eclipse.ui.edit.text.delete.line",1383205527979
executed,command,org.eclipse.ui,3.6.2.M20110203-1100,"org.eclipse.ui.edit.undo",1383205528842
executed,command,org.eclipse.ui,3.6.2.M20110203-1100,"org.eclipse.ui.file.save",1383205533380
deactivated,workbench,org.eclipse.ui.workbench,3.6.2.M20110210-1200,"",1383205534424
activated,workbench,org.eclipse.ui.workbench,3.6.2.M20110210-1200,"",1383205539105
deactivated,workbench,org.eclipse.ui.workbench,3.6.2.M20110210-1200,"",1383205539844
activated,workbench,org.eclipse.ui.workbench,3.6.2.M20110210-1200,"",1383205541051
deactivated,workbench,org.eclipse.ui.workbench,3.6.2.M20110210-1200,"",1383205541651
activated,workbench,org.eclipse.ui.workbench,3.6.2.M20110210-1200,"",1383205557517
activated,editor,org.eclipse.wst.css.ui,1.0.502.v201101122002,"org.eclipse.wst.css.core.csssource.source",1383205561472
deactivated,workbench,org.eclipse.ui.workbench,3.6.2.M20110210-1200,"",1383205564617
activated,workbench,org.eclipse.ui.workbench,3.6.2.M20110210-1200,"",1383205566653
activated,editor,org.eclipse.jst.jsp.ui,1.1.503.v201101262228,"org.eclipse.jst.jsp.core.jspsource.source",1383205567289
executed,command,org.eclipse.ui,3.6.2.M20110203-1100,"org.eclipse.ui.edit.copy",1383205569177
activated,editor,org.eclipse.wst.css.ui,1.0.502.v201101122002,"org.eclipse.wst.css.core.csssource.source",1383205569900
deactivated,workbench,org.eclipse.ui.workbench,3.6.2.M20110210-1200,"",1383205570113
executed,command,org.eclipse.ui,3.6.2.M20110203-1100,"org.eclipse.ui.edit.findReplace",1383205570136
executed,command,org.eclipse.ui,3.6.2.M20110203-1100,"org.eclipse.ui.edit.paste",1383205570351
activated,workbench,org.eclipse.ui.workbench,3.6.2.M20110210-1200,"",1383205572611
deactivated,workbench,org.eclipse.ui.workbench,3.6.2.M20110210-1200,"",1383205577035
activated,workbench,org.eclipse.ui.workbench,3.6.2.M20110210-1200,"",1383205577970
executed,command,org.eclipse.ui,3.6.2.M20110203-1100,"org.eclipse.ui.file.save",1383205581740
deactivated,workbench,org.eclipse.ui.workbench,3.6.2.M20110210-1200,"",1383205581975
activated,workbench,org.eclipse.ui.workbench,3.6.2.M20110210-1200,"",1383205586041
deactivated,workbench,org.eclipse.ui.workbench,3.6.2.M20110210-1200,"",1383205586697
activated,workbench,org.eclipse.ui.workbench,3.6.2.M20110210-1200,"",1383205590847
executed,command,org.eclipse.ui,3.6.2.M20110203-1100,"org.eclipse.ui.edit.undo",1383205591670
executed,command,org.eclipse.ui,3.6.2.M20110203-1100,"org.eclipse.ui.edit.undo",1383205592112
executed,command,org.eclipse.ui,3.6.2.M20110203-1100,"org.eclipse.ui.file.save",1383205592526
deactivated,workbench,org.eclipse.ui.workbench,3.6.2.M20110210-1200,"",1383205592966
activated,workbench,org.eclipse.ui.workbench,3.6.2.M20110210-1200,"",1383205595459
executed,command,org.eclipse.ui,3.6.2.M20110203-1100,"org.eclipse.ui.file.save",1383205598774
deactivated,workbench,org.eclipse.ui.workbench,3.6.2.M20110210-1200,"",1383205599141
activated,workbench,org.eclipse.ui.workbench,3.6.2.M20110210-1200,"",1383205601176
executed,command,org.eclipse.ui,3.6.2.M20110203-1100,"org.eclipse.ui.file.save",1383205602976
deactivated,workbench,org.eclipse.ui.workbench,3.6.2.M20110210-1200,"",1383205603260
activated,workbench,org.eclipse.ui.workbench,3.6.2.M20110210-1200,"",1383205608032
executed,command,org.eclipse.ui,3.6.2.M20110203-1100,"org.eclipse.ui.file.save",1383205610117
deactivated,workbench,org.eclipse.ui.workbench,3.6.2.M20110210-1200,"",1383205610434
activated,workbench,org.eclipse.ui.workbench,3.6.2.M20110210-1200,"",1383205612515
deactivated,workbench,org.eclipse.ui.workbench,3.6.2.M20110210-1200,"",1383205614543
activated,workbench,org.eclipse.ui.workbench,3.6.2.M20110210-1200,"",1383205616460
deactivated,workbench,org.eclipse.ui.workbench,3.6.2.M20110210-1200,"",1383205616975
activated,workbench,org.eclipse.ui.workbench,3.6.2.M20110210-1200,"",1383205617657
activated,editor,org.eclipse.jdt.ui,3.6.2.r362_v20110203,"org.eclipse.jdt.ui.CompilationUnitEditor",1383205618101
activated,editor,org.eclipse.jst.jsp.ui,1.1.503.v201101262228,"org.eclipse.jst.jsp.core.jspsource.source",1383205618772
executed,command,org.eclipse.ui,3.6.2.M20110203-1100,"org.eclipse.ui.file.save",1383205629875
executed,command,org.eclipse.ui,3.6.2.M20110203-1100,"org.eclipse.ui.file.save",1383205640404
executed,command,org.eclipse.ui,3.6.2.M20110203-1100,"org.eclipse.ui.edit.cut",1383205643388
executed,command,org.eclipse.ui,3.6.2.M20110203-1100,"org.eclipse.ui.edit.paste",1383205646103
executed,command,org.eclipse.ui,3.6.2.M20110203-1100,"org.eclipse.ui.file.save",1383205646545
deactivated,workbench,org.eclipse.ui.workbench,3.6.2.M20110210-1200,"",1383205647529
activated,workbench,org.eclipse.ui.workbench,3.6.2.M20110210-1200,"",1383205651910
deactivated,workbench,org.eclipse.ui.workbench,3.6.2.M20110210-1200,"",1383205652399
activated,workbench,org.eclipse.ui.workbench,3.6.2.M20110210-1200,"",1383205652799
executed,command,org.eclipse.ui,3.6.2.M20110203-1100,"org.eclipse.ui.edit.copy",1383205654416
activated,editor,org.eclipse.wst.css.ui,1.0.502.v201101122002,"org.eclipse.wst.css.core.csssource.source",1383205655591
activated,editor,org.eclipse.jst.jsp.ui,1.1.503.v201101262228,"org.eclipse.jst.jsp.core.jspsource.source",1383205666464
executed,command,org.eclipse.ui,3.6.2.M20110203-1100,"org.eclipse.ui.edit.copy",1383205669743
activated,editor,org.eclipse.wst.css.ui,1.0.502.v201101122002,"org.eclipse.wst.css.core.csssource.source",1383205670824
deactivated,workbench,org.eclipse.ui.workbench,3.6.2.M20110210-1200,"",1383205670996
executed,command,org.eclipse.ui,3.6.2.M20110203-1100,"org.eclipse.ui.edit.findReplace",1383205671041
executed,command,org.eclipse.ui,3.6.2.M20110203-1100,"org.eclipse.ui.edit.paste",1383205671273
activated,workbench,org.eclipse.ui.workbench,3.6.2.M20110210-1200,"",1383205672883
activated,editor,org.eclipse.jst.jsp.ui,1.1.503.v201101262228,"org.eclipse.jst.jsp.core.jspsource.source",1383205677605
executed,command,org.eclipse.ui,3.6.2.M20110203-1100,"org.eclipse.ui.edit.copy",1383205679210
activated,editor,org.eclipse.wst.css.ui,1.0.502.v201101122002,"org.eclipse.wst.css.core.csssource.source",1383205680097
executed,command,org.eclipse.ui,3.6.2.M20110203-1100,"org.eclipse.ui.edit.paste",1383205681709
activated,editor,org.eclipse.jst.jsp.ui,1.1.503.v201101262228,"org.eclipse.jst.jsp.core.jspsource.source",1383205686250
started,bundle,org.eclipse.jst.jsf.facelet.core,1.0.2.v201101042130,"org.eclipse.jst.jsf.facelet.core",1383205691722
executed,command,org.eclipse.ui,3.6.2.M20110203-1100,"org.eclipse.ui.file.save",1383205693137
deactivated,workbench,org.eclipse.ui.workbench,3.6.2.M20110210-1200,"",1383205693647
activated,workbench,org.eclipse.ui.workbench,3.6.2.M20110210-1200,"",1383205696566
executed,command,org.eclipse.ui,3.6.2.M20110203-1100,"org.eclipse.ui.edit.cut",1383205702092
executed,command,org.eclipse.ui,3.6.2.M20110203-1100,"org.eclipse.ui.edit.paste",1383205703125
executed,command,org.eclipse.ui,3.6.2.M20110203-1100,"org.eclipse.ui.file.save",1383205703462
deactivated,workbench,org.eclipse.ui.workbench,3.6.2.M20110210-1200,"",1383205703799
activated,workbench,org.eclipse.ui.workbench,3.6.2.M20110210-1200,"",1383205706031
executed,command,org.eclipse.ui,3.6.2.M20110203-1100,"org.eclipse.ui.edit.copy",1383205709235
activated,editor,org.eclipse.wst.css.ui,1.0.502.v201101122002,"org.eclipse.wst.css.core.csssource.source",1383205710658
executed,command,org.eclipse.ui,3.6.2.M20110203-1100,"org.eclipse.ui.edit.delete",1383205733986
executed,command,org.eclipse.ui,3.6.2.M20110203-1100,"org.eclipse.ui.file.save",1383205734738
deactivated,workbench,org.eclipse.ui.workbench,3.6.2.M20110210-1200,"",1383205734982
activated,workbench,org.eclipse.ui.workbench,3.6.2.M20110210-1200,"",1383205739917
executed,command,org.eclipse.ui,3.6.2.M20110203-1100,"org.eclipse.ui.file.save",1383205751542
deactivated,workbench,org.eclipse.ui.workbench,3.6.2.M20110210-1200,"",1383205751747
activated,workbench,org.eclipse.ui.workbench,3.6.2.M20110210-1200,"",1383205758331
activated,editor,org.eclipse.jst.jsp.ui,1.1.503.v201101262228,"org.eclipse.jst.jsp.core.jspsource.source",1383205764240
executed,command,org.eclipse.ui,3.6.2.M20110203-1100,"org.eclipse.ui.edit.cut",1383205766687
executed,command,org.eclipse.ui,3.6.2.M20110203-1100,"org.eclipse.ui.edit.paste",1383205769254
executed,command,org.eclipse.ui,3.6.2.M20110203-1100,"org.eclipse.ui.file.save",1383205769725
executed,command,org.eclipse.ui,3.6.2.M20110203-1100,"org.eclipse.ui.edit.copy",1383205771298
activated,editor,org.eclipse.wst.css.ui,1.0.502.v201101122002,"org.eclipse.wst.css.core.csssource.source",1383205772780
deactivated,workbench,org.eclipse.ui.workbench,3.6.2.M20110210-1200,"",1383205773087
executed,command,org.eclipse.ui,3.6.2.M20110203-1100,"org.eclipse.ui.edit.findReplace",1383205773142
executed,command,org.eclipse.ui,3.6.2.M20110203-1100,"org.eclipse.ui.edit.paste",1383205773236
activated,workbench,org.eclipse.ui.workbench,3.6.2.M20110210-1200,"",1383205774285
executed,command,org.eclipse.ui,3.6.2.M20110203-1100,"org.eclipse.ui.edit.copy",1383205777299
executed,command,org.eclipse.ui,3.6.2.M20110203-1100,"org.eclipse.ui.edit.copy",1383205778966
activated,editor,org.eclipse.ui.browser,3.3.1.r36_20101216,"org.eclipse.ui.browser.editor",1383205780578
activated,editor,org.eclipse.jst.jsp.ui,1.1.503.v201101262228,"org.eclipse.jst.jsp.core.jspsource.source",1383205781268
executed,command,org.eclipse.ui,3.6.2.M20110203-1100,"org.eclipse.ui.edit.paste",1383205783673
executed,command,org.eclipse.ui,3.6.2.M20110203-1100,"org.eclipse.ui.file.save",1383205784119
activated,editor,org.eclipse.wst.css.ui,1.0.502.v201101122002,"org.eclipse.wst.css.core.csssource.source",1383205784994
executed,command,org.eclipse.ui,3.6.2.M20110203-1100,"org.eclipse.ui.edit.text.contentAssist.proposals",1383205792725
executed,command,org.eclipse.ui,3.6.2.M20110203-1100,"org.eclipse.ui.edit.text.contentAssist.proposals",1383205794174
executed,command,org.eclipse.ui,3.6.2.M20110203-1100,"org.eclipse.ui.file.save",1383205797321
deactivated,workbench,org.eclipse.ui.workbench,3.6.2.M20110210-1200,"",1383205797793
activated,workbench,org.eclipse.ui.workbench,3.6.2.M20110210-1200,"",1383205806440
activated,editor,org.eclipse.jst.jsp.ui,1.1.503.v201101262228,"org.eclipse.jst.jsp.core.jspsource.source",1383205810169
activated,editor,org.eclipse.wst.css.ui,1.0.502.v201101122002,"org.eclipse.wst.css.core.csssource.source",1383205811309
executed,command,org.eclipse.ui,3.6.2.M20110203-1100,"org.eclipse.ui.file.save",1383205819465
deactivated,workbench,org.eclipse.ui.workbench,3.6.2.M20110210-1200,"",1383205819784
activated,workbench,org.eclipse.ui.workbench,3.6.2.M20110210-1200,"",1383205826755
activated,editor,org.eclipse.jst.jsp.ui,1.1.503.v201101262228,"org.eclipse.jst.jsp.core.jspsource.source",1383205828967
executed,command,org.eclipse.ui,3.6.2.M20110203-1100,"org.eclipse.ui.file.save",1383205836091
executed,command,org.eclipse.ui,3.6.2.M20110203-1100,"org.eclipse.ui.file.save",1383205842391
deactivated,workbench,org.eclipse.ui.workbench,3.6.2.M20110210-1200,"",1383205842474
activated,workbench,org.eclipse.ui.workbench,3.6.2.M20110210-1200,"",1383205845223
