what,kind,bundleId,bundleVersion,description,time
deactivated,workbench,org.eclipse.ui.workbench,3.6.2.M20110210-1200,"",1383254797450
activated,workbench,org.eclipse.ui.workbench,3.6.2.M20110210-1200,"",1383254859928
deactivated,workbench,org.eclipse.ui.workbench,3.6.2.M20110210-1200,"",1383254861977
activated,workbench,org.eclipse.ui.workbench,3.6.2.M20110210-1200,"",1383254864672
executed,command,org.eclipse.ui,3.6.2.M20110203-1100,"org.eclipse.ui.edit.cut",1383254868669
executed,command,org.eclipse.ui,3.6.2.M20110203-1100,"org.eclipse.ui.file.save",1383254869017
deactivated,workbench,org.eclipse.ui.workbench,3.6.2.M20110210-1200,"",1383254869248
activated,workbench,org.eclipse.ui.workbench,3.6.2.M20110210-1200,"",1383254872231
deactivated,workbench,org.eclipse.ui.workbench,3.6.2.M20110210-1200,"",1383254872829
activated,workbench,org.eclipse.ui.workbench,3.6.2.M20110210-1200,"",1383254882196
executed,command,org.eclipse.ui,3.6.2.M20110203-1100,"org.eclipse.ui.file.save",1383254891001
deactivated,workbench,org.eclipse.ui.workbench,3.6.2.M20110210-1200,"",1383254891372
activated,workbench,org.eclipse.ui.workbench,3.6.2.M20110210-1200,"",1383254893617
executed,command,org.eclipse.ui,3.6.2.M20110203-1100,"org.eclipse.ui.edit.delete",1383254895840
executed,command,org.eclipse.ui,3.6.2.M20110203-1100,"org.eclipse.ui.file.save",1383254896230
executed,command,org.eclipse.ui,3.6.2.M20110203-1100,"org.eclipse.ui.file.save",1383254897259
executed,command,org.eclipse.ui,3.6.2.M20110203-1100,"org.eclipse.ui.file.save",1383254901163
deactivated,workbench,org.eclipse.ui.workbench,3.6.2.M20110210-1200,"",1383254901365
activated,workbench,org.eclipse.ui.workbench,3.6.2.M20110210-1200,"",1383254910961
executed,command,org.eclipse.ui,3.6.2.M20110203-1100,"org.eclipse.ui.file.save",1383254913333
deactivated,workbench,org.eclipse.ui.workbench,3.6.2.M20110210-1200,"",1383254913539
activated,workbench,org.eclipse.ui.workbench,3.6.2.M20110210-1200,"",1383254920723
deactivated,workbench,org.eclipse.ui.workbench,3.6.2.M20110210-1200,"",1383254922084
activated,workbench,org.eclipse.ui.workbench,3.6.2.M20110210-1200,"",1383254929657
executed,command,org.eclipse.ui,3.6.2.M20110203-1100,"org.eclipse.ui.file.save",1383254932120
deactivated,workbench,org.eclipse.ui.workbench,3.6.2.M20110210-1200,"",1383254932533
activated,workbench,org.eclipse.ui.workbench,3.6.2.M20110210-1200,"",1383254936884
executed,command,org.eclipse.ui,3.6.2.M20110203-1100,"org.eclipse.ui.file.save",1383254940222
deactivated,workbench,org.eclipse.ui.workbench,3.6.2.M20110210-1200,"",1383254940533
activated,workbench,org.eclipse.ui.workbench,3.6.2.M20110210-1200,"",1383254942834
executed,command,org.eclipse.ui,3.6.2.M20110203-1100,"org.eclipse.ui.file.save",1383254945695
deactivated,workbench,org.eclipse.ui.workbench,3.6.2.M20110210-1200,"",1383254945940
activated,workbench,org.eclipse.ui.workbench,3.6.2.M20110210-1200,"",1383254948393
executed,command,org.eclipse.ui,3.6.2.M20110203-1100,"org.eclipse.ui.file.save",1383254950117
deactivated,workbench,org.eclipse.ui.workbench,3.6.2.M20110210-1200,"",1383254950393
activated,workbench,org.eclipse.ui.workbench,3.6.2.M20110210-1200,"",1383254958125
deactivated,workbench,org.eclipse.ui.workbench,3.6.2.M20110210-1200,"",1383254959626
activated,workbench,org.eclipse.ui.workbench,3.6.2.M20110210-1200,"",1383254960235
deactivated,workbench,org.eclipse.ui.workbench,3.6.2.M20110210-1200,"",1383254963359
activated,workbench,org.eclipse.ui.workbench,3.6.2.M20110210-1200,"",1383254963420
executed,command,org.eclipse.ui,3.6.2.M20110203-1100,"org.eclipse.ui.file.save",1383254963423
deactivated,workbench,org.eclipse.ui.workbench,3.6.2.M20110210-1200,"",1383254967643
activated,workbench,org.eclipse.ui.workbench,3.6.2.M20110210-1200,"",1383254969863
executed,command,org.eclipse.ui,3.6.2.M20110203-1100,"org.eclipse.ui.file.save",1383254971297
deactivated,workbench,org.eclipse.ui.workbench,3.6.2.M20110210-1200,"",1383254971556
activated,workbench,org.eclipse.ui.workbench,3.6.2.M20110210-1200,"",1383254976458
executed,command,org.eclipse.ui,3.6.2.M20110203-1100,"org.eclipse.ui.file.save",1383254978831
deactivated,workbench,org.eclipse.ui.workbench,3.6.2.M20110210-1200,"",1383254979090
activated,workbench,org.eclipse.ui.workbench,3.6.2.M20110210-1200,"",1383254981492
executed,command,org.eclipse.ui,3.6.2.M20110203-1100,"org.eclipse.ui.file.save",1383254983111
deactivated,workbench,org.eclipse.ui.workbench,3.6.2.M20110210-1200,"",1383254983372
activated,workbench,org.eclipse.ui.workbench,3.6.2.M20110210-1200,"",1383254990190
executed,command,org.eclipse.ui,3.6.2.M20110203-1100,"org.eclipse.ui.file.save",1383254991796
deactivated,workbench,org.eclipse.ui.workbench,3.6.2.M20110210-1200,"",1383254992115
activated,workbench,org.eclipse.ui.workbench,3.6.2.M20110210-1200,"",1383254994912
executed,command,org.eclipse.ui,3.6.2.M20110203-1100,"org.eclipse.ui.file.save",1383254996402
deactivated,workbench,org.eclipse.ui.workbench,3.6.2.M20110210-1200,"",1383254996736
activated,workbench,org.eclipse.ui.workbench,3.6.2.M20110210-1200,"",1383255004278
executed,command,org.eclipse.ui,3.6.2.M20110203-1100,"org.eclipse.ui.file.save",1383255007586
deactivated,workbench,org.eclipse.ui.workbench,3.6.2.M20110210-1200,"",1383255007947
activated,workbench,org.eclipse.ui.workbench,3.6.2.M20110210-1200,"",1383255013240
executed,command,org.eclipse.ui,3.6.2.M20110203-1100,"org.eclipse.ui.file.save",1383255014860
deactivated,workbench,org.eclipse.ui.workbench,3.6.2.M20110210-1200,"",1383255015133
activated,workbench,org.eclipse.ui.workbench,3.6.2.M20110210-1200,"",1383255017530
executed,command,org.eclipse.ui,3.6.2.M20110203-1100,"org.eclipse.ui.file.save",1383255019045
deactivated,workbench,org.eclipse.ui.workbench,3.6.2.M20110210-1200,"",1383255019288
activated,workbench,org.eclipse.ui.workbench,3.6.2.M20110210-1200,"",1383255026199
executed,command,org.eclipse.ui,3.6.2.M20110203-1100,"org.eclipse.ui.file.save",1383255027245
deactivated,workbench,org.eclipse.ui.workbench,3.6.2.M20110210-1200,"",1383255027501
activated,workbench,org.eclipse.ui.workbench,3.6.2.M20110210-1200,"",1383255036163
deactivated,workbench,org.eclipse.ui.workbench,3.6.2.M20110210-1200,"",1383255036880
activated,workbench,org.eclipse.ui.workbench,3.6.2.M20110210-1200,"",1383255037887
executed,command,org.eclipse.ui,3.6.2.M20110203-1100,"org.eclipse.ui.file.save",1383255041249
deactivated,workbench,org.eclipse.ui.workbench,3.6.2.M20110210-1200,"",1383255041511
activated,workbench,org.eclipse.ui.workbench,3.6.2.M20110210-1200,"",1383255043801
executed,command,org.eclipse.ui,3.6.2.M20110203-1100,"org.eclipse.ui.file.save",1383255045086
deactivated,workbench,org.eclipse.ui.workbench,3.6.2.M20110210-1200,"",1383255045414
activated,workbench,org.eclipse.ui.workbench,3.6.2.M20110210-1200,"",1383255053074
executed,command,org.eclipse.ui,3.6.2.M20110203-1100,"org.eclipse.ui.file.save",1383255056419
deactivated,workbench,org.eclipse.ui.workbench,3.6.2.M20110210-1200,"",1383255056580
activated,workbench,org.eclipse.ui.workbench,3.6.2.M20110210-1200,"",1383255057308
executed,command,org.eclipse.ui,3.6.2.M20110203-1100,"org.eclipse.ui.file.save",1383255058740
deactivated,workbench,org.eclipse.ui.workbench,3.6.2.M20110210-1200,"",1383255058946
activated,workbench,org.eclipse.ui.workbench,3.6.2.M20110210-1200,"",1383255061755
executed,command,org.eclipse.ui,3.6.2.M20110203-1100,"org.eclipse.ui.file.save",1383255063385
deactivated,workbench,org.eclipse.ui.workbench,3.6.2.M20110210-1200,"",1383255063646
activated,workbench,org.eclipse.ui.workbench,3.6.2.M20110210-1200,"",1383255070722
executed,command,org.eclipse.ui,3.6.2.M20110203-1100,"org.eclipse.ui.file.save",1383255074759
deactivated,workbench,org.eclipse.ui.workbench,3.6.2.M20110210-1200,"",1383255075027
activated,workbench,org.eclipse.ui.workbench,3.6.2.M20110210-1200,"",1383255081664
executed,command,org.eclipse.ui,3.6.2.M20110203-1100,"org.eclipse.ui.file.save",1383255101051
deactivated,workbench,org.eclipse.ui.workbench,3.6.2.M20110210-1200,"",1383255101298
activated,workbench,org.eclipse.ui.workbench,3.6.2.M20110210-1200,"",1383255112022
deactivated,workbench,org.eclipse.ui.workbench,3.6.2.M20110210-1200,"",1383255824472
activated,workbench,org.eclipse.ui.workbench,3.6.2.M20110210-1200,"",1383255827190
deactivated,workbench,org.eclipse.ui.workbench,3.6.2.M20110210-1200,"",1383255831341
activated,workbench,org.eclipse.ui.workbench,3.6.2.M20110210-1200,"",1383256109887
deactivated,workbench,org.eclipse.ui.workbench,3.6.2.M20110210-1200,"",1383256112414
executed,command,org.eclipse.ui,3.6.2.M20110203-1100,"org.eclipse.ui.edit.copy",1383256114979
executed,command,org.eclipse.ui,3.6.2.M20110203-1100,"org.eclipse.ui.edit.copy",1383256115160
activated,workbench,org.eclipse.ui.workbench,3.6.2.M20110210-1200,"",1383256115966
executed,command,org.eclipse.ui,3.6.2.M20110203-1100,"org.eclipse.ui.file.properties",1383256115978
deactivated,workbench,org.eclipse.ui.workbench,3.6.2.M20110210-1200,"",1383256116690
activated,workbench,org.eclipse.ui.workbench,3.6.2.M20110210-1200,"",1383256121578
deactivated,workbench,org.eclipse.ui.workbench,3.6.2.M20110210-1200,"",1383256121831
activated,workbench,org.eclipse.ui.workbench,3.6.2.M20110210-1200,"",1383256132841
deactivated,workbench,org.eclipse.ui.workbench,3.6.2.M20110210-1200,"",1383256133925
activated,workbench,org.eclipse.ui.workbench,3.6.2.M20110210-1200,"",1383256134415
executed,command,org.eclipse.ui,3.6.2.M20110203-1100,"org.eclipse.ui.edit.undo",1383256134784
deactivated,workbench,org.eclipse.ui.workbench,3.6.2.M20110210-1200,"",1383256135200
activated,workbench,org.eclipse.ui.workbench,3.6.2.M20110210-1200,"",1383256147322
executed,command,org.eclipse.ui,3.6.2.M20110203-1100,"org.eclipse.ui.edit.paste",1383256164209
activated,view,org.eclipse.ui.navigator.resources,3.4.202.M20101124-0800,"org.eclipse.ui.navigator.ProjectExplorer",1383256169869
opened,editor,org.eclipse.jdt.ui,3.6.2.r362_v20110203,"org.eclipse.jdt.ui.CompilationUnitEditor",1383256173999
activated,editor,org.eclipse.jdt.ui,3.6.2.r362_v20110203,"org.eclipse.jdt.ui.CompilationUnitEditor",1383256174480
executed,command,org.eclipse.ui,3.6.2.M20110203-1100,"org.eclipse.ui.edit.cut",1383256180304
executed,command,org.eclipse.ui,3.6.2.M20110203-1100,"org.eclipse.ui.edit.paste",1383256183854
executed,command,org.eclipse.ui,3.6.2.M20110203-1100,"org.eclipse.ui.file.save",1383256184407
deactivated,workbench,org.eclipse.ui.workbench,3.6.2.M20110210-1200,"",1383256184644
activated,workbench,org.eclipse.ui.workbench,3.6.2.M20110210-1200,"",1383256188160
deactivated,workbench,org.eclipse.ui.workbench,3.6.2.M20110210-1200,"",1383256188643
activated,workbench,org.eclipse.ui.workbench,3.6.2.M20110210-1200,"",1383256190536
activated,view,org.eclipse.ui.navigator.resources,3.4.202.M20101124-0800,"org.eclipse.ui.navigator.ProjectExplorer",1383256192077
opened,editor,org.eclipse.jst.jsp.ui,1.1.503.v201101262228,"org.eclipse.jst.jsp.core.jspsource.source",1383256195758
activated,editor,org.eclipse.jst.jsp.ui,1.1.503.v201101262228,"org.eclipse.jst.jsp.core.jspsource.source",1383256195848
activated,view,org.eclipse.ui.navigator.resources,3.4.202.M20101124-0800,"org.eclipse.ui.navigator.ProjectExplorer",1383256196650
opened,editor,org.eclipse.jst.jsp.ui,1.1.503.v201101262228,"org.eclipse.jst.jsp.core.jspsource.source",1383256196948
activated,editor,org.eclipse.jst.jsp.ui,1.1.503.v201101262228,"org.eclipse.jst.jsp.core.jspsource.source",1383256196991
executed,command,org.eclipse.ui,3.6.2.M20110203-1100,"org.eclipse.ui.edit.copy",1383256205963
executed,command,org.eclipse.ui,3.6.2.M20110203-1100,"org.eclipse.ui.edit.copy",1383256206163
executed,command,org.eclipse.ui,3.6.2.M20110203-1100,"org.eclipse.ui.edit.copy",1383256206352
activated,editor,org.eclipse.jst.jsp.ui,1.1.503.v201101262228,"org.eclipse.jst.jsp.core.jspsource.source",1383256207070
activated,editor,org.eclipse.jdt.ui,3.6.2.r362_v20110203,"org.eclipse.jdt.ui.CompilationUnitEditor",1383256207889
activated,editor,org.eclipse.jst.jsp.ui,1.1.503.v201101262228,"org.eclipse.jst.jsp.core.jspsource.source",1383256208529
executed,command,org.eclipse.ui,3.6.2.M20110203-1100,"org.eclipse.ui.edit.paste",1383256209806
executed,command,org.eclipse.ui,3.6.2.M20110203-1100,"org.eclipse.ui.file.save",1383256210509
activated,view,org.eclipse.ui.navigator.resources,3.4.202.M20101124-0800,"org.eclipse.ui.navigator.ProjectExplorer",1383256215714
activated,editor,org.eclipse.jst.jsp.ui,1.1.503.v201101262228,"org.eclipse.jst.jsp.core.jspsource.source",1383256218945
executed,command,org.eclipse.ui,3.6.2.M20110203-1100,"org.eclipse.ui.edit.copy",1383256220960
executed,command,org.eclipse.ui,3.6.2.M20110203-1100,"org.eclipse.ui.edit.paste",1383256223000
executed,command,org.eclipse.ui,3.6.2.M20110203-1100,"org.eclipse.ui.file.save",1383256223578
deactivated,workbench,org.eclipse.ui.workbench,3.6.2.M20110210-1200,"",1383256224184
activated,workbench,org.eclipse.ui.workbench,3.6.2.M20110210-1200,"",1383256231992
deactivated,workbench,org.eclipse.ui.workbench,3.6.2.M20110210-1200,"",1383256232451
activated,workbench,org.eclipse.ui.workbench,3.6.2.M20110210-1200,"",1383256237387
deactivated,workbench,org.eclipse.ui.workbench,3.6.2.M20110210-1200,"",1383256239805
activated,workbench,org.eclipse.ui.workbench,3.6.2.M20110210-1200,"",1383256243226
executed,command,org.eclipse.ui,3.6.2.M20110203-1100,"org.eclipse.ui.edit.paste",1383256247439
executed,command,org.eclipse.ui,3.6.2.M20110203-1100,"org.eclipse.ui.file.save",1383256247898
deactivated,workbench,org.eclipse.ui.workbench,3.6.2.M20110210-1200,"",1383256248087
activated,workbench,org.eclipse.ui.workbench,3.6.2.M20110210-1200,"",1383256251344
executed,command,org.eclipse.ui,3.6.2.M20110203-1100,"org.eclipse.ui.file.save",1383256257569
deactivated,workbench,org.eclipse.ui.workbench,3.6.2.M20110210-1200,"",1383256257843
activated,workbench,org.eclipse.ui.workbench,3.6.2.M20110210-1200,"",1383256261776
activated,view,org.eclipse.ui.navigator.resources,3.4.202.M20101124-0800,"org.eclipse.ui.navigator.ProjectExplorer",1383256265393
executed,command,org.eclipse.ui,3.6.2.M20110203-1100,"org.eclipse.ui.file.refresh",1383256266635
deactivated,workbench,org.eclipse.ui.workbench,3.6.2.M20110210-1200,"",1383256272530
activated,workbench,org.eclipse.ui.workbench,3.6.2.M20110210-1200,"",1383256275535
deactivated,workbench,org.eclipse.ui.workbench,3.6.2.M20110210-1200,"",1383256277897
activated,workbench,org.eclipse.ui.workbench,3.6.2.M20110210-1200,"",1383256293445
activated,editor,org.eclipse.jst.jsp.ui,1.1.503.v201101262228,"org.eclipse.jst.jsp.core.jspsource.source",1383256295504
executed,command,org.eclipse.ui,3.6.2.M20110203-1100,"org.eclipse.ui.edit.paste",1383256301243
executed,command,org.eclipse.ui,3.6.2.M20110203-1100,"org.eclipse.ui.file.save",1383256301929
deactivated,workbench,org.eclipse.ui.workbench,3.6.2.M20110210-1200,"",1383256302199
activated,workbench,org.eclipse.ui.workbench,3.6.2.M20110210-1200,"",1383256315167
deactivated,workbench,org.eclipse.ui.workbench,3.6.2.M20110210-1200,"",1383256317174
activated,workbench,org.eclipse.ui.workbench,3.6.2.M20110210-1200,"",1383256317725
deactivated,workbench,org.eclipse.ui.workbench,3.6.2.M20110210-1200,"",1383256321644
activated,workbench,org.eclipse.ui.workbench,3.6.2.M20110210-1200,"",1383256324947
executed,command,org.eclipse.ui,3.6.2.M20110203-1100,"org.eclipse.ui.edit.undo",1383256335450
executed,command,org.eclipse.ui,3.6.2.M20110203-1100,"org.eclipse.ui.file.save",1383256338729
activated,editor,org.eclipse.jdt.ui,3.6.2.r362_v20110203,"org.eclipse.jdt.ui.CompilationUnitEditor",1383256346546
activated,view,org.eclipse.ui.navigator.resources,3.4.202.M20101124-0800,"org.eclipse.ui.navigator.ProjectExplorer",1383256351620
activated,editor,org.eclipse.jdt.ui,3.6.2.r362_v20110203,"org.eclipse.jdt.ui.CompilationUnitEditor",1383256352795
executed,command,,,"AUTOGEN:::org.eclipse.jdt.debug.CompilationUnitEditor.BreakpointRulerActions/org.eclipse.jdt.debug.ui.actions.ManageBreakpointRulerAction",1383256353080
activated,view,org.eclipse.ui.navigator.resources,3.4.202.M20101124-0800,"org.eclipse.ui.navigator.ProjectExplorer",1383256356236
opened,editor,org.eclipse.jst.jsp.ui,1.1.503.v201101262228,"org.eclipse.jst.jsp.core.jspsource.source",1383256358337
activated,editor,org.eclipse.jst.jsp.ui,1.1.503.v201101262228,"org.eclipse.jst.jsp.core.jspsource.source",1383256358392
activated,editor,org.eclipse.jdt.ui,3.6.2.r362_v20110203,"org.eclipse.jdt.ui.CompilationUnitEditor",1383256370439
activated,editor,org.eclipse.jst.jsp.ui,1.1.503.v201101262228,"org.eclipse.jst.jsp.core.jspsource.source",1383256372499
activated,editor,org.eclipse.jst.jsp.ui,1.1.503.v201101262228,"org.eclipse.jst.jsp.core.jspsource.source",1383256385984
executed,command,org.eclipse.ui,3.6.2.M20110203-1100,"org.eclipse.ui.edit.copy",1383256393116
activated,editor,org.eclipse.jst.jsp.ui,1.1.503.v201101262228,"org.eclipse.jst.jsp.core.jspsource.source",1383256395596
executed,command,org.eclipse.ui,3.6.2.M20110203-1100,"org.eclipse.ui.edit.paste",1383256403448
executed,command,org.eclipse.ui,3.6.2.M20110203-1100,"org.eclipse.ui.edit.undo",1383256403871
executed,command,org.eclipse.ui,3.6.2.M20110203-1100,"org.eclipse.ui.edit.paste",1383256406567
executed,command,org.eclipse.ui,3.6.2.M20110203-1100,"org.eclipse.ui.edit.cut",1383256409587
executed,command,org.eclipse.ui,3.6.2.M20110203-1100,"org.eclipse.ui.edit.paste",1383256411008
executed,command,org.eclipse.ui,3.6.2.M20110203-1100,"org.eclipse.ui.file.save",1383256411548
executed,command,org.eclipse.ui,3.6.2.M20110203-1100,"org.eclipse.ui.edit.cut",1383256418379
executed,command,org.eclipse.ui,3.6.2.M20110203-1100,"org.eclipse.ui.edit.paste",1383256421401
executed,command,org.eclipse.ui,3.6.2.M20110203-1100,"org.eclipse.ui.file.save",1383256421886
deactivated,workbench,org.eclipse.ui.workbench,3.6.2.M20110210-1200,"",1383256424218
activated,workbench,org.eclipse.ui.workbench,3.6.2.M20110210-1200,"",1383256425268
activated,editor,org.eclipse.jdt.ui,3.6.2.r362_v20110203,"org.eclipse.jdt.ui.CompilationUnitEditor",1383256426512
deactivated,workbench,org.eclipse.ui.workbench,3.6.2.M20110210-1200,"",1383256428736
activated,workbench,org.eclipse.ui.workbench,3.6.2.M20110210-1200,"",1383256430457
activated,view,org.eclipse.ui.console,3.5.0.v20100526,"org.eclipse.ui.console.ConsoleView",1383256432192
activated,editor,org.eclipse.jdt.ui,3.6.2.r362_v20110203,"org.eclipse.jdt.ui.CompilationUnitEditor",1383256434499
activated,editor,org.eclipse.jst.jsp.ui,1.1.503.v201101262228,"org.eclipse.jst.jsp.core.jspsource.source",1383256435576
deactivated,workbench,org.eclipse.ui.workbench,3.6.2.M20110210-1200,"",1383256449832
activated,workbench,org.eclipse.ui.workbench,3.6.2.M20110210-1200,"",1383259434978
deactivated,workbench,org.eclipse.ui.workbench,3.6.2.M20110210-1200,"",1383259440791
activated,workbench,org.eclipse.ui.workbench,3.6.2.M20110210-1200,"",1383259443068
closed,workbench,org.eclipse.ui.workbench,3.6.2.M20110210-1200,"",1383259444721
stopped,bundle,org.eclipse.jst.j2ee.xdoclet.runtime,1.1.300.v201004280700,"org.eclipse.jst.j2ee.xdoclet.runtime",1383259455153
stopped,bundle,org.eclipse.jst.j2ee.ejb.annotations.xdoclet,1.2.100.v201003112036,"org.eclipse.jst.j2ee.ejb.annotations.xdoclet",1383259455226
stopped,bundle,org.eclipse.jst.server.generic.jboss,1.6.1.v200904151730,"org.eclipse.jst.server.generic.jboss",1383259455439
stopped,bundle,org.eclipse.jst.server.generic.jonas,1.5.205.v200805140145,"org.eclipse.jst.server.generic.jonas",1383259455708
stopped,bundle,org.eclipse.jst.server.generic.oc4j,1.5.206.v20090812,"org.eclipse.jst.server.generic.oc4j",1383259455864
stopped,bundle,org.eclipse.jst.server.websphere.core,1.0.302.v20080620,"org.eclipse.jst.server.websphere.core",1383259456027
stopped,bundle,oracle.eclipse.tools.weblogic.legacy,3.2.3.201107052022,"oracle.eclipse.tools.weblogic.legacy",1383259456104
activated,perspective,org.eclipse.jst.j2ee.ui,,"org.eclipse.jst.j2ee.J2EEPerspective",1383262709210
started,bundle,org.eclipse.osgi,3.6.2.R36x_v20110210,"org.eclipse.osgi",1383262709213
started,bundle,org.eclipse.equinox.simpleconfigurator,1.0.200.v20100503,"org.eclipse.equinox.simpleconfigurator",1383262709216
started,bundle,com.ibm.icu,4.2.1.v20100412,"com.ibm.icu",1383262709216
started,bundle,org.eclipse.compare.core,3.5.101.R36x_v20100929-0800,"org.eclipse.compare.core",1383262709217
started,bundle,org.eclipse.core.contenttype,3.4.100.v20100505-1235,"org.eclipse.core.contenttype",1383262709217
started,bundle,org.eclipse.core.databinding.observable,1.3.0.I20100601-0800,"org.eclipse.core.databinding.observable",1383262709219
started,bundle,org.eclipse.core.expressions,3.4.200.v20100505,"org.eclipse.core.expressions",1383262709221
started,bundle,org.eclipse.core.filebuffers,3.5.100.v20100520-0800,"org.eclipse.core.filebuffers",1383262709222
started,bundle,org.eclipse.core.filesystem,1.3.1.R36x_v20100727-0745,"org.eclipse.core.filesystem",1383262709224
started,bundle,org.eclipse.core.net,1.2.100.I20100511-0800,"org.eclipse.core.net",1383262709225
started,bundle,org.eclipse.core.resources,3.6.1.R36x_v20110131-1630,"org.eclipse.core.resources",1383262709226
started,bundle,org.eclipse.core.runtime,3.6.0.v20100505,"org.eclipse.core.runtime",1383262709228
started,bundle,org.eclipse.core.runtime.compatibility,3.2.100.v20100505,"org.eclipse.core.runtime.compatibility",1383262709230
started,bundle,org.eclipse.core.runtime.compatibility.auth,3.2.200.v20100517,"org.eclipse.core.runtime.compatibility.auth",1383262709231
started,bundle,org.eclipse.debug.core,3.6.0.v20100519,"org.eclipse.debug.core",1383262709232
started,bundle,org.eclipse.debug.ui,3.6.3.v20101201_r362,"org.eclipse.debug.ui",1383262709234
started,bundle,org.eclipse.emf.common,2.6.0.v20100914-1218,"org.eclipse.emf.common",1383262709236
started,bundle,org.eclipse.emf.common.ui,2.6.0.v20100914-1218,"org.eclipse.emf.common.ui",1383262709238
started,bundle,org.eclipse.emf.ecore,2.6.1.v20100914-1218,"org.eclipse.emf.ecore",1383262709240
started,bundle,org.eclipse.emf.ecore.xmi,2.5.0.v20100521-1846,"org.eclipse.emf.ecore.xmi",1383262709242
started,bundle,org.eclipse.emf.edit,2.6.0.v20100914-1218,"org.eclipse.emf.edit",1383262709244
started,bundle,org.eclipse.emf.edit.ui,2.6.0.v20100914-1218,"org.eclipse.emf.edit.ui",1383262709247
started,bundle,org.eclipse.epp.usagedata.gathering,1.3.1.R201102081640,"org.eclipse.epp.usagedata.gathering",1383262709247
started,bundle,org.eclipse.epp.usagedata.recording,1.3.1.R201102081640,"org.eclipse.epp.usagedata.recording",1383262709248
started,bundle,org.eclipse.equinox.app,1.3.1.R36x_v20100803,"org.eclipse.equinox.app",1383262709248
started,bundle,org.eclipse.equinox.common,3.6.0.v20100503,"org.eclipse.equinox.common",1383262709249
started,bundle,org.eclipse.equinox.ds,1.2.1.R36x_v20100803,"org.eclipse.equinox.ds",1383262709251
started,bundle,org.eclipse.equinox.event,1.2.0.v20100503,"org.eclipse.equinox.event",1383262709252
started,bundle,org.eclipse.equinox.p2.core,2.0.3.R36x_v20110111,"org.eclipse.equinox.p2.core",1383262709253
started,bundle,org.eclipse.equinox.p2.directorywatcher,1.0.203.R36x_v20101220,"org.eclipse.equinox.p2.directorywatcher",1383262709254
started,bundle,org.eclipse.equinox.p2.engine,2.0.1.R36x_v20110201,"org.eclipse.equinox.p2.engine",1383262709254
started,bundle,org.eclipse.equinox.p2.metadata,2.0.1.R36x_v20101202,"org.eclipse.equinox.p2.metadata",1383262709255
started,bundle,org.eclipse.equinox.p2.metadata.repository,1.1.0.v20100513,"org.eclipse.equinox.p2.metadata.repository",1383262709255
started,bundle,org.eclipse.equinox.p2.operations,2.0.0.v20100510,"org.eclipse.equinox.p2.operations",1383262709256
started,bundle,org.eclipse.equinox.p2.reconciler.dropins,1.1.2.R36x_v20110114,"org.eclipse.equinox.p2.reconciler.dropins",1383262709257
started,bundle,org.eclipse.equinox.p2.repository,2.0.2.R36x_v20110111-1500,"org.eclipse.equinox.p2.repository",1383262709257
started,bundle,org.eclipse.equinox.p2.ui.sdk.scheduler,1.0.0.v20100507-1815,"org.eclipse.equinox.p2.ui.sdk.scheduler",1383262709258
started,bundle,org.eclipse.equinox.p2.updatechecker,1.1.101.R36x_v20100823,"org.eclipse.equinox.p2.updatechecker",1383262709258
started,bundle,org.eclipse.equinox.preferences,3.3.0.v20100503,"org.eclipse.equinox.preferences",1383262709260
started,bundle,org.eclipse.equinox.registry,3.5.0.v20100503,"org.eclipse.equinox.registry",1383262709261
started,bundle,org.eclipse.equinox.security,1.0.200.v20100503,"org.eclipse.equinox.security",1383262709263
started,bundle,org.eclipse.equinox.util,1.0.200.v20100503,"org.eclipse.equinox.util",1383262709264
started,bundle,org.eclipse.help,3.5.0.v20100524,"org.eclipse.help",1383262709265
started,bundle,org.eclipse.help.base,3.5.3.v201102101200,"org.eclipse.help.base",1383262709265
started,bundle,org.eclipse.help.ui,3.5.3.r36_20101116,"org.eclipse.help.ui",1383262709350
started,bundle,org.eclipse.jdt.core,3.6.2.v_A76_R36x,"org.eclipse.jdt.core",1383262709351
started,bundle,org.eclipse.jdt.core.manipulation,1.3.0.v20100520-0800,"org.eclipse.jdt.core.manipulation",1383262709352
started,bundle,org.eclipse.jdt.debug,3.6.1.v20100715_r361,"org.eclipse.jdt.debug",1383262709518
started,bundle,org.eclipse.jdt.launching,3.5.200.v20110105_r362,"org.eclipse.jdt.launching",1383262709519
