what,kind,bundleId,bundleVersion,description,time
started,bundle,org.eclipse.jdt.ui,3.6.2.r362_v20110203,"org.eclipse.jdt.ui",1388668870377
started,bundle,org.eclipse.jem,2.0.400.v201005110200,"org.eclipse.jem",1388668870378
started,bundle,org.eclipse.jem.util,2.1.3.v201012070000,"org.eclipse.jem.util",1388668870379
started,bundle,org.eclipse.jem.workbench,2.0.300.v200910290230,"org.eclipse.jem.workbench",1388668870380
started,bundle,org.eclipse.jface,3.6.2.M20110210-1200,"org.eclipse.jface",1388668870428
started,bundle,org.eclipse.jst.common.frameworks,1.1.403.v201012160000,"org.eclipse.jst.common.frameworks",1388668870430
started,bundle,org.eclipse.jst.common.project.facet.core,1.4.102.v201008182136,"org.eclipse.jst.common.project.facet.core",1388668870435
started,bundle,org.eclipse.jst.j2ee,1.1.404.v201102081800,"org.eclipse.jst.j2ee",1388668870545
started,bundle,org.eclipse.jst.j2ee.core,1.2.4.v201102101900,"org.eclipse.jst.j2ee.core",1388668870546
started,bundle,org.eclipse.jst.j2ee.navigator.ui,1.1.403.v201012020600,"org.eclipse.jst.j2ee.navigator.ui",1388668870582
started,bundle,org.eclipse.jst.j2ee.ui,1.1.404.v201101122300,"org.eclipse.jst.j2ee.ui",1388668870633
started,bundle,org.eclipse.jst.j2ee.web,1.1.404.v201102030400,"org.eclipse.jst.j2ee.web",1388668870677
started,bundle,org.eclipse.jst.j2ee.webservice,1.1.400.v201004110600,"org.eclipse.jst.j2ee.webservice",1388668870680
started,bundle,org.eclipse.jst.j2ee.webservice.ui,1.1.400.v201004110600,"org.eclipse.jst.j2ee.webservice.ui",1388668870681
started,bundle,org.eclipse.jst.jee.ui,1.0.304.v201101272100,"org.eclipse.jst.jee.ui",1388668870683
started,bundle,org.eclipse.jst.server.core,1.2.101.v20100421,"org.eclipse.jst.server.core",1388668870685
started,bundle,org.eclipse.jst.server.tomcat.core,1.1.203.v20110201,"org.eclipse.jst.server.tomcat.core",1388668870687
started,bundle,org.eclipse.jst.ws.jaxrs.core,1.0.201.v201011231540,"org.eclipse.jst.ws.jaxrs.core",1388668870689
started,bundle,org.eclipse.ltk.core.refactoring,3.5.101.r362_v20101117-0800,"org.eclipse.ltk.core.refactoring",1388668870692
started,bundle,org.eclipse.ltk.ui.refactoring,3.5.0.v20100526-0800,"org.eclipse.ltk.ui.refactoring",1388668870694
started,bundle,org.eclipse.team.core,3.5.101.R36x_v20110203-1036,"org.eclipse.team.core",1388668870695
started,bundle,org.eclipse.ui,3.6.2.M20110203-1100,"org.eclipse.ui",1388668870776
started,bundle,org.eclipse.ui.editors,3.6.1.r361_v20100825-0800,"org.eclipse.ui.editors",1388668870776
started,bundle,org.eclipse.ui.ide,3.6.2.M20101201-0800,"org.eclipse.ui.ide",1388668870907
started,bundle,org.eclipse.ui.navigator,3.5.0.I20100601-0800,"org.eclipse.ui.navigator",1388668871047
started,bundle,org.eclipse.ui.navigator.resources,3.4.202.M20101124-0800,"org.eclipse.ui.navigator.resources",1388668871048
started,bundle,org.eclipse.ui.net,1.2.100.I20100505-1245,"org.eclipse.ui.net",1388668871050
started,bundle,org.eclipse.ui.views,3.5.1.M20110202-0800,"org.eclipse.ui.views",1388668871051
started,bundle,org.eclipse.ui.workbench,3.6.2.M20110210-1200,"org.eclipse.ui.workbench",1388668871082
started,bundle,org.eclipse.ui.workbench.texteditor,3.6.1.r361_v20100714-0800,"org.eclipse.ui.workbench.texteditor",1388668871085
started,bundle,org.eclipse.wst.common.core,1.2.0.v200908252030,"org.eclipse.wst.common.core",1388668871086
started,bundle,org.eclipse.wst.common.emf,1.2.3.v201012100400,"org.eclipse.wst.common.emf",1388668871089
started,bundle,org.eclipse.wst.common.emfworkbench.integration,1.2.3.v201012020600,"org.eclipse.wst.common.emfworkbench.integration",1388668871090
started,bundle,org.eclipse.wst.common.frameworks,1.2.0.v201003040800,"org.eclipse.wst.common.frameworks",1388668871092
started,bundle,org.eclipse.wst.common.frameworks.ui,1.2.0.v201004080500,"org.eclipse.wst.common.frameworks.ui",1388668871094
started,bundle,org.eclipse.wst.common.modulecore,1.2.5.v201101270100,"org.eclipse.wst.common.modulecore",1388668871095
started,bundle,org.eclipse.wst.common.project.facet.core,1.4.102.v201008170019,"org.eclipse.wst.common.project.facet.core",1388668871097
started,bundle,org.eclipse.wst.common.ui,1.1.500.v200911190730,"org.eclipse.wst.common.ui",1388668871099
started,bundle,org.eclipse.wst.jsdt.core,1.1.4.v201102102045,"org.eclipse.wst.jsdt.core",1388668871128
started,bundle,org.eclipse.wst.jsdt.manipulation,1.0.200.v201004150600,"org.eclipse.wst.jsdt.manipulation",1388668871130
started,bundle,org.eclipse.wst.jsdt.ui,1.1.4.v201102160540,"org.eclipse.wst.jsdt.ui",1388668871208
started,bundle,org.eclipse.wst.server.ui,1.1.207.v20110119,"org.eclipse.wst.server.ui",1388668871208
started,bundle,org.eclipse.wst.validation,1.2.201.v201101270100,"org.eclipse.wst.validation",1388668871209
started,bundle,org.eclipse.wst.web,1.1.402.v201012160000,"org.eclipse.wst.web",1388668871210
started,bundle,org.eclipse.wst.wsdl,1.2.104.v201012082239,"org.eclipse.wst.wsdl",1388668871211
started,bundle,org.eclipse.wst.xml.core,1.1.503.v201102102045,"org.eclipse.wst.xml.core",1388668871212
started,bundle,oracle.eclipse.tools.common,3.2.3.201107052022,"oracle.eclipse.tools.common",1388668871241
started,bundle,oracle.eclipse.tools.common.ui,3.2.3.201107052022,"oracle.eclipse.tools.common.ui",1388668871242
started,bundle,oracle.eclipse.tools.weblogic,3.2.3.201107052022,"oracle.eclipse.tools.weblogic",1388668871308
started,bundle,oracle.eclipse.tools.weblogic.ui,3.2.3.201107052022,"oracle.eclipse.tools.weblogic.ui",1388668871366
started,bundle,oracle.eclipse.tools.xmlbeans,3.2.3.201107052022,"oracle.eclipse.tools.xmlbeans",1388668871368
started,bundle,org.eclipse.core.jobs,3.5.1.R36x_v20100824-p001,"org.eclipse.core.jobs",1388668871372
started,bundle,org.eclipse.sapphire.modeling,0.2.3.201106221307,"org.eclipse.sapphire.modeling",1388668871374
started,bundle,org.eclipse.wst.server.core,1.1.206.v20110110_p001,"org.eclipse.wst.server.core",1388668871376
os,sysinfo,,,"win32",1388668871381
arch,sysinfo,,,"x86",1388668871381
ws,sysinfo,,,"win32",1388668871381
locale,sysinfo,,,"en_US",1388668871381
processors,sysinfo,,,"4",1388668871382
java.runtime.name,sysinfo,,,"Java(TM) SE Runtime Environment",1388668871382
java.runtime.version,sysinfo,,,"1.7.0_45-b18",1388668871382
java.specification.name,sysinfo,,,"Java Platform API Specification",1388668871382
java.specification.vendor,sysinfo,,,"Oracle Corporation",1388668871382
java.specification.version,sysinfo,,,"1.7",1388668871382
java.vendor,sysinfo,,,"Oracle Corporation",1388668871382
java.version,sysinfo,,,"1.7.0_45",1388668871382
java.vm.info,sysinfo,,,"mixed mode, sharing",1388668871382
java.vm.name,sysinfo,,,"Java HotSpot(TM) Client VM",1388668871382
java.vm.specification.name,sysinfo,,,"Java Virtual Machine Specification",1388668871382
java.vm.specification.vendor,sysinfo,,,"Oracle Corporation",1388668871382
java.vm.specification.version,sysinfo,,,"1.7",1388668871382
java.vm.vendor,sysinfo,,,"Oracle Corporation",1388668871382
java.vm.version,sysinfo,,,"24.45-b08",1388668871382
started,bundle,org.eclipse.mylyn.commons.net,3.4.1.v20100625-2100-e3x,"org.eclipse.mylyn.commons.net",1388668871607
started,bundle,org.eclipse.ui.console,3.5.0.v20100526,"org.eclipse.ui.console",1388668871672
started,bundle,org.eclipse.team.cvs.ui,3.3.302.R36x_v20110203-1036,"org.eclipse.team.cvs.ui",1388668873244
started,bundle,org.eclipse.mylyn.commons.ui,3.4.0.v20100608-0100-e3x,"org.eclipse.mylyn.commons.ui",1388668875097
started,bundle,org.eclipse.mylyn.bugzilla.core,3.4.2.v20100902-0100-e3x,"org.eclipse.mylyn.bugzilla.core",1388668875468
started,bundle,org.eclipse.mylyn.bugzilla.ui,3.4.3.v20110131-0100-e3x,"org.eclipse.mylyn.bugzilla.ui",1388668876041
started,bundle,org.eclipse.jst.jee,1.0.302.v201101122300,"org.eclipse.jst.jee",1388668876721
started,bundle,org.eclipse.ui.forms,3.5.2.r36_v20100702,"org.eclipse.ui.forms",1388668876788
started,bundle,org.eclipse.mylyn.context.core,3.4.1.v20100909-0100-e3x,"org.eclipse.mylyn.context.core",1388668877232
started,bundle,org.eclipse.mylyn.context.ui,3.4.2.v20110131-0100-e3x,"org.eclipse.mylyn.context.ui",1388668877237
started,bundle,org.eclipse.mylyn.tasks.ui,3.4.3.v20110131-0100-e3x,"org.eclipse.mylyn.tasks.ui",1388668878561
started,bundle,org.eclipse.mylyn.team.ui,3.4.3.v20110131-0100-e3x,"org.eclipse.mylyn.team.ui",1388668878604
started,bundle,org.eclipse.update.scheduler,3.2.300.v20100512,"org.eclipse.update.scheduler",1388668878690
started,bundle,org.eclipse.update.configurator,3.3.100.v20100512,"org.eclipse.update.configurator",1388668884257
started,bundle,org.eclipse.update.core,3.2.402.R36x_v20100629,"org.eclipse.update.core",1388668884397
started,bundle,oracle.eclipse.tools.common.upgrade,3.2.3.201107052022,"oracle.eclipse.tools.common.upgrade",1388668884398
started,bundle,oracle.eclipse.tools.envcheck,3.2.3.201107052022,"oracle.eclipse.tools.envcheck",1388668884687
started,bundle,org.eclipse.wst.dtd.core,1.1.401.v201101122255,"org.eclipse.wst.dtd.core",1388668885089
started,bundle,org.eclipse.wst.sse.ui,1.2.3.v201102102045,"org.eclipse.wst.sse.ui",1388668885157
started,bundle,org.eclipse.wst.html.ui,1.0.504.v201101122108,"org.eclipse.wst.html.ui",1388668885160
started,bundle,org.eclipse.wst.sse.core,1.1.504.v201102160550,"org.eclipse.wst.sse.core",1388668885219
started,bundle,org.eclipse.jst.jsf.common,1.2.2.v201101211220,"org.eclipse.jst.jsf.common",1388668885309
started,bundle,org.eclipse.jst.jsf.core,1.3.3.v201102021253,"org.eclipse.jst.jsf.core",1388668885340
started,bundle,org.eclipse.jst.jsp.core,1.2.304.v201102160550,"org.eclipse.jst.jsp.core",1388668885456
started,bundle,org.eclipse.wst.wsdl.validation,1.1.501.v201004201506,"org.eclipse.wst.wsdl.validation",1388668885569
started,bundle,org.eclipse.wst.xsd.core,1.1.503.v201011121919,"org.eclipse.wst.xsd.core",1388668885607
started,bundle,org.eclipse.wst.xsl.core,1.1.0.v201004290328,"org.eclipse.wst.xsl.core",1388668885676
started,bundle,org.eclipse.pde.launching,3.6.0.v20100601,"org.eclipse.pde.launching",1388668946751
started,bundle,org.eclipse.ui.views.log,1.0.100.v20110210_r362,"org.eclipse.ui.views.log",1388668946769
started,bundle,org.eclipse.pde.ui,3.6.1.v20110210_r362,"org.eclipse.pde.ui",1388668946787
activated,view,org.eclipse.wst.server.ui,1.1.207.v20110119,"org.eclipse.wst.server.ui.ServersView",1388668947161
deactivated,workbench,org.eclipse.ui.workbench,3.6.2.M20110210-1200,"",1388668950237
activated,workbench,org.eclipse.ui.workbench,3.6.2.M20110210-1200,"",1388668951561
executed,command,org.eclipse.ui,3.6.2.M20110203-1100,"org.eclipse.ui.edit.delete",1388668951580
started,bundle,org.eclipse.pde.core,3.6.2.v20110210_r362,"org.eclipse.pde.core",1388668952036
deactivated,workbench,org.eclipse.ui.workbench,3.6.2.M20110210-1200,"",1388668952704
started,bundle,org.eclipse.jst.servlet.ui,1.1.404.v201101270100,"org.eclipse.jst.servlet.ui",1388668953549
started,bundle,oracle.eclipse.tools.webservices.ui,3.2.3.201107052022,"oracle.eclipse.tools.webservices.ui",1388668954367
started,bundle,oracle.eclipse.tools.webservices,3.2.3.201107052022,"oracle.eclipse.tools.webservices",1388668954527
activated,workbench,org.eclipse.ui.workbench,3.6.2.M20110210-1200,"",1388669432514
deactivated,workbench,org.eclipse.ui.workbench,3.6.2.M20110210-1200,"",1388669437652
started,bundle,org.eclipse.jst.server.tomcat.ui,1.1.200.v20100418,"org.eclipse.jst.server.tomcat.ui",1388669444763
activated,workbench,org.eclipse.ui.workbench,3.6.2.M20110210-1200,"",1388669452033
activated,view,org.eclipse.ui.navigator.resources,3.4.202.M20101124-0800,"org.eclipse.ui.navigator.ProjectExplorer",1388669455540
started,bundle,org.eclipse.jst.ws.jaxws.dom.integration,1.0.0.v201004171919,"org.eclipse.jst.ws.jaxws.dom.integration",1388669455575
started,bundle,org.eclipse.jst.ws.jaxws.dom.ui,1.0.0.v201004171919,"org.eclipse.jst.ws.jaxws.dom.ui",1388669455600
started,bundle,org.eclipse.jst.j2ee.ejb,1.1.402.v201102071010,"org.eclipse.jst.j2ee.ejb",1388669455745
started,bundle,org.eclipse.jst.j2ee.jca,1.1.400.v201005270700,"org.eclipse.jst.j2ee.jca",1388669455774
started,bundle,org.eclipse.jst.jee.ejb,1.0.301.v201007070821,"org.eclipse.jst.jee.ejb",1388669455809
started,bundle,org.eclipse.jst.jee.web,1.0.301.v201007070907,"org.eclipse.jst.jee.web",1388669455823
started,bundle,org.eclipse.xsd,2.6.0.v20100914-1218,"org.eclipse.xsd",1388669456080
deactivated,workbench,org.eclipse.ui.workbench,3.6.2.M20110210-1200,"",1388669457406
activated,workbench,org.eclipse.ui.workbench,3.6.2.M20110210-1200,"",1388669460006
deactivated,workbench,org.eclipse.ui.workbench,3.6.2.M20110210-1200,"",1388669460898
activated,workbench,org.eclipse.ui.workbench,3.6.2.M20110210-1200,"",1388669496973
deactivated,workbench,org.eclipse.ui.workbench,3.6.2.M20110210-1200,"",1388669502057
activated,workbench,org.eclipse.ui.workbench,3.6.2.M20110210-1200,"",1388669502209
deactivated,workbench,org.eclipse.ui.workbench,3.6.2.M20110210-1200,"",1388669502527
activated,workbench,org.eclipse.ui.workbench,3.6.2.M20110210-1200,"",1388669504398
started,bundle,org.eclipse.wst.ws.service.policy.ui,1.0.202.v201004211732,"org.eclipse.wst.ws.service.policy.ui",1388669504555
started,bundle,org.eclipse.wst.ws.service.policy,1.0.204.v201011011834,"org.eclipse.wst.ws.service.policy",1388669504565
started,bundle,org.eclipse.wst.command.env,1.0.409.v201004211805,"org.eclipse.wst.command.env",1388669504628
started,bundle,org.eclipse.wst.ws,1.1.203.v201004211805,"org.eclipse.wst.ws",1388669504632
deactivated,workbench,org.eclipse.ui.workbench,3.6.2.M20110210-1200,"",1388669505238
started,bundle,org.eclipse.jdt.debug,3.6.1.v20100715_r361,"org.eclipse.jdt.debug",1388669519367
started,bundle,org.eclipse.debug.ui,3.6.3.v20101201_r362,"org.eclipse.debug.ui",1388669519793
started,bundle,org.eclipse.jdt.debug.ui,3.5.2.v20100928a_r362,"org.eclipse.jdt.debug.ui",1388669520166
activated,workbench,org.eclipse.ui.workbench,3.6.2.M20110210-1200,"",1388669525474
started,bundle,org.eclipse.wst.html.core,1.1.404.v201101190004,"org.eclipse.wst.html.core",1388669525973
started,bundle,org.eclipse.wst.common.uriresolver,1.1.401.v201004280700,"org.eclipse.wst.common.uriresolver",1388669526029
started,bundle,org.eclipse.wst.css.core,1.1.402.v201102031915,"org.eclipse.wst.css.core",1388669526591
error,log,,,"File not found: '/SMP_UI_Client/src/__2F_SMP_5F_UI_5F_Client_2F_WebContent_2F_homePage_2E_jsp.java'",1388669527611
deactivated,workbench,org.eclipse.ui.workbench,3.6.2.M20110210-1200,"",1388669529706
activated,workbench,org.eclipse.ui.workbench,3.6.2.M20110210-1200,"",1388669530974
deactivated,workbench,org.eclipse.ui.workbench,3.6.2.M20110210-1200,"",1388669536618
activated,workbench,org.eclipse.ui.workbench,3.6.2.M20110210-1200,"",1388669551146
deactivated,workbench,org.eclipse.ui.workbench,3.6.2.M20110210-1200,"",1388669555704
activated,workbench,org.eclipse.ui.workbench,3.6.2.M20110210-1200,"",1388669555803
deactivated,workbench,org.eclipse.ui.workbench,3.6.2.M20110210-1200,"",1388669555852
activated,workbench,org.eclipse.ui.workbench,3.6.2.M20110210-1200,"",1388669557313
deactivated,workbench,org.eclipse.ui.workbench,3.6.2.M20110210-1200,"",1388669557544
started,bundle,org.eclipse.compare,3.5.101.R36x_v20100929-0800,"org.eclipse.compare",1388669561521
activated,workbench,org.eclipse.ui.workbench,3.6.2.M20110210-1200,"",1388669594966
deactivated,workbench,org.eclipse.ui.workbench,3.6.2.M20110210-1200,"",1388669603734
executed,command,org.eclipse.ui,3.6.2.M20110203-1100,"org.eclipse.ui.edit.copy",1388669610229
activated,workbench,org.eclipse.ui.workbench,3.6.2.M20110210-1200,"",1388669683843
executed,command,org.eclipse.ui,3.6.2.M20110203-1100,"org.eclipse.ui.file.properties",1388669683859
activated,view,org.eclipse.wst.server.ui,1.1.207.v20110119,"org.eclipse.wst.server.ui.ServersView",1388669684966
executed,command,org.eclipse.wst.server.ui,1.1.207.v20110119,"org.eclipse.wst.server.run",1388669688215
opened,view,org.eclipse.ui.console,3.5.0.v20100526,"org.eclipse.ui.console.ConsoleView",1388669691632
activated,view,org.eclipse.ui.console,3.5.0.v20100526,"org.eclipse.ui.console.ConsoleView",1388669691647
activated,view,org.eclipse.wst.server.ui,1.1.207.v20110119,"org.eclipse.wst.server.ui.ServersView",1388669693308
activated,view,org.eclipse.ui.console,3.5.0.v20100526,"org.eclipse.ui.console.ConsoleView",1388669693384
activated,view,org.eclipse.wst.server.ui,1.1.207.v20110119,"org.eclipse.wst.server.ui.ServersView",1388669693781
deactivated,workbench,org.eclipse.ui.workbench,3.6.2.M20110210-1200,"",1388669699248
executed,command,org.eclipse.ui,3.6.2.M20110203-1100,"org.eclipse.ui.edit.copy",1388669701849
started,bundle,org.eclipse.mylyn.java.tasks,3.4.0.v20100608-0100-e3x,"org.eclipse.mylyn.java.tasks",1388669702046
executed,command,org.eclipse.ui,3.6.2.M20110203-1100,"org.eclipse.ui.edit.copy",1388669702069
executed,command,org.eclipse.ui,3.6.2.M20110203-1100,"org.eclipse.ui.edit.copy",1388669702207
activated,workbench,org.eclipse.ui.workbench,3.6.2.M20110210-1200,"",1388669702755
deactivated,workbench,org.eclipse.ui.workbench,3.6.2.M20110210-1200,"",1388669706488
activated,workbench,org.eclipse.ui.workbench,3.6.2.M20110210-1200,"",1388669709136
deactivated,workbench,org.eclipse.ui.workbench,3.6.2.M20110210-1200,"",1388669709958
activated,workbench,org.eclipse.ui.workbench,3.6.2.M20110210-1200,"",1388669712524
deactivated,workbench,org.eclipse.ui.workbench,3.6.2.M20110210-1200,"",1388669714245
error,log,,,"Task failed",1388669714379
activated,workbench,org.eclipse.ui.workbench,3.6.2.M20110210-1200,"",1388669715316
deactivated,workbench,org.eclipse.ui.workbench,3.6.2.M20110210-1200,"",1388669716304
error,log,,,"Publishing failed with multiple errors",1388669718418
activated,workbench,org.eclipse.ui.workbench,3.6.2.M20110210-1200,"",1388669746598
deactivated,workbench,org.eclipse.ui.workbench,3.6.2.M20110210-1200,"",1388669748931
activated,workbench,org.eclipse.ui.workbench,3.6.2.M20110210-1200,"",1388669753262
deactivated,workbench,org.eclipse.ui.workbench,3.6.2.M20110210-1200,"",1388669753811
activated,workbench,org.eclipse.ui.workbench,3.6.2.M20110210-1200,"",1388669776648
executed,command,org.eclipse.wst.server.ui,1.1.207.v20110119,"org.eclipse.wst.server.run",1388669780103
activated,view,org.eclipse.ui.console,3.5.0.v20100526,"org.eclipse.ui.console.ConsoleView",1388669780754
deactivated,workbench,org.eclipse.ui.workbench,3.6.2.M20110210-1200,"",1388669781609
activated,workbench,org.eclipse.ui.workbench,3.6.2.M20110210-1200,"",1388669781844
activated,view,org.eclipse.wst.server.ui,1.1.207.v20110119,"org.eclipse.wst.server.ui.ServersView",1388669781850
activated,view,org.eclipse.ui.console,3.5.0.v20100526,"org.eclipse.ui.console.ConsoleView",1388669783403
activated,view,org.eclipse.wst.server.ui,1.1.207.v20110119,"org.eclipse.wst.server.ui.ServersView",1388669785356
error,log,,,"Publishing failed with multiple errors",1388669786202
deactivated,workbench,org.eclipse.ui.workbench,3.6.2.M20110210-1200,"",1388669786273
activated,workbench,org.eclipse.ui.workbench,3.6.2.M20110210-1200,"",1388669792678
activated,view,org.eclipse.ui.navigator.resources,3.4.202.M20101124-0800,"org.eclipse.ui.navigator.ProjectExplorer",1388669794033
deactivated,workbench,org.eclipse.ui.workbench,3.6.2.M20110210-1200,"",1388669800011
activated,workbench,org.eclipse.ui.workbench,3.6.2.M20110210-1200,"",1388669800509
executed,command,org.eclipse.ui,3.6.2.M20110203-1100,"org.eclipse.ui.edit.delete",1388669800552
deactivated,workbench,org.eclipse.ui.workbench,3.6.2.M20110210-1200,"",1388669805867
activated,workbench,org.eclipse.ui.workbench,3.6.2.M20110210-1200,"",1388669820335
started,bundle,oracle.eclipse.tools.sapphire.modeling.legacy,3.2.3.201107052022,"oracle.eclipse.tools.sapphire.modeling.legacy",1388669822083
deactivated,workbench,org.eclipse.ui.workbench,3.6.2.M20110210-1200,"",1388669824999
activated,workbench,org.eclipse.ui.workbench,3.6.2.M20110210-1200,"",1388669827039
executed,command,org.eclipse.ui,3.6.2.M20110203-1100,"org.eclipse.ui.edit.delete",1388669827076
activated,editor,org.eclipse.jdt.ui,3.6.2.r362_v20110203,"org.eclipse.jdt.ui.CompilationUnitEditor",1388669827506
activated,view,org.eclipse.ui.navigator.resources,3.4.202.M20101124-0800,"org.eclipse.ui.navigator.ProjectExplorer",1388669828613
executed,command,org.eclipse.ui,3.6.2.M20110203-1100,"org.eclipse.ui.file.refresh",1388669830293
deactivated,workbench,org.eclipse.ui.workbench,3.6.2.M20110210-1200,"",1388669831937
activated,workbench,org.eclipse.ui.workbench,3.6.2.M20110210-1200,"",1388669948716
executed,command,org.eclipse.ui,3.6.2.M20110203-1100,"org.eclipse.ui.file.refresh",1388669950836
deactivated,workbench,org.eclipse.ui.workbench,3.6.2.M20110210-1200,"",1388669955615
activated,workbench,org.eclipse.ui.workbench,3.6.2.M20110210-1200,"",1388669969639
deactivated,workbench,org.eclipse.ui.workbench,3.6.2.M20110210-1200,"",1388669975115
activated,workbench,org.eclipse.ui.workbench,3.6.2.M20110210-1200,"",1388670447500
opened,editor,org.eclipse.jdt.ui,3.6.2.r362_v20110203,"org.eclipse.jdt.ui.CompilationUnitEditor",1388670452014
activated,editor,org.eclipse.jdt.ui,3.6.2.r362_v20110203,"org.eclipse.jdt.ui.CompilationUnitEditor",1388670452042
activated,view,org.eclipse.ui.navigator.resources,3.4.202.M20101124-0800,"org.eclipse.ui.navigator.ProjectExplorer",1388670458592
deactivated,workbench,org.eclipse.ui.workbench,3.6.2.M20110210-1200,"",1388670462517
activated,workbench,org.eclipse.ui.workbench,3.6.2.M20110210-1200,"",1388670486312
deactivated,workbench,org.eclipse.ui.workbench,3.6.2.M20110210-1200,"",1388670486934
activated,workbench,org.eclipse.ui.workbench,3.6.2.M20110210-1200,"",1388670487145
opened,editor,org.eclipse.jdt.ui,3.6.2.r362_v20110203,"org.eclipse.jdt.ui.CompilationUnitEditor",1388670495203
activated,editor,org.eclipse.jdt.ui,3.6.2.r362_v20110203,"org.eclipse.jdt.ui.CompilationUnitEditor",1388670495230
activated,view,org.eclipse.ui.navigator.resources,3.4.202.M20101124-0800,"org.eclipse.ui.navigator.ProjectExplorer",1388670495734
deactivated,workbench,org.eclipse.ui.workbench,3.6.2.M20110210-1200,"",1388670497451
activated,workbench,org.eclipse.ui.workbench,3.6.2.M20110210-1200,"",1388670499354
executed,command,org.eclipse.ui,3.6.2.M20110203-1100,"org.eclipse.ui.edit.delete",1388670499383
closed,editor,org.eclipse.jdt.ui,3.6.2.r362_v20110203,"org.eclipse.jdt.ui.CompilationUnitEditor",1388670499427
activated,editor,org.eclipse.jdt.ui,3.6.2.r362_v20110203,"org.eclipse.jdt.ui.CompilationUnitEditor",1388670500031
activated,view,org.eclipse.ui.navigator.resources,3.4.202.M20101124-0800,"org.eclipse.ui.navigator.ProjectExplorer",1388670509529
deactivated,workbench,org.eclipse.ui.workbench,3.6.2.M20110210-1200,"",1388670515028
activated,workbench,org.eclipse.ui.workbench,3.6.2.M20110210-1200,"",1388670541287
deactivated,workbench,org.eclipse.ui.workbench,3.6.2.M20110210-1200,"",1388670545759
activated,workbench,org.eclipse.ui.workbench,3.6.2.M20110210-1200,"",1388670551203
deactivated,workbench,org.eclipse.ui.workbench,3.6.2.M20110210-1200,"",1388670562352
started,bundle,org.eclipse.jst.server.preview.adapter,1.1.100.v20100308,"org.eclipse.jst.server.preview.adapter",1388670562462
activated,workbench,org.eclipse.ui.workbench,3.6.2.M20110210-1200,"",1388670563309
deactivated,workbench,org.eclipse.ui.workbench,3.6.2.M20110210-1200,"",1388670563381
activated,workbench,org.eclipse.ui.workbench,3.6.2.M20110210-1200,"",1388670564080
executed,command,org.eclipse.wst.server.ui,1.1.207.v20110119,"org.eclipse.wst.server.launchShortcut.run",1388670564099
started,bundle,org.eclipse.ui.browser,3.3.1.r36_20101216,"org.eclipse.ui.browser",1388670568564
opened,editor,org.eclipse.ui.browser,3.3.1.r36_20101216,"org.eclipse.ui.browser.editor",1388670569001
activated,editor,org.eclipse.ui.browser,3.3.1.r36_20101216,"org.eclipse.ui.browser.editor",1388670569044
activated,view,org.eclipse.ui.console,3.5.0.v20100526,"org.eclipse.ui.console.ConsoleView",1388670572812
activated,view,org.eclipse.wst.server.ui,1.1.207.v20110119,"org.eclipse.wst.server.ui.ServersView",1388670578642
deactivated,workbench,org.eclipse.ui.workbench,3.6.2.M20110210-1200,"",1388670580534
activated,workbench,org.eclipse.ui.workbench,3.6.2.M20110210-1200,"",1388670581479
deactivated,workbench,org.eclipse.ui.workbench,3.6.2.M20110210-1200,"",1388670581839
activated,workbench,org.eclipse.ui.workbench,3.6.2.M20110210-1200,"",1388670582212
activated,view,org.eclipse.ui.navigator.resources,3.4.202.M20101124-0800,"org.eclipse.ui.navigator.ProjectExplorer",1388670585795
deactivated,workbench,org.eclipse.ui.workbench,3.6.2.M20110210-1200,"",1388670589116
activated,workbench,org.eclipse.ui.workbench,3.6.2.M20110210-1200,"",1388670589889
executed,command,org.eclipse.wst.server.ui,1.1.207.v20110119,"org.eclipse.wst.server.launchShortcut.run",1388670589913
opened,editor,org.eclipse.ui.browser,3.3.1.r36_20101216,"org.eclipse.ui.browser.editor",1388670589981
activated,editor,org.eclipse.ui.browser,3.3.1.r36_20101216,"org.eclipse.ui.browser.editor",1388670590004
activated,view,org.eclipse.ui.console,3.5.0.v20100526,"org.eclipse.ui.console.ConsoleView",1388670591074
activated,view,org.eclipse.ui.navigator.resources,3.4.202.M20101124-0800,"org.eclipse.ui.navigator.ProjectExplorer",1388670600686
deactivated,workbench,org.eclipse.ui.workbench,3.6.2.M20110210-1200,"",1388670601539
activated,workbench,org.eclipse.ui.workbench,3.6.2.M20110210-1200,"",1388670602432
deactivated,workbench,org.eclipse.ui.workbench,3.6.2.M20110210-1200,"",1388670604852
activated,workbench,org.eclipse.ui.workbench,3.6.2.M20110210-1200,"",1388670625966
executed,command,org.eclipse.ui,3.6.2.M20110203-1100,"org.eclipse.ui.edit.paste",1388670629433
activated,view,org.eclipse.wst.server.ui,1.1.207.v20110119,"org.eclipse.wst.server.ui.ServersView",1388670633008
executed,command,org.eclipse.wst.server.ui,1.1.207.v20110119,"org.eclipse.wst.server.run",1388670635856
activated,view,org.eclipse.ui.console,3.5.0.v20100526,"org.eclipse.ui.console.ConsoleView",1388670636423
activated,view,org.eclipse.ui.navigator.resources,3.4.202.M20101124-0800,"org.eclipse.ui.navigator.ProjectExplorer",1388670637052
deactivated,workbench,org.eclipse.ui.workbench,3.6.2.M20110210-1200,"",1388670639489
activated,workbench,org.eclipse.ui.workbench,3.6.2.M20110210-1200,"",1388670640542
executed,command,org.eclipse.wst.server.ui,1.1.207.v20110119,"org.eclipse.wst.server.launchShortcut.run",1388670640556
opened,editor,org.eclipse.ui.browser,3.3.1.r36_20101216,"org.eclipse.ui.browser.editor",1388670640919
activated,editor,org.eclipse.ui.browser,3.3.1.r36_20101216,"org.eclipse.ui.browser.editor",1388670640941
executed,command,org.eclipse.ui,3.6.2.M20110203-1100,"org.eclipse.ui.edit.copy",1388670644532
