what,kind,bundleId,bundleVersion,description,time
activated,view,org.eclipse.ui.console,3.5.0.v20100526,"org.eclipse.ui.console.ConsoleView",1387514648198
deactivated,workbench,org.eclipse.ui.workbench,3.6.2.M20110210-1200,"",1387514653431
activated,workbench,org.eclipse.ui.workbench,3.6.2.M20110210-1200,"",1387514657804
deactivated,workbench,org.eclipse.ui.workbench,3.6.2.M20110210-1200,"",1387514658552
activated,workbench,org.eclipse.ui.workbench,3.6.2.M20110210-1200,"",1387514677676
activated,editor,org.eclipse.jdt.ui,3.6.2.r362_v20110203,"org.eclipse.jdt.ui.CompilationUnitEditor",1387514679557
executed,command,org.eclipse.ui,3.6.2.M20110203-1100,"org.eclipse.ui.file.save",1387514690519
deactivated,workbench,org.eclipse.ui.workbench,3.6.2.M20110210-1200,"",1387514691743
activated,workbench,org.eclipse.ui.workbench,3.6.2.M20110210-1200,"",1387514696096
activated,view,org.eclipse.ui.console,3.5.0.v20100526,"org.eclipse.ui.console.ConsoleView",1387514696116
activated,editor,org.eclipse.jdt.ui,3.6.2.r362_v20110203,"org.eclipse.jdt.ui.CompilationUnitEditor",1387514891982
activated,view,org.eclipse.ui.navigator.resources,3.4.202.M20101124-0800,"org.eclipse.ui.navigator.ProjectExplorer",1387514894235
opened,editor,org.eclipse.jdt.ui,3.6.2.r362_v20110203,"org.eclipse.jdt.ui.CompilationUnitEditor",1387514894574
activated,editor,org.eclipse.jdt.ui,3.6.2.r362_v20110203,"org.eclipse.jdt.ui.CompilationUnitEditor",1387514894608
activated,editor,org.eclipse.jdt.ui,3.6.2.r362_v20110203,"org.eclipse.jdt.ui.CompilationUnitEditor",1387514898651
executed,command,org.eclipse.ui,3.6.2.M20110203-1100,"org.eclipse.ui.edit.copy",1387514906279
executed,command,org.eclipse.ui,3.6.2.M20110203-1100,"org.eclipse.ui.edit.copy",1387514906501
executed,command,org.eclipse.ui,3.6.2.M20110203-1100,"org.eclipse.ui.edit.copy",1387514910096
executed,command,org.eclipse.ui,3.6.2.M20110203-1100,"org.eclipse.ui.edit.copy",1387514910313
activated,editor,org.eclipse.jdt.ui,3.6.2.r362_v20110203,"org.eclipse.jdt.ui.CompilationUnitEditor",1387514912096
executed,command,org.eclipse.ui.workbench.texteditor,3.6.1.r361_v20100714-0800,"org.eclipse.ui.edit.text.select.lineStart",1387514917254
executed,command,org.eclipse.ui,3.6.2.M20110203-1100,"org.eclipse.ui.edit.paste",1387514918223
executed,command,org.eclipse.ui,3.6.2.M20110203-1100,"org.eclipse.ui.file.save",1387514918975
activated,view,org.eclipse.ui.navigator.resources,3.4.202.M20101124-0800,"org.eclipse.ui.navigator.ProjectExplorer",1387514924647
deactivated,workbench,org.eclipse.ui.workbench,3.6.2.M20110210-1200,"",1387514927939
activated,workbench,org.eclipse.ui.workbench,3.6.2.M20110210-1200,"",1387514935789
deactivated,workbench,org.eclipse.ui.workbench,3.6.2.M20110210-1200,"",1387514959246
activated,workbench,org.eclipse.ui.workbench,3.6.2.M20110210-1200,"",1387514976421
executed,command,org.eclipse.ui,3.6.2.M20110203-1100,"org.eclipse.ui.newWizard",1387514976446
deactivated,workbench,org.eclipse.ui.workbench,3.6.2.M20110210-1200,"",1387514992983
activated,workbench,org.eclipse.ui.workbench,3.6.2.M20110210-1200,"",1387514994024
deactivated,workbench,org.eclipse.ui.workbench,3.6.2.M20110210-1200,"",1387514994059
activated,workbench,org.eclipse.ui.workbench,3.6.2.M20110210-1200,"",1387514995390
executed,command,org.eclipse.wst.server.ui,1.1.207.v20110119,"org.eclipse.wst.server.launchShortcut.run",1387514995404
opened,editor,org.eclipse.ui.browser,3.3.1.r36_20101216,"org.eclipse.ui.browser.editor",1387514999936
activated,editor,org.eclipse.ui.browser,3.3.1.r36_20101216,"org.eclipse.ui.browser.editor",1387514999992
activated,editor,org.eclipse.jdt.ui,3.6.2.r362_v20110203,"org.eclipse.jdt.ui.CompilationUnitEditor",1387515000290
activated,view,org.eclipse.ui.navigator.resources,3.4.202.M20101124-0800,"org.eclipse.ui.navigator.ProjectExplorer",1387515002077
closed,editor,org.eclipse.jst.jsp.ui,1.1.503.v201101262228,"org.eclipse.jst.jsp.core.jspsource.source",1387515002078
closed,editor,org.eclipse.jdt.ui,3.6.2.r362_v20110203,"org.eclipse.jdt.ui.CompilationUnitEditor",1387515002107
closed,editor,org.eclipse.ui.browser,3.3.1.r36_20101216,"org.eclipse.ui.browser.editor",1387515002153
closed,editor,org.eclipse.jdt.ui,3.6.2.r362_v20110203,"org.eclipse.jdt.ui.CompilationUnitEditor",1387515002243
closed,editor,org.eclipse.ui.browser,3.3.1.r36_20101216,"org.eclipse.ui.browser.editor",1387515002316
deactivated,workbench,org.eclipse.ui.workbench,3.6.2.M20110210-1200,"",1387515003143
activated,workbench,org.eclipse.ui.workbench,3.6.2.M20110210-1200,"",1387515011503
deactivated,workbench,org.eclipse.ui.workbench,3.6.2.M20110210-1200,"",1387515013465
activated,workbench,org.eclipse.ui.workbench,3.6.2.M20110210-1200,"",1387515016221
deactivated,workbench,org.eclipse.ui.workbench,3.6.2.M20110210-1200,"",1387515020511
activated,workbench,org.eclipse.ui.workbench,3.6.2.M20110210-1200,"",1387515021647
executed,command,org.eclipse.wst.server.ui,1.1.207.v20110119,"org.eclipse.wst.server.launchShortcut.run",1387515021665
opened,editor,org.eclipse.ui.browser,3.3.1.r36_20101216,"org.eclipse.ui.browser.editor",1387515022015
activated,editor,org.eclipse.ui.browser,3.3.1.r36_20101216,"org.eclipse.ui.browser.editor",1387515022036
activated,view,org.eclipse.wst.server.ui,1.1.207.v20110119,"org.eclipse.wst.server.ui.ServersView",1387515025266
executed,command,org.eclipse.wst.server.ui,1.1.207.v20110119,"org.eclipse.wst.server.stop",1387515027010
activated,view,org.eclipse.ui.console,3.5.0.v20100526,"org.eclipse.ui.console.ConsoleView",1387515027610
activated,view,org.eclipse.wst.server.ui,1.1.207.v20110119,"org.eclipse.wst.server.ui.ServersView",1387515028934
deactivated,workbench,org.eclipse.ui.workbench,3.6.2.M20110210-1200,"",1387515031437
activated,workbench,org.eclipse.ui.workbench,3.6.2.M20110210-1200,"",1387515032615
deactivated,workbench,org.eclipse.ui.workbench,3.6.2.M20110210-1200,"",1387515033031
error,log,,,"Task failed",1387515033874
error,log,,,"Could not delete C:\\Users\\spandana\\workspace_webservice_UI_final\\.metadata\\.plugins\\org.eclipse.wst.server.core\\tmp3\\wtpwebapps\\SMP_UI_\\WEB-INF\\CheckoutServiceService. May be locked by another process.",1387515034394
activated,workbench,org.eclipse.ui.workbench,3.6.2.M20110210-1200,"",1387515037833
deactivated,workbench,org.eclipse.ui.workbench,3.6.2.M20110210-1200,"",1387515040435
activated,workbench,org.eclipse.ui.workbench,3.6.2.M20110210-1200,"",1387515041776
deactivated,workbench,org.eclipse.ui.workbench,3.6.2.M20110210-1200,"",1387515042183
activated,workbench,org.eclipse.ui.workbench,3.6.2.M20110210-1200,"",1387515042542
executed,command,org.eclipse.wst.server.ui,1.1.207.v20110119,"org.eclipse.wst.server.run",1387515060368
activated,view,org.eclipse.ui.console,3.5.0.v20100526,"org.eclipse.ui.console.ConsoleView",1387515061141
activated,view,org.eclipse.wst.server.ui,1.1.207.v20110119,"org.eclipse.wst.server.ui.ServersView",1387515062941
activated,view,org.eclipse.ui.navigator.resources,3.4.202.M20101124-0800,"org.eclipse.ui.navigator.ProjectExplorer",1387515070755
deactivated,workbench,org.eclipse.ui.workbench,3.6.2.M20110210-1200,"",1387515074405
activated,workbench,org.eclipse.ui.workbench,3.6.2.M20110210-1200,"",1387515075624
executed,command,org.eclipse.wst.server.ui,1.1.207.v20110119,"org.eclipse.wst.server.launchShortcut.run",1387515075643
opened,editor,org.eclipse.ui.browser,3.3.1.r36_20101216,"org.eclipse.ui.browser.editor",1387515075988
activated,editor,org.eclipse.ui.browser,3.3.1.r36_20101216,"org.eclipse.ui.browser.editor",1387515076014
executed,command,org.eclipse.ui,3.6.2.M20110203-1100,"org.eclipse.ui.edit.copy",1387515078185
deactivated,workbench,org.eclipse.ui.workbench,3.6.2.M20110210-1200,"",1387515078539
activated,workbench,org.eclipse.ui.workbench,3.6.2.M20110210-1200,"",1387515715275
closed,editor,org.eclipse.ui.browser,3.3.1.r36_20101216,"org.eclipse.ui.browser.editor",1387515718408
activated,view,org.eclipse.ui.navigator.resources,3.4.202.M20101124-0800,"org.eclipse.ui.navigator.ProjectExplorer",1387515720205
closed,editor,org.eclipse.ui.browser,3.3.1.r36_20101216,"org.eclipse.ui.browser.editor",1387515720205
opened,editor,org.eclipse.jst.jsp.ui,1.1.503.v201101262228,"org.eclipse.jst.jsp.core.jspsource.source",1387515729408
activated,editor,org.eclipse.jst.jsp.ui,1.1.503.v201101262228,"org.eclipse.jst.jsp.core.jspsource.source",1387515729429
deactivated,workbench,org.eclipse.ui.workbench,3.6.2.M20110210-1200,"",1387515778069
activated,workbench,org.eclipse.ui.workbench,3.6.2.M20110210-1200,"",1387515803473
activated,view,org.eclipse.ui.navigator.resources,3.4.202.M20101124-0800,"org.eclipse.ui.navigator.ProjectExplorer",1387515811529
opened,editor,org.eclipse.jst.jsp.ui,1.1.503.v201101262228,"org.eclipse.jst.jsp.core.jspsource.source",1387515816844
activated,editor,org.eclipse.jst.jsp.ui,1.1.503.v201101262228,"org.eclipse.jst.jsp.core.jspsource.source",1387515816874
executed,command,org.eclipse.ui,3.6.2.M20110203-1100,"org.eclipse.ui.edit.copy",1387515829095
deactivated,workbench,org.eclipse.ui.workbench,3.6.2.M20110210-1200,"",1387515829505
executed,command,org.eclipse.ui,3.6.2.M20110203-1100,"org.eclipse.ui.edit.findReplace",1387515829530
executed,command,org.eclipse.ui,3.6.2.M20110203-1100,"org.eclipse.ui.edit.paste",1387515829584
activated,workbench,org.eclipse.ui.workbench,3.6.2.M20110210-1200,"",1387515830383
executed,command,org.eclipse.ui,3.6.2.M20110203-1100,"org.eclipse.ui.edit.copy",1387515843162
deactivated,workbench,org.eclipse.ui.workbench,3.6.2.M20110210-1200,"",1387515843474
executed,command,org.eclipse.ui,3.6.2.M20110203-1100,"org.eclipse.ui.edit.findReplace",1387515843542
executed,command,org.eclipse.ui,3.6.2.M20110203-1100,"org.eclipse.ui.edit.paste",1387515843615
activated,workbench,org.eclipse.ui.workbench,3.6.2.M20110210-1200,"",1387515844366
executed,command,org.eclipse.ui.workbench.texteditor,3.6.1.r361_v20100714-0800,"org.eclipse.ui.edit.findNext",1387515845361
executed,command,org.eclipse.ui.workbench.texteditor,3.6.1.r361_v20100714-0800,"org.eclipse.ui.edit.findNext",1387515846313
executed,command,org.eclipse.ui.workbench.texteditor,3.6.1.r361_v20100714-0800,"org.eclipse.ui.edit.findNext",1387515847211
deactivated,workbench,org.eclipse.ui.workbench,3.6.2.M20110210-1200,"",1387515881929
activated,workbench,org.eclipse.ui.workbench,3.6.2.M20110210-1200,"",1387515906499
executed,command,org.eclipse.ui,3.6.2.M20110203-1100,"org.eclipse.ui.edit.paste",1387515912385
executed,command,org.eclipse.ui,3.6.2.M20110203-1100,"org.eclipse.ui.edit.undo",1387515913462
executed,command,org.eclipse.ui,3.6.2.M20110203-1100,"org.eclipse.ui.edit.text.contentAssist.proposals",1387515917425
executed,command,org.eclipse.ui,3.6.2.M20110203-1100,"org.eclipse.ui.file.save",1387515919100
deactivated,workbench,org.eclipse.ui.workbench,3.6.2.M20110210-1200,"",1387515921604
activated,workbench,org.eclipse.ui.workbench,3.6.2.M20110210-1200,"",1387515934846
deactivated,workbench,org.eclipse.ui.workbench,3.6.2.M20110210-1200,"",1387515937697
activated,workbench,org.eclipse.ui.workbench,3.6.2.M20110210-1200,"",1387515939548
executed,command,org.eclipse.ui,3.6.2.M20110203-1100,"org.eclipse.ui.file.save",1387515944853
deactivated,workbench,org.eclipse.ui.workbench,3.6.2.M20110210-1200,"",1387515945127
activated,workbench,org.eclipse.ui.workbench,3.6.2.M20110210-1200,"",1387515946341
deactivated,workbench,org.eclipse.ui.workbench,3.6.2.M20110210-1200,"",1387515950808
activated,workbench,org.eclipse.ui.workbench,3.6.2.M20110210-1200,"",1387515952315
executed,command,org.eclipse.ui,3.6.2.M20110203-1100,"org.eclipse.ui.file.save",1387515960354
deactivated,workbench,org.eclipse.ui.workbench,3.6.2.M20110210-1200,"",1387515961908
activated,workbench,org.eclipse.ui.workbench,3.6.2.M20110210-1200,"",1387515967937
deactivated,workbench,org.eclipse.ui.workbench,3.6.2.M20110210-1200,"",1387515968558
activated,workbench,org.eclipse.ui.workbench,3.6.2.M20110210-1200,"",1387515970993
executed,command,org.eclipse.ui,3.6.2.M20110203-1100,"org.eclipse.ui.file.save",1387515977225
executed,command,org.eclipse.ui,3.6.2.M20110203-1100,"org.eclipse.ui.edit.copy",1387515992794
executed,command,org.eclipse.ui,3.6.2.M20110203-1100,"org.eclipse.ui.edit.paste",1387515996889
executed,command,org.eclipse.ui.workbench.texteditor,3.6.1.r361_v20100714-0800,"org.eclipse.ui.edit.text.goto.lineEnd",1387516000346
executed,command,org.eclipse.ui,3.6.2.M20110203-1100,"org.eclipse.ui.file.save",1387516002606
executed,command,org.eclipse.ui,3.6.2.M20110203-1100,"org.eclipse.ui.file.save",1387516004353
executed,command,org.eclipse.ui,3.6.2.M20110203-1100,"org.eclipse.ui.file.save",1387516008115
executed,command,org.eclipse.ui,3.6.2.M20110203-1100,"org.eclipse.ui.edit.paste",1387516009589
executed,command,org.eclipse.ui.workbench.texteditor,3.6.1.r361_v20100714-0800,"org.eclipse.ui.edit.text.goto.lineEnd",1387516012819
executed,command,org.eclipse.ui.workbench.texteditor,3.6.1.r361_v20100714-0800,"org.eclipse.ui.edit.text.goto.lineEnd",1387516014080
executed,command,org.eclipse.ui.workbench.texteditor,3.6.1.r361_v20100714-0800,"org.eclipse.ui.edit.text.goto.lineEnd",1387516014506
executed,command,org.eclipse.ui.workbench.texteditor,3.6.1.r361_v20100714-0800,"org.eclipse.ui.edit.text.goto.lineEnd",1387516015412
executed,command,org.eclipse.ui,3.6.2.M20110203-1100,"org.eclipse.ui.file.save",1387516019706
deactivated,workbench,org.eclipse.ui.workbench,3.6.2.M20110210-1200,"",1387516021430
activated,workbench,org.eclipse.ui.workbench,3.6.2.M20110210-1200,"",1387516030202
deactivated,workbench,org.eclipse.ui.workbench,3.6.2.M20110210-1200,"",1387516031156
activated,workbench,org.eclipse.ui.workbench,3.6.2.M20110210-1200,"",1387516038435
deactivated,workbench,org.eclipse.ui.workbench,3.6.2.M20110210-1200,"",1387516050851
activated,workbench,org.eclipse.ui.workbench,3.6.2.M20110210-1200,"",1387516054426
executed,command,org.eclipse.ui,3.6.2.M20110203-1100,"org.eclipse.ui.file.save",1387516061831
activated,view,org.eclipse.ui.navigator.resources,3.4.202.M20101124-0800,"org.eclipse.ui.navigator.ProjectExplorer",1387516064914
opened,editor,org.eclipse.jdt.ui,3.6.2.r362_v20110203,"org.eclipse.jdt.ui.CompilationUnitEditor",1387516074650
activated,editor,org.eclipse.jdt.ui,3.6.2.r362_v20110203,"org.eclipse.jdt.ui.CompilationUnitEditor",1387516074696
activated,view,org.eclipse.ui.navigator.resources,3.4.202.M20101124-0800,"org.eclipse.ui.navigator.ProjectExplorer",1387516089152
opened,editor,org.eclipse.jdt.ui,3.6.2.r362_v20110203,"org.eclipse.jdt.ui.CompilationUnitEditor",1387516089412
activated,editor,org.eclipse.jdt.ui,3.6.2.r362_v20110203,"org.eclipse.jdt.ui.CompilationUnitEditor",1387516089445
executed,command,org.eclipse.ui,3.6.2.M20110203-1100,"org.eclipse.ui.edit.text.contentAssist.proposals",1387516112523
executed,command,org.eclipse.ui,3.6.2.M20110203-1100,"org.eclipse.ui.file.save",1387516119781
executed,command,org.eclipse.ui,3.6.2.M20110203-1100,"org.eclipse.ui.edit.copy",1387516124683
executed,command,org.eclipse.ui,3.6.2.M20110203-1100,"org.eclipse.ui.edit.paste",1387516128756
executed,command,org.eclipse.ui,3.6.2.M20110203-1100,"org.eclipse.ui.edit.paste",1387516131405
executed,command,org.eclipse.ui,3.6.2.M20110203-1100,"org.eclipse.ui.edit.text.contentAssist.proposals",1387516135191
executed,command,org.eclipse.ui,3.6.2.M20110203-1100,"org.eclipse.ui.file.save",1387516142592
executed,command,org.eclipse.ui,3.6.2.M20110203-1100,"org.eclipse.ui.edit.delete",1387516149142
executed,command,org.eclipse.ui,3.6.2.M20110203-1100,"org.eclipse.ui.file.save",1387516150349
activated,view,org.eclipse.ui.navigator.resources,3.4.202.M20101124-0800,"org.eclipse.ui.navigator.ProjectExplorer",1387516157209
deactivated,workbench,org.eclipse.ui.workbench,3.6.2.M20110210-1200,"",1387516162475
activated,workbench,org.eclipse.ui.workbench,3.6.2.M20110210-1200,"",1387516163520
deactivated,workbench,org.eclipse.ui.workbench,3.6.2.M20110210-1200,"",1387516163550
activated,workbench,org.eclipse.ui.workbench,3.6.2.M20110210-1200,"",1387516164822
executed,command,org.eclipse.wst.server.ui,1.1.207.v20110119,"org.eclipse.wst.server.launchShortcut.run",1387516164840
activated,view,org.eclipse.ui.console,3.5.0.v20100526,"org.eclipse.ui.console.ConsoleView",1387516167487
opened,view,org.eclipse.ui.ide,3.6.2.M20101201-0800,"org.eclipse.ui.views.ProgressView",1387516168696
activated,view,org.eclipse.ui.ide,3.6.2.M20101201-0800,"org.eclipse.ui.views.ProgressView",1387516168716
activated,view,org.eclipse.ui.console,3.5.0.v20100526,"org.eclipse.ui.console.ConsoleView",1387516168826
activated,view,org.eclipse.wst.server.ui,1.1.207.v20110119,"org.eclipse.wst.server.ui.ServersView",1387516169296
opened,editor,org.eclipse.ui.browser,3.3.1.r36_20101216,"org.eclipse.ui.browser.editor",1387516169446
activated,editor,org.eclipse.ui.browser,3.3.1.r36_20101216,"org.eclipse.ui.browser.editor",1387516169491
activated,view,org.eclipse.ui.console,3.5.0.v20100526,"org.eclipse.ui.console.ConsoleView",1387516170715
deactivated,workbench,org.eclipse.ui.workbench,3.6.2.M20110210-1200,"",1387516172767
activated,workbench,org.eclipse.ui.workbench,3.6.2.M20110210-1200,"",1387516182626
deactivated,workbench,org.eclipse.ui.workbench,3.6.2.M20110210-1200,"",1387516183747
activated,workbench,org.eclipse.ui.workbench,3.6.2.M20110210-1200,"",1387516317181
deactivated,workbench,org.eclipse.ui.workbench,3.6.2.M20110210-1200,"",1387516328601
activated,workbench,org.eclipse.ui.workbench,3.6.2.M20110210-1200,"",1387516361248
deactivated,workbench,org.eclipse.ui.workbench,3.6.2.M20110210-1200,"",1387516362119
activated,workbench,org.eclipse.ui.workbench,3.6.2.M20110210-1200,"",1387517352387
activated,editor,org.eclipse.ui.browser,3.3.1.r36_20101216,"org.eclipse.ui.browser.editor",1387517352433
deactivated,workbench,org.eclipse.ui.workbench,3.6.2.M20110210-1200,"",1387517353450
activated,workbench,org.eclipse.ui.workbench,3.6.2.M20110210-1200,"",1387517358199
deactivated,workbench,org.eclipse.ui.workbench,3.6.2.M20110210-1200,"",1387517370132
activated,workbench,org.eclipse.ui.workbench,3.6.2.M20110210-1200,"",1387517437352
deactivated,workbench,org.eclipse.ui.workbench,3.6.2.M20110210-1200,"",1387517440629
activated,workbench,org.eclipse.ui.workbench,3.6.2.M20110210-1200,"",1387517441924
closed,workbench,org.eclipse.ui.workbench,3.6.2.M20110210-1200,"",1387518591661
executed,command,org.eclipse.ui,3.6.2.M20110203-1100,"org.eclipse.ui.file.exit",1387518591937
stopped,bundle,org.eclipse.jst.j2ee.xdoclet.runtime,1.1.300.v201004280700,"org.eclipse.jst.j2ee.xdoclet.runtime",1387518592034
stopped,bundle,org.eclipse.jst.j2ee.ejb.annotations.xdoclet,1.2.100.v201003112036,"org.eclipse.jst.j2ee.ejb.annotations.xdoclet",1387518592035
stopped,bundle,org.eclipse.jst.server.generic.jboss,1.6.1.v200904151730,"org.eclipse.jst.server.generic.jboss",1387518592036
stopped,bundle,org.eclipse.jst.server.generic.jonas,1.5.205.v200805140145,"org.eclipse.jst.server.generic.jonas",1387518592038
stopped,bundle,org.eclipse.jst.server.generic.oc4j,1.5.206.v20090812,"org.eclipse.jst.server.generic.oc4j",1387518592039
stopped,bundle,org.eclipse.jst.server.websphere.core,1.0.302.v20080620,"org.eclipse.jst.server.websphere.core",1387518592040
stopped,bundle,oracle.eclipse.tools.weblogic.legacy,3.2.3.201107052022,"oracle.eclipse.tools.weblogic.legacy",1387518592041
stopped,bundle,org.eclipse.jst.server.generic.ui,1.0.505.v20100428,"org.eclipse.jst.server.generic.ui",1387518592042
stopped,bundle,org.eclipse.jst.server.generic.core,1.0.606.v20100512,"org.eclipse.jst.server.generic.core",1387518592044
stopped,bundle,org.eclipse.mylyn.ide.ant,3.4.0.v20100608-0100-e3x,"org.eclipse.mylyn.ide.ant",1387518592044
stopped,bundle,org.eclipse.datatools.connectivity.oda.template.ui,3.2.1.v201004090942,"org.eclipse.datatools.connectivity.oda.template.ui",1387518592045
stopped,bundle,org.eclipse.pde.api.tools.ui,1.0.201.v20100820_r361,"org.eclipse.pde.api.tools.ui",1387518592045
stopped,bundle,org.eclipse.pde.ds.ui,1.0.100.v20100601,"org.eclipse.pde.ds.ui",1387518592046
stopped,bundle,org.eclipse.pde.runtime,3.4.200.v20100601,"org.eclipse.pde.runtime",1387518592047
stopped,bundle,org.eclipse.pde.ua.ui,1.0.100.v20100504,"org.eclipse.pde.ua.ui",1387518592048
stopped,bundle,org.eclipse.pde.ui.templates,3.4.200.v20100601,"org.eclipse.pde.ui.templates",1387518592050
stopped,bundle,org.eclipse.pde.ui,3.6.1.v20110210_r362,"org.eclipse.pde.ui",1387518592050
stopped,bundle,org.eclipse.ant.ui,3.5.0.v20100427,"org.eclipse.ant.ui",1387518592051
stopped,bundle,org.eclipse.ant.launching,1.0.1.v20101020_r362,"org.eclipse.ant.launching",1387518592053
stopped,bundle,org.eclipse.compare.win32,1.0.101.R36x_v20101103-0618,"org.eclipse.compare.win32",1387518592054
stopped,bundle,org.eclipse.equinox.p2.ui.sdk,1.0.100.v20100513,"org.eclipse.equinox.p2.ui.sdk",1387518592057
stopped,bundle,org.eclipse.jst.server.tomcat.ui,1.1.200.v20100418,"org.eclipse.jst.server.tomcat.ui",1387518592057
stopped,bundle,org.eclipse.jst.server.ui,1.1.101.v20100823b,"org.eclipse.jst.server.ui",1387518592061
stopped,bundle,org.eclipse.mylyn.java.tasks,3.4.0.v20100608-0100-e3x,"org.eclipse.mylyn.java.tasks",1387518592061
stopped,bundle,org.eclipse.mylyn.java.ui,3.4.0.v20100608-0100-e3x,"org.eclipse.mylyn.java.ui",1387518592061
stopped,bundle,org.eclipse.jdt.junit,3.6.1.r361_v20100825-0800,"org.eclipse.jdt.junit",1387518592061
stopped,bundle,org.eclipse.jpt.eclipselink.ui,1.3.0.v201004280001,"org.eclipse.jpt.eclipselink.ui",1387518592081
stopped,bundle,org.eclipse.jpt.eclipselink.core,1.3.2.v201102072310,"org.eclipse.jpt.eclipselink.core",1387518592083
activated,perspective,org.eclipse.jst.j2ee.ui,,"org.eclipse.jst.j2ee.J2EEPerspective",1387702679002
started,bundle,org.eclipse.osgi,3.6.2.R36x_v20110210,"org.eclipse.osgi",1387702679005
started,bundle,org.eclipse.equinox.simpleconfigurator,1.0.200.v20100503,"org.eclipse.equinox.simpleconfigurator",1387702679007
started,bundle,com.ibm.icu,4.2.1.v20100412,"com.ibm.icu",1387702679156
started,bundle,org.eclipse.compare.core,3.5.101.R36x_v20100929-0800,"org.eclipse.compare.core",1387702679159
started,bundle,org.eclipse.core.contenttype,3.4.100.v20100505-1235,"org.eclipse.core.contenttype",1387702679160
started,bundle,org.eclipse.core.databinding.observable,1.3.0.I20100601-0800,"org.eclipse.core.databinding.observable",1387702679235
started,bundle,org.eclipse.core.expressions,3.4.200.v20100505,"org.eclipse.core.expressions",1387702679236
started,bundle,org.eclipse.core.filebuffers,3.5.100.v20100520-0800,"org.eclipse.core.filebuffers",1387702679238
started,bundle,org.eclipse.core.filesystem,1.3.1.R36x_v20100727-0745,"org.eclipse.core.filesystem",1387702679282
started,bundle,org.eclipse.core.net,1.2.100.I20100511-0800,"org.eclipse.core.net",1387702679314
started,bundle,org.eclipse.core.resources,3.6.1.R36x_v20110131-1630,"org.eclipse.core.resources",1387702679344
started,bundle,org.eclipse.core.runtime,3.6.0.v20100505,"org.eclipse.core.runtime",1387702679346
started,bundle,org.eclipse.core.runtime.compatibility,3.2.100.v20100505,"org.eclipse.core.runtime.compatibility",1387702679368
started,bundle,org.eclipse.core.runtime.compatibility.auth,3.2.200.v20100517,"org.eclipse.core.runtime.compatibility.auth",1387702679370
started,bundle,org.eclipse.debug.core,3.6.0.v20100519,"org.eclipse.debug.core",1387702679372
started,bundle,org.eclipse.debug.ui,3.6.3.v20101201_r362,"org.eclipse.debug.ui",1387702679439
started,bundle,org.eclipse.emf.common,2.6.0.v20100914-1218,"org.eclipse.emf.common",1387702679500
started,bundle,org.eclipse.emf.common.ui,2.6.0.v20100914-1218,"org.eclipse.emf.common.ui",1387702679564
started,bundle,org.eclipse.emf.ecore,2.6.1.v20100914-1218,"org.eclipse.emf.ecore",1387702679607
started,bundle,org.eclipse.emf.ecore.xmi,2.5.0.v20100521-1846,"org.eclipse.emf.ecore.xmi",1387702679626
started,bundle,org.eclipse.emf.edit,2.6.0.v20100914-1218,"org.eclipse.emf.edit",1387702679700
started,bundle,org.eclipse.emf.edit.ui,2.6.0.v20100914-1218,"org.eclipse.emf.edit.ui",1387702679750
started,bundle,org.eclipse.epp.usagedata.gathering,1.3.1.R201102081640,"org.eclipse.epp.usagedata.gathering",1387702679751
started,bundle,org.eclipse.epp.usagedata.recording,1.3.1.R201102081640,"org.eclipse.epp.usagedata.recording",1387702679784
started,bundle,org.eclipse.equinox.app,1.3.1.R36x_v20100803,"org.eclipse.equinox.app",1387702679785
started,bundle,org.eclipse.equinox.common,3.6.0.v20100503,"org.eclipse.equinox.common",1387702679786
started,bundle,org.eclipse.equinox.ds,1.2.1.R36x_v20100803,"org.eclipse.equinox.ds",1387702679788
started,bundle,org.eclipse.equinox.event,1.2.0.v20100503,"org.eclipse.equinox.event",1387702679789
started,bundle,org.eclipse.equinox.p2.core,2.0.3.R36x_v20110111,"org.eclipse.equinox.p2.core",1387702679791
started,bundle,org.eclipse.equinox.p2.directorywatcher,1.0.203.R36x_v20101220,"org.eclipse.equinox.p2.directorywatcher",1387702679793
started,bundle,org.eclipse.equinox.p2.engine,2.0.1.R36x_v20110201,"org.eclipse.equinox.p2.engine",1387702679824
started,bundle,org.eclipse.equinox.p2.metadata,2.0.1.R36x_v20101202,"org.eclipse.equinox.p2.metadata",1387702679826
started,bundle,org.eclipse.equinox.p2.metadata.repository,1.1.0.v20100513,"org.eclipse.equinox.p2.metadata.repository",1387702679827
started,bundle,org.eclipse.equinox.p2.operations,2.0.0.v20100510,"org.eclipse.equinox.p2.operations",1387702679829
started,bundle,org.eclipse.equinox.p2.reconciler.dropins,1.1.2.R36x_v20110114,"org.eclipse.equinox.p2.reconciler.dropins",1387702679912
started,bundle,org.eclipse.equinox.p2.repository,2.0.2.R36x_v20110111-1500,"org.eclipse.equinox.p2.repository",1387702679915
started,bundle,org.eclipse.equinox.p2.ui.sdk.scheduler,1.0.0.v20100507-1815,"org.eclipse.equinox.p2.ui.sdk.scheduler",1387702679917
started,bundle,org.eclipse.equinox.p2.updatechecker,1.1.101.R36x_v20100823,"org.eclipse.equinox.p2.updatechecker",1387702679919
started,bundle,org.eclipse.equinox.preferences,3.3.0.v20100503,"org.eclipse.equinox.preferences",1387702679921
started,bundle,org.eclipse.equinox.registry,3.5.0.v20100503,"org.eclipse.equinox.registry",1387702679955
started,bundle,org.eclipse.equinox.security,1.0.200.v20100503,"org.eclipse.equinox.security",1387702679995
started,bundle,org.eclipse.equinox.util,1.0.200.v20100503,"org.eclipse.equinox.util",1387702679997
started,bundle,org.eclipse.help,3.5.0.v20100524,"org.eclipse.help",1387702680027
started,bundle,org.eclipse.jdt.core,3.6.2.v_A76_R36x,"org.eclipse.jdt.core",1387702680053
started,bundle,org.eclipse.jdt.core.manipulation,1.3.0.v20100520-0800,"org.eclipse.jdt.core.manipulation",1387702680056
started,bundle,org.eclipse.jdt.launching,3.5.200.v20110105_r362,"org.eclipse.jdt.launching",1387702680120
started,bundle,org.eclipse.jdt.ui,3.6.2.r362_v20110203,"org.eclipse.jdt.ui",1387702680273
started,bundle,org.eclipse.jem,2.0.400.v201005110200,"org.eclipse.jem",1387702680275
started,bundle,org.eclipse.jem.util,2.1.3.v201012070000,"org.eclipse.jem.util",1387702680277
