what,kind,bundleId,bundleVersion,description,time
activated,workbench,org.eclipse.ui.workbench,3.6.2.M20110210-1200,"",1383528770356
activated,view,org.eclipse.ui.console,3.5.0.v20100526,"org.eclipse.ui.console.ConsoleView",1383528770368
started,bundle,org.eclipse.wst.xsl.debug.ui,1.0.101.v201102111830,"org.eclipse.wst.xsl.debug.ui",1383528899267
activated,editor,org.eclipse.jst.jsp.ui,1.1.503.v201101262228,"org.eclipse.jst.jsp.core.jspsource.source",1383528900235
activated,view,org.eclipse.ui.navigator.resources,3.4.202.M20101124-0800,"org.eclipse.ui.navigator.ProjectExplorer",1383528901683
executed,command,org.eclipse.ui,3.6.2.M20110203-1100,"org.eclipse.ui.file.refresh",1383528902540
deactivated,workbench,org.eclipse.ui.workbench,3.6.2.M20110210-1200,"",1383528903934
activated,workbench,org.eclipse.ui.workbench,3.6.2.M20110210-1200,"",1383528907319
activated,editor,org.eclipse.jst.jsp.ui,1.1.503.v201101262228,"org.eclipse.jst.jsp.core.jspsource.source",1383528907996
activated,view,org.eclipse.ui.navigator.resources,3.4.202.M20101124-0800,"org.eclipse.ui.navigator.ProjectExplorer",1383528910956
deactivated,workbench,org.eclipse.ui.workbench,3.6.2.M20110210-1200,"",1383528911568
executed,command,org.eclipse.ui,3.6.2.M20110203-1100,"org.eclipse.ui.edit.copy",1383528912309
activated,workbench,org.eclipse.ui.workbench,3.6.2.M20110210-1200,"",1383528912691
executed,command,org.eclipse.ltk.ui.refactoring,3.5.0.v20100526-0800,"org.eclipse.ltk.ui.refactoring.commands.renameResource",1383528912699
executed,command,org.eclipse.ui,3.6.2.M20110203-1100,"org.eclipse.ui.edit.rename",1383528912699
executed,command,org.eclipse.ui,3.6.2.M20110203-1100,"org.eclipse.ui.file.refresh",1383528914565
activated,editor,org.eclipse.jst.jsp.ui,1.1.503.v201101262228,"org.eclipse.jst.jsp.core.jspsource.source",1383528915438
executed,command,org.eclipse.ui,3.6.2.M20110203-1100,"org.eclipse.ui.edit.paste",1383528918435
executed,command,org.eclipse.ui,3.6.2.M20110203-1100,"org.eclipse.ui.file.save",1383528918898
deactivated,workbench,org.eclipse.ui.workbench,3.6.2.M20110210-1200,"",1383528919670
activated,workbench,org.eclipse.ui.workbench,3.6.2.M20110210-1200,"",1383528932383
executed,command,org.eclipse.ui,3.6.2.M20110203-1100,"org.eclipse.ui.file.save",1383528936399
deactivated,workbench,org.eclipse.ui.workbench,3.6.2.M20110210-1200,"",1383528936604
activated,workbench,org.eclipse.ui.workbench,3.6.2.M20110210-1200,"",1383528940843
executed,command,org.eclipse.ui,3.6.2.M20110203-1100,"org.eclipse.ui.edit.undo",1383528941929
executed,command,org.eclipse.ui,3.6.2.M20110203-1100,"org.eclipse.ui.file.save",1383528946950
deactivated,workbench,org.eclipse.ui.workbench,3.6.2.M20110210-1200,"",1383528947162
activated,workbench,org.eclipse.ui.workbench,3.6.2.M20110210-1200,"",1383528949697
executed,command,org.eclipse.ui,3.6.2.M20110203-1100,"org.eclipse.ui.file.save",1383528952100
deactivated,workbench,org.eclipse.ui.workbench,3.6.2.M20110210-1200,"",1383528952300
activated,workbench,org.eclipse.ui.workbench,3.6.2.M20110210-1200,"",1383528955535
deactivated,workbench,org.eclipse.ui.workbench,3.6.2.M20110210-1200,"",1383528955818
activated,workbench,org.eclipse.ui.workbench,3.6.2.M20110210-1200,"",1383528956231
executed,command,org.eclipse.ui,3.6.2.M20110203-1100,"org.eclipse.ui.file.save",1383528959643
deactivated,workbench,org.eclipse.ui.workbench,3.6.2.M20110210-1200,"",1383528959904
activated,workbench,org.eclipse.ui.workbench,3.6.2.M20110210-1200,"",1383529071629
activated,view,org.eclipse.ui.navigator.resources,3.4.202.M20101124-0800,"org.eclipse.ui.navigator.ProjectExplorer",1383529073059
executed,command,org.eclipse.ui,3.6.2.M20110203-1100,"org.eclipse.ui.file.refresh",1383529073978
activated,editor,org.eclipse.jst.jsp.ui,1.1.503.v201101262228,"org.eclipse.jst.jsp.core.jspsource.source",1383529076889
executed,command,org.eclipse.ui,3.6.2.M20110203-1100,"org.eclipse.ui.file.save",1383529079611
deactivated,workbench,org.eclipse.ui.workbench,3.6.2.M20110210-1200,"",1383529079860
activated,workbench,org.eclipse.ui.workbench,3.6.2.M20110210-1200,"",1383529084604
executed,command,org.eclipse.ui,3.6.2.M20110203-1100,"org.eclipse.ui.file.save",1383529088394
deactivated,workbench,org.eclipse.ui.workbench,3.6.2.M20110210-1200,"",1383529088619
activated,workbench,org.eclipse.ui.workbench,3.6.2.M20110210-1200,"",1383529092670
executed,command,org.eclipse.ui,3.6.2.M20110203-1100,"org.eclipse.ui.file.save",1383529099118
deactivated,workbench,org.eclipse.ui.workbench,3.6.2.M20110210-1200,"",1383529099297
activated,workbench,org.eclipse.ui.workbench,3.6.2.M20110210-1200,"",1383529105181
executed,command,org.eclipse.ui,3.6.2.M20110203-1100,"org.eclipse.ui.edit.text.contentAssist.proposals",1383529108237
executed,command,org.eclipse.ui,3.6.2.M20110203-1100,"org.eclipse.ui.edit.text.contentAssist.proposals",1383529110383
executed,command,org.eclipse.ui,3.6.2.M20110203-1100,"org.eclipse.ui.file.save",1383529115670
deactivated,workbench,org.eclipse.ui.workbench,3.6.2.M20110210-1200,"",1383529115795
activated,workbench,org.eclipse.ui.workbench,3.6.2.M20110210-1200,"",1383529121106
executed,command,org.eclipse.ui,3.6.2.M20110203-1100,"org.eclipse.ui.file.save",1383529135664
deactivated,workbench,org.eclipse.ui.workbench,3.6.2.M20110210-1200,"",1383529136360
activated,workbench,org.eclipse.ui.workbench,3.6.2.M20110210-1200,"",1383529255132
executed,command,org.eclipse.ui,3.6.2.M20110203-1100,"org.eclipse.ui.file.save",1383529259003
deactivated,workbench,org.eclipse.ui.workbench,3.6.2.M20110210-1200,"",1383529259403
activated,workbench,org.eclipse.ui.workbench,3.6.2.M20110210-1200,"",1383529265838
executed,command,org.eclipse.ui,3.6.2.M20110203-1100,"org.eclipse.ui.file.save",1383529270997
deactivated,workbench,org.eclipse.ui.workbench,3.6.2.M20110210-1200,"",1383529271295
activated,workbench,org.eclipse.ui.workbench,3.6.2.M20110210-1200,"",1383529281161
executed,command,org.eclipse.ui,3.6.2.M20110203-1100,"org.eclipse.ui.edit.copy",1383529285230
deactivated,workbench,org.eclipse.ui.workbench,3.6.2.M20110210-1200,"",1383529296062
activated,workbench,org.eclipse.ui.workbench,3.6.2.M20110210-1200,"",1383529298010
executed,command,org.eclipse.ui,3.6.2.M20110203-1100,"org.eclipse.ui.edit.paste",1383529303369
executed,command,org.eclipse.ui,3.6.2.M20110203-1100,"org.eclipse.ui.file.save",1383529319156
deactivated,workbench,org.eclipse.ui.workbench,3.6.2.M20110210-1200,"",1383529319363
activated,workbench,org.eclipse.ui.workbench,3.6.2.M20110210-1200,"",1383529333758
activated,editor,org.eclipse.jst.jsp.ui,1.1.503.v201101262228,"org.eclipse.jst.jsp.core.jspsource.source",1383529337528
executed,command,org.eclipse.ui,3.6.2.M20110203-1100,"org.eclipse.ui.file.save",1383529345926
deactivated,workbench,org.eclipse.ui.workbench,3.6.2.M20110210-1200,"",1383529346069
activated,workbench,org.eclipse.ui.workbench,3.6.2.M20110210-1200,"",1383529348849
executed,command,org.eclipse.ui,3.6.2.M20110203-1100,"org.eclipse.ui.file.save",1383529350397
deactivated,workbench,org.eclipse.ui.workbench,3.6.2.M20110210-1200,"",1383529350633
activated,workbench,org.eclipse.ui.workbench,3.6.2.M20110210-1200,"",1383529352169
activated,view,org.eclipse.ui.navigator.resources,3.4.202.M20101124-0800,"org.eclipse.ui.navigator.ProjectExplorer",1383529355395
deactivated,workbench,org.eclipse.ui.workbench,3.6.2.M20110210-1200,"",1383529357267
executed,command,org.eclipse.ui,3.6.2.M20110203-1100,"org.eclipse.ui.edit.copy",1383529358104
executed,command,org.eclipse.ui,3.6.2.M20110203-1100,"org.eclipse.ui.edit.copy",1383529358287
executed,command,org.eclipse.ui,3.6.2.M20110203-1100,"org.eclipse.ui.edit.copy",1383529358463
activated,workbench,org.eclipse.ui.workbench,3.6.2.M20110210-1200,"",1383529359079
executed,command,org.eclipse.ltk.ui.refactoring,3.5.0.v20100526-0800,"org.eclipse.ltk.ui.refactoring.commands.renameResource",1383529359087
executed,command,org.eclipse.ui,3.6.2.M20110203-1100,"org.eclipse.ui.edit.rename",1383529359087
deactivated,workbench,org.eclipse.ui.workbench,3.6.2.M20110210-1200,"",1383529361488
activated,workbench,org.eclipse.ui.workbench,3.6.2.M20110210-1200,"",1383529362556
executed,command,org.eclipse.ui,3.6.2.M20110203-1100,"org.eclipse.ui.edit.delete",1383529362563
activated,editor,org.eclipse.jst.jsp.ui,1.1.503.v201101262228,"org.eclipse.jst.jsp.core.jspsource.source",1383529362955
executed,command,org.eclipse.ui,3.6.2.M20110203-1100,"org.eclipse.ui.edit.undo",1383529365581
executed,command,org.eclipse.ui,3.6.2.M20110203-1100,"org.eclipse.ui.edit.redo",1383529366534
executed,command,org.eclipse.ui,3.6.2.M20110203-1100,"org.eclipse.ui.edit.paste",1383529369439
executed,command,org.eclipse.ui,3.6.2.M20110203-1100,"org.eclipse.ui.file.save",1383529370215
deactivated,workbench,org.eclipse.ui.workbench,3.6.2.M20110210-1200,"",1383529370592
activated,workbench,org.eclipse.ui.workbench,3.6.2.M20110210-1200,"",1383529374181
executed,command,org.eclipse.ui,3.6.2.M20110203-1100,"org.eclipse.ui.file.save",1383529385429
deactivated,workbench,org.eclipse.ui.workbench,3.6.2.M20110210-1200,"",1383529385665
activated,workbench,org.eclipse.ui.workbench,3.6.2.M20110210-1200,"",1383529389929
executed,command,org.eclipse.ui,3.6.2.M20110203-1100,"org.eclipse.ui.file.save",1383529391398
deactivated,workbench,org.eclipse.ui.workbench,3.6.2.M20110210-1200,"",1383529391602
activated,workbench,org.eclipse.ui.workbench,3.6.2.M20110210-1200,"",1383529605377
deactivated,workbench,org.eclipse.ui.workbench,3.6.2.M20110210-1200,"",1383529617338
deactivated,workbench,org.eclipse.ui.workbench,3.6.2.M20110210-1200,"",1383529625813
activated,workbench,org.eclipse.ui.workbench,3.6.2.M20110210-1200,"",1383529626099
deactivated,workbench,org.eclipse.ui.workbench,3.6.2.M20110210-1200,"",1383529665998
activated,workbench,org.eclipse.ui.workbench,3.6.2.M20110210-1200,"",1383529666937
deactivated,workbench,org.eclipse.ui.workbench,3.6.2.M20110210-1200,"",1383529671225
activated,workbench,org.eclipse.ui.workbench,3.6.2.M20110210-1200,"",1383529671920
deactivated,workbench,org.eclipse.ui.workbench,3.6.2.M20110210-1200,"",1383529712386
activated,workbench,org.eclipse.ui.workbench,3.6.2.M20110210-1200,"",1383530380914
activated,view,org.eclipse.ui.navigator.resources,3.4.202.M20101124-0800,"org.eclipse.ui.navigator.ProjectExplorer",1383530384960
executed,command,org.eclipse.ui,3.6.2.M20110203-1100,"org.eclipse.ui.file.refresh",1383530385769
deactivated,workbench,org.eclipse.ui.workbench,3.6.2.M20110210-1200,"",1383530388997
executed,command,org.eclipse.ui,3.6.2.M20110203-1100,"org.eclipse.ui.edit.copy",1383530390044
executed,command,org.eclipse.ui,3.6.2.M20110203-1100,"org.eclipse.ui.edit.copy",1383530390210
activated,workbench,org.eclipse.ui.workbench,3.6.2.M20110210-1200,"",1383530390626
executed,command,org.eclipse.ltk.ui.refactoring,3.5.0.v20100526-0800,"org.eclipse.ltk.ui.refactoring.commands.renameResource",1383530390634
executed,command,org.eclipse.ui,3.6.2.M20110203-1100,"org.eclipse.ui.edit.rename",1383530390634
activated,editor,org.eclipse.jst.jsp.ui,1.1.503.v201101262228,"org.eclipse.jst.jsp.core.jspsource.source",1383530391339
activated,editor,org.eclipse.jst.jsp.ui,1.1.503.v201101262228,"org.eclipse.jst.jsp.core.jspsource.source",1383530395414
activated,editor,org.eclipse.jst.jsp.ui,1.1.503.v201101262228,"org.eclipse.jst.jsp.core.jspsource.source",1383530396559
activated,editor,org.eclipse.jst.jsp.ui,1.1.503.v201101262228,"org.eclipse.jst.jsp.core.jspsource.source",1383530397963
executed,command,org.eclipse.ui,3.6.2.M20110203-1100,"org.eclipse.ui.edit.paste",1383530469448
executed,command,org.eclipse.ui,3.6.2.M20110203-1100,"org.eclipse.ui.file.save",1383530470167
deactivated,workbench,org.eclipse.ui.workbench,3.6.2.M20110210-1200,"",1383530470465
activated,workbench,org.eclipse.ui.workbench,3.6.2.M20110210-1200,"",1383530473575
deactivated,workbench,org.eclipse.ui.workbench,3.6.2.M20110210-1200,"",1383530474006
activated,workbench,org.eclipse.ui.workbench,3.6.2.M20110210-1200,"",1383530478483
activated,view,org.eclipse.ui.console,3.5.0.v20100526,"org.eclipse.ui.console.ConsoleView",1383530478492
deactivated,workbench,org.eclipse.ui.workbench,3.6.2.M20110210-1200,"",1383530518954
activated,workbench,org.eclipse.ui.workbench,3.6.2.M20110210-1200,"",1383530562108
activated,editor,org.eclipse.jst.jsp.ui,1.1.503.v201101262228,"org.eclipse.jst.jsp.core.jspsource.source",1383530563242
executed,command,org.eclipse.ui,3.6.2.M20110203-1100,"org.eclipse.ui.edit.undo",1383530598865
deactivated,workbench,org.eclipse.ui.workbench,3.6.2.M20110210-1200,"",1383530622298
activated,workbench,org.eclipse.ui.workbench,3.6.2.M20110210-1200,"",1383530626817
executed,command,org.eclipse.ui,3.6.2.M20110203-1100,"org.eclipse.ui.edit.cut",1383530684518
executed,command,org.eclipse.ui,3.6.2.M20110203-1100,"org.eclipse.ui.edit.paste",1383530688858
executed,command,org.eclipse.ui,3.6.2.M20110203-1100,"org.eclipse.ui.file.save",1383530689362
executed,command,org.eclipse.ui,3.6.2.M20110203-1100,"org.eclipse.ui.edit.paste",1383530694677
executed,command,org.eclipse.ui,3.6.2.M20110203-1100,"org.eclipse.ui.file.save",1383530695309
deactivated,workbench,org.eclipse.ui.workbench,3.6.2.M20110210-1200,"",1383530703655
activated,workbench,org.eclipse.ui.workbench,3.6.2.M20110210-1200,"",1383530711921
executed,command,org.eclipse.ui,3.6.2.M20110203-1100,"org.eclipse.ui.edit.paste",1383530714877
executed,command,org.eclipse.ui,3.6.2.M20110203-1100,"org.eclipse.ui.file.save",1383530717506
deactivated,workbench,org.eclipse.ui.workbench,3.6.2.M20110210-1200,"",1383530717731
activated,workbench,org.eclipse.ui.workbench,3.6.2.M20110210-1200,"",1383530720437
activated,view,org.eclipse.ui.console,3.5.0.v20100526,"org.eclipse.ui.console.ConsoleView",1383530720451
activated,editor,org.eclipse.jst.jsp.ui,1.1.503.v201101262228,"org.eclipse.jst.jsp.core.jspsource.source",1383531041228
activated,view,org.eclipse.ui.navigator.resources,3.4.202.M20101124-0800,"org.eclipse.ui.navigator.ProjectExplorer",1383531043497
error,log,,,"Core exception while retrieving the content description",1383531043659
executed,command,org.eclipse.ui,3.6.2.M20110203-1100,"org.eclipse.ui.file.refresh",1383531045186
deactivated,workbench,org.eclipse.ui.workbench,3.6.2.M20110210-1200,"",1383531045992
activated,workbench,org.eclipse.ui.workbench,3.6.2.M20110210-1200,"",1383531188526
activated,editor,org.eclipse.jst.jsp.ui,1.1.503.v201101262228,"org.eclipse.jst.jsp.core.jspsource.source",1383531189588
executed,command,org.eclipse.ui,3.6.2.M20110203-1100,"org.eclipse.ui.edit.undo",1383531191335
deactivated,workbench,org.eclipse.ui.workbench,3.6.2.M20110210-1200,"",1383531208440
activated,workbench,org.eclipse.ui.workbench,3.6.2.M20110210-1200,"",1383531210387
executed,command,org.eclipse.ui,3.6.2.M20110203-1100,"org.eclipse.ui.file.save",1383531227729
deactivated,workbench,org.eclipse.ui.workbench,3.6.2.M20110210-1200,"",1383531538254
activated,workbench,org.eclipse.ui.workbench,3.6.2.M20110210-1200,"",1383531693363
executed,command,org.eclipse.ui,3.6.2.M20110203-1100,"org.eclipse.ui.file.save",1383531698791
executed,command,org.eclipse.ui,3.6.2.M20110203-1100,"org.eclipse.ui.file.save",1383531701883
executed,command,org.eclipse.ui,3.6.2.M20110203-1100,"org.eclipse.ui.file.save",1383531706277
deactivated,workbench,org.eclipse.ui.workbench,3.6.2.M20110210-1200,"",1383531706492
activated,workbench,org.eclipse.ui.workbench,3.6.2.M20110210-1200,"",1383531710650
activated,view,org.eclipse.ui.navigator.resources,3.4.202.M20101124-0800,"org.eclipse.ui.navigator.ProjectExplorer",1383531713069
opened,editor,org.eclipse.jdt.ui,3.6.2.r362_v20110203,"org.eclipse.jdt.ui.CompilationUnitEditor",1383531715236
activated,editor,org.eclipse.jdt.ui,3.6.2.r362_v20110203,"org.eclipse.jdt.ui.CompilationUnitEditor",1383531715315
executed,command,org.eclipse.ui,3.6.2.M20110203-1100,"org.eclipse.ui.edit.cut",1383531724993
executed,command,org.eclipse.ui,3.6.2.M20110203-1100,"org.eclipse.ui.edit.paste",1383531729665
executed,command,org.eclipse.ui,3.6.2.M20110203-1100,"org.eclipse.ui.file.save",1383531730313
activated,view,org.eclipse.ui.console,3.5.0.v20100526,"org.eclipse.ui.console.ConsoleView",1383531734467
activated,editor,org.eclipse.jdt.ui,3.6.2.r362_v20110203,"org.eclipse.jdt.ui.CompilationUnitEditor",1383531735542
executed,command,org.eclipse.ui,3.6.2.M20110203-1100,"org.eclipse.ui.file.save",1383531766518
executed,command,org.eclipse.ui,3.6.2.M20110203-1100,"org.eclipse.ui.file.save",1383531767724
activated,editor,org.eclipse.jst.jsp.ui,1.1.503.v201101262228,"org.eclipse.jst.jsp.core.jspsource.source",1383531776329
activated,editor,org.eclipse.jst.jsp.ui,1.1.503.v201101262228,"org.eclipse.jst.jsp.core.jspsource.source",1383531778737
executed,command,org.eclipse.ui,3.6.2.M20110203-1100,"org.eclipse.ui.file.save",1383531827910
executed,command,org.eclipse.ui,3.6.2.M20110203-1100,"org.eclipse.ui.edit.delete",1383531843388
executed,command,org.eclipse.ui,3.6.2.M20110203-1100,"org.eclipse.ui.edit.delete",1383531843825
executed,command,org.eclipse.ui,3.6.2.M20110203-1100,"org.eclipse.ui.edit.delete",1383531843851
executed,command,org.eclipse.ui,3.6.2.M20110203-1100,"org.eclipse.ui.edit.delete",1383531843869
executed,command,org.eclipse.ui,3.6.2.M20110203-1100,"org.eclipse.ui.edit.delete",1383531843889
executed,command,org.eclipse.ui,3.6.2.M20110203-1100,"org.eclipse.ui.edit.delete",1383531843911
executed,command,org.eclipse.ui,3.6.2.M20110203-1100,"org.eclipse.ui.edit.delete",1383531843935
executed,command,org.eclipse.ui,3.6.2.M20110203-1100,"org.eclipse.ui.edit.delete",1383531843960
executed,command,org.eclipse.ui,3.6.2.M20110203-1100,"org.eclipse.ui.edit.delete",1383531843984
executed,command,org.eclipse.ui,3.6.2.M20110203-1100,"org.eclipse.ui.edit.delete",1383531844007
executed,command,org.eclipse.ui,3.6.2.M20110203-1100,"org.eclipse.ui.edit.delete",1383531844031
executed,command,org.eclipse.ui,3.6.2.M20110203-1100,"org.eclipse.ui.edit.delete",1383531844055
executed,command,org.eclipse.ui,3.6.2.M20110203-1100,"org.eclipse.ui.edit.delete",1383531844079
executed,command,org.eclipse.ui,3.6.2.M20110203-1100,"org.eclipse.ui.edit.delete",1383531844104
executed,command,org.eclipse.ui,3.6.2.M20110203-1100,"org.eclipse.ui.edit.delete",1383531844128
executed,command,org.eclipse.ui,3.6.2.M20110203-1100,"org.eclipse.ui.edit.delete",1383531844153
executed,command,org.eclipse.ui,3.6.2.M20110203-1100,"org.eclipse.ui.edit.delete",1383531844341
executed,command,org.eclipse.ui,3.6.2.M20110203-1100,"org.eclipse.ui.edit.delete",1383531844684
executed,command,org.eclipse.ui,3.6.2.M20110203-1100,"org.eclipse.ui.edit.delete",1383531844856
executed,command,org.eclipse.ui,3.6.2.M20110203-1100,"org.eclipse.ui.edit.delete",1383531845025
executed,command,org.eclipse.ui,3.6.2.M20110203-1100,"org.eclipse.ui.edit.delete",1383531845193
executed,command,org.eclipse.ui,3.6.2.M20110203-1100,"org.eclipse.ui.edit.delete",1383531845369
executed,command,org.eclipse.ui,3.6.2.M20110203-1100,"org.eclipse.ui.edit.delete",1383531845525
executed,command,org.eclipse.ui,3.6.2.M20110203-1100,"org.eclipse.ui.edit.delete",1383531845689
executed,command,org.eclipse.ui,3.6.2.M20110203-1100,"org.eclipse.ui.edit.delete",1383531846129
executed,command,org.eclipse.ui,3.6.2.M20110203-1100,"org.eclipse.ui.file.save",1383531851719
deactivated,workbench,org.eclipse.ui.workbench,3.6.2.M20110210-1200,"",1383531851970
activated,workbench,org.eclipse.ui.workbench,3.6.2.M20110210-1200,"",1383531853963
activated,view,org.eclipse.ui.console,3.5.0.v20100526,"org.eclipse.ui.console.ConsoleView",1383531853979
activated,editor,org.eclipse.jst.jsp.ui,1.1.503.v201101262228,"org.eclipse.jst.jsp.core.jspsource.source",1383531857772
activated,view,org.eclipse.ui.navigator.resources,3.4.202.M20101124-0800,"org.eclipse.ui.navigator.ProjectExplorer",1383531859235
deactivated,workbench,org.eclipse.ui.workbench,3.6.2.M20110210-1200,"",1383531861831
activated,workbench,org.eclipse.ui.workbench,3.6.2.M20110210-1200,"",1383531878335
deactivated,workbench,org.eclipse.ui.workbench,3.6.2.M20110210-1200,"",1383531887606
activated,workbench,org.eclipse.ui.workbench,3.6.2.M20110210-1200,"",1383531902259
executed,command,org.eclipse.ui,3.6.2.M20110203-1100,"org.eclipse.ui.newWizard",1383531902338
deactivated,workbench,org.eclipse.ui.workbench,3.6.2.M20110210-1200,"",1383531908005
activated,workbench,org.eclipse.ui.workbench,3.6.2.M20110210-1200,"",1383531908798
deactivated,workbench,org.eclipse.ui.workbench,3.6.2.M20110210-1200,"",1383531908844
activated,workbench,org.eclipse.ui.workbench,3.6.2.M20110210-1200,"",1383531910070
executed,command,org.eclipse.wst.server.ui,1.1.207.v20110119,"org.eclipse.wst.server.launchShortcut.run",1383531910085
opened,editor,org.eclipse.ui.browser,3.3.1.r36_20101216,"org.eclipse.ui.browser.editor",1383531914952
activated,editor,org.eclipse.ui.browser,3.3.1.r36_20101216,"org.eclipse.ui.browser.editor",1383531915005
executed,command,org.eclipse.ui,3.6.2.M20110203-1100,"org.eclipse.ui.edit.copy",1383531917362
deactivated,workbench,org.eclipse.ui.workbench,3.6.2.M20110210-1200,"",1383531918287
activated,workbench,org.eclipse.ui.workbench,3.6.2.M20110210-1200,"",1383531959750
deactivated,workbench,org.eclipse.ui.workbench,3.6.2.M20110210-1200,"",1383531960193
activated,workbench,org.eclipse.ui.workbench,3.6.2.M20110210-1200,"",1383531961906
activated,editor,org.eclipse.jst.jsp.ui,1.1.503.v201101262228,"org.eclipse.jst.jsp.core.jspsource.source",1383531963363
executed,command,org.eclipse.ui,3.6.2.M20110203-1100,"org.eclipse.ui.file.save",1383531972533
executed,command,org.eclipse.ui,3.6.2.M20110203-1100,"org.eclipse.ui.file.save",1383531980263
deactivated,workbench,org.eclipse.ui.workbench,3.6.2.M20110210-1200,"",1383531980553
activated,workbench,org.eclipse.ui.workbench,3.6.2.M20110210-1200,"",1383531987677
executed,command,org.eclipse.ui,3.6.2.M20110203-1100,"org.eclipse.ui.file.save",1383531991015
deactivated,workbench,org.eclipse.ui.workbench,3.6.2.M20110210-1200,"",1383531991214
activated,workbench,org.eclipse.ui.workbench,3.6.2.M20110210-1200,"",1383531998042
executed,command,org.eclipse.ui,3.6.2.M20110203-1100,"org.eclipse.ui.edit.copy",1383532004951
activated,editor,org.eclipse.wst.css.ui,1.0.502.v201101122002,"org.eclipse.wst.css.core.csssource.source",1383532006261
deactivated,workbench,org.eclipse.ui.workbench,3.6.2.M20110210-1200,"",1383532006523
executed,command,org.eclipse.ui,3.6.2.M20110203-1100,"org.eclipse.ui.edit.findReplace",1383532006550
executed,command,org.eclipse.ui,3.6.2.M20110203-1100,"org.eclipse.ui.edit.paste",1383532006715
activated,workbench,org.eclipse.ui.workbench,3.6.2.M20110210-1200,"",1383532007405
executed,command,org.eclipse.ui,3.6.2.M20110203-1100,"org.eclipse.ui.file.save",1383532022999
deactivated,workbench,org.eclipse.ui.workbench,3.6.2.M20110210-1200,"",1383532023153
activated,workbench,org.eclipse.ui.workbench,3.6.2.M20110210-1200,"",1383532025026
executed,command,org.eclipse.ui,3.6.2.M20110203-1100,"org.eclipse.ui.edit.copy",1383532026517
activated,editor,org.eclipse.jst.jsp.ui,1.1.503.v201101262228,"org.eclipse.jst.jsp.core.jspsource.source",1383532027432
executed,command,org.eclipse.ui,3.6.2.M20110203-1100,"org.eclipse.ui.edit.paste",1383532028168
executed,command,org.eclipse.ui,3.6.2.M20110203-1100,"org.eclipse.ui.file.save",1383532028481
deactivated,workbench,org.eclipse.ui.workbench,3.6.2.M20110210-1200,"",1383532028799
activated,workbench,org.eclipse.ui.workbench,3.6.2.M20110210-1200,"",1383532032459
activated,editor,org.eclipse.wst.css.ui,1.0.502.v201101122002,"org.eclipse.wst.css.core.csssource.source",1383532033888
deactivated,workbench,org.eclipse.ui.workbench,3.6.2.M20110210-1200,"",1383532035941
activated,workbench,org.eclipse.ui.workbench,3.6.2.M20110210-1200,"",1383532037728
executed,command,org.eclipse.ui,3.6.2.M20110203-1100,"org.eclipse.ui.file.save",1383532040456
executed,command,org.eclipse.ui,3.6.2.M20110203-1100,"org.eclipse.ui.file.save",1383532046044
deactivated,workbench,org.eclipse.ui.workbench,3.6.2.M20110210-1200,"",1383532046191
activated,workbench,org.eclipse.ui.workbench,3.6.2.M20110210-1200,"",1383532050550
activated,editor,org.eclipse.jst.jsp.ui,1.1.503.v201101262228,"org.eclipse.jst.jsp.core.jspsource.source",1383532051832
executed,command,org.eclipse.ui,3.6.2.M20110203-1100,"org.eclipse.ui.edit.text.contentAssist.proposals",1383532056846
deactivated,workbench,org.eclipse.ui.workbench,3.6.2.M20110210-1200,"",1383532058143
activated,workbench,org.eclipse.ui.workbench,3.6.2.M20110210-1200,"",1383532058304
executed,command,org.eclipse.ui,3.6.2.M20110203-1100,"org.eclipse.ui.file.save",1383532060848
deactivated,workbench,org.eclipse.ui.workbench,3.6.2.M20110210-1200,"",1383532061065
activated,workbench,org.eclipse.ui.workbench,3.6.2.M20110210-1200,"",1383532064530
deactivated,workbench,org.eclipse.ui.workbench,3.6.2.M20110210-1200,"",1383532065408
activated,workbench,org.eclipse.ui.workbench,3.6.2.M20110210-1200,"",1383532069516
executed,command,org.eclipse.ui,3.6.2.M20110203-1100,"org.eclipse.ui.edit.text.contentAssist.proposals",1383532072650
executed,command,org.eclipse.ui,3.6.2.M20110203-1100,"org.eclipse.ui.file.save",1383532075584
deactivated,workbench,org.eclipse.ui.workbench,3.6.2.M20110210-1200,"",1383532075846
activated,workbench,org.eclipse.ui.workbench,3.6.2.M20110210-1200,"",1383532078258
deactivated,workbench,org.eclipse.ui.workbench,3.6.2.M20110210-1200,"",1383532078747
activated,workbench,org.eclipse.ui.workbench,3.6.2.M20110210-1200,"",1383532081561
executed,command,org.eclipse.ui,3.6.2.M20110203-1100,"org.eclipse.ui.file.save",1383532083276
deactivated,workbench,org.eclipse.ui.workbench,3.6.2.M20110210-1200,"",1383532083418
activated,workbench,org.eclipse.ui.workbench,3.6.2.M20110210-1200,"",1383532097923
executed,command,org.eclipse.ui,3.6.2.M20110203-1100,"org.eclipse.ui.file.save",1383532102417
deactivated,workbench,org.eclipse.ui.workbench,3.6.2.M20110210-1200,"",1383532102708
