what,kind,bundleId,bundleVersion,description,time
activated,workbench,org.eclipse.ui.workbench,3.6.2.M20110210-1200,"",1383592788129
deactivated,workbench,org.eclipse.ui.workbench,3.6.2.M20110210-1200,"",1383592794375
activated,workbench,org.eclipse.ui.workbench,3.6.2.M20110210-1200,"",1383592797145
activated,editor,org.eclipse.jst.jsp.ui,1.1.503.v201101262228,"org.eclipse.jst.jsp.core.jspsource.source",1383592799127
activated,editor,org.eclipse.jdt.ui,3.6.2.r362_v20110203,"org.eclipse.jdt.ui.CompilationUnitEditor",1383592799202
deactivated,workbench,org.eclipse.ui.workbench,3.6.2.M20110210-1200,"",1383592837146
activated,workbench,org.eclipse.ui.workbench,3.6.2.M20110210-1200,"",1383592848834
executed,command,org.eclipse.ui,3.6.2.M20110203-1100,"org.eclipse.ui.file.save",1383592852251
deactivated,workbench,org.eclipse.ui.workbench,3.6.2.M20110210-1200,"",1383592854234
activated,workbench,org.eclipse.ui.workbench,3.6.2.M20110210-1200,"",1383592856245
activated,view,org.eclipse.ui.navigator.resources,3.4.202.M20101124-0800,"org.eclipse.ui.navigator.ProjectExplorer",1383592858493
deactivated,workbench,org.eclipse.ui.workbench,3.6.2.M20110210-1200,"",1383592862047
activated,workbench,org.eclipse.ui.workbench,3.6.2.M20110210-1200,"",1383592870781
activated,editor,org.eclipse.jdt.ui,3.6.2.r362_v20110203,"org.eclipse.jdt.ui.CompilationUnitEditor",1383593088412
activated,view,org.eclipse.ui.navigator.resources,3.4.202.M20101124-0800,"org.eclipse.ui.navigator.ProjectExplorer",1383593094402
deactivated,workbench,org.eclipse.ui.workbench,3.6.2.M20110210-1200,"",1383593096694
activated,workbench,org.eclipse.ui.workbench,3.6.2.M20110210-1200,"",1383593101810
deactivated,workbench,org.eclipse.ui.workbench,3.6.2.M20110210-1200,"",1383593111156
activated,workbench,org.eclipse.ui.workbench,3.6.2.M20110210-1200,"",1383593117049
executed,command,org.eclipse.ui,3.6.2.M20110203-1100,"org.eclipse.ui.newWizard",1383593117058
deactivated,workbench,org.eclipse.ui.workbench,3.6.2.M20110210-1200,"",1383593120655
activated,workbench,org.eclipse.ui.workbench,3.6.2.M20110210-1200,"",1383593121413
deactivated,workbench,org.eclipse.ui.workbench,3.6.2.M20110210-1200,"",1383593121446
activated,workbench,org.eclipse.ui.workbench,3.6.2.M20110210-1200,"",1383593122187
executed,command,org.eclipse.wst.server.ui,1.1.207.v20110119,"org.eclipse.wst.server.launchShortcut.run",1383593122196
opened,editor,org.eclipse.ui.browser,3.3.1.r36_20101216,"org.eclipse.ui.browser.editor",1383593126616
activated,editor,org.eclipse.ui.browser,3.3.1.r36_20101216,"org.eclipse.ui.browser.editor",1383593126653
executed,command,org.eclipse.ui,3.6.2.M20110203-1100,"org.eclipse.ui.edit.copy",1383593128897
deactivated,workbench,org.eclipse.ui.workbench,3.6.2.M20110210-1200,"",1383593129703
activated,workbench,org.eclipse.ui.workbench,3.6.2.M20110210-1200,"",1383593143469
activated,view,org.eclipse.ui.console,3.5.0.v20100526,"org.eclipse.ui.console.ConsoleView",1383593144429
deactivated,workbench,org.eclipse.ui.workbench,3.6.2.M20110210-1200,"",1383593148918
activated,workbench,org.eclipse.ui.workbench,3.6.2.M20110210-1200,"",1383593164373
deactivated,workbench,org.eclipse.ui.workbench,3.6.2.M20110210-1200,"",1383593165050
activated,workbench,org.eclipse.ui.workbench,3.6.2.M20110210-1200,"",1383593180178
activated,editor,org.eclipse.jdt.ui,3.6.2.r362_v20110203,"org.eclipse.jdt.ui.CompilationUnitEditor",1383593186055
deactivated,workbench,org.eclipse.ui.workbench,3.6.2.M20110210-1200,"",1383593189244
activated,workbench,org.eclipse.ui.workbench,3.6.2.M20110210-1200,"",1383593190415
deactivated,workbench,org.eclipse.ui.workbench,3.6.2.M20110210-1200,"",1383593190593
activated,workbench,org.eclipse.ui.workbench,3.6.2.M20110210-1200,"",1383593193482
executed,command,org.eclipse.ui,3.6.2.M20110203-1100,"org.eclipse.ui.edit.copy",1383593201339
executed,command,org.eclipse.ui,3.6.2.M20110203-1100,"org.eclipse.ui.edit.paste",1383593202454
executed,command,org.eclipse.ui,3.6.2.M20110203-1100,"org.eclipse.ui.file.save",1383593202934
deactivated,workbench,org.eclipse.ui.workbench,3.6.2.M20110210-1200,"",1383593204846
activated,workbench,org.eclipse.ui.workbench,3.6.2.M20110210-1200,"",1383593206018
activated,view,org.eclipse.ui.console,3.5.0.v20100526,"org.eclipse.ui.console.ConsoleView",1383593206447
activated,editor,org.eclipse.jdt.ui,3.6.2.r362_v20110203,"org.eclipse.jdt.ui.CompilationUnitEditor",1383593206847
activated,view,org.eclipse.ui.console,3.5.0.v20100526,"org.eclipse.ui.console.ConsoleView",1383593207926
activated,editor,org.eclipse.jdt.ui,3.6.2.r362_v20110203,"org.eclipse.jdt.ui.CompilationUnitEditor",1383593212847
activated,view,org.eclipse.ui.navigator.resources,3.4.202.M20101124-0800,"org.eclipse.ui.navigator.ProjectExplorer",1383593217776
deactivated,workbench,org.eclipse.ui.workbench,3.6.2.M20110210-1200,"",1383593221469
activated,workbench,org.eclipse.ui.workbench,3.6.2.M20110210-1200,"",1383593227425
deactivated,workbench,org.eclipse.ui.workbench,3.6.2.M20110210-1200,"",1383593233730
activated,workbench,org.eclipse.ui.workbench,3.6.2.M20110210-1200,"",1383593239576
executed,command,org.eclipse.ui,3.6.2.M20110203-1100,"org.eclipse.ui.newWizard",1383593239585
deactivated,workbench,org.eclipse.ui.workbench,3.6.2.M20110210-1200,"",1383593243555
activated,workbench,org.eclipse.ui.workbench,3.6.2.M20110210-1200,"",1383593244321
deactivated,workbench,org.eclipse.ui.workbench,3.6.2.M20110210-1200,"",1383593244358
activated,workbench,org.eclipse.ui.workbench,3.6.2.M20110210-1200,"",1383593245147
executed,command,org.eclipse.wst.server.ui,1.1.207.v20110119,"org.eclipse.wst.server.launchShortcut.run",1383593245157
opened,editor,org.eclipse.ui.browser,3.3.1.r36_20101216,"org.eclipse.ui.browser.editor",1383593249617
activated,editor,org.eclipse.ui.browser,3.3.1.r36_20101216,"org.eclipse.ui.browser.editor",1383593249655
executed,command,org.eclipse.ui,3.6.2.M20110203-1100,"org.eclipse.ui.edit.copy",1383593252220
executed,command,org.eclipse.ui,3.6.2.M20110203-1100,"org.eclipse.ui.edit.copy",1383593252420
executed,command,org.eclipse.ui,3.6.2.M20110203-1100,"org.eclipse.ui.edit.copy",1383593252593
deactivated,workbench,org.eclipse.ui.workbench,3.6.2.M20110210-1200,"",1383593253089
activated,workbench,org.eclipse.ui.workbench,3.6.2.M20110210-1200,"",1383593271564
activated,view,org.eclipse.ui.console,3.5.0.v20100526,"org.eclipse.ui.console.ConsoleView",1383593272251
deactivated,workbench,org.eclipse.ui.workbench,3.6.2.M20110210-1200,"",1383593275567
activated,workbench,org.eclipse.ui.workbench,3.6.2.M20110210-1200,"",1383593278492
activated,view,org.eclipse.ui.navigator.resources,3.4.202.M20101124-0800,"org.eclipse.ui.navigator.ProjectExplorer",1383593284914
deactivated,workbench,org.eclipse.ui.workbench,3.6.2.M20110210-1200,"",1383593286913
activated,workbench,org.eclipse.ui.workbench,3.6.2.M20110210-1200,"",1383593287766
executed,command,org.eclipse.wst.server.ui,1.1.207.v20110119,"org.eclipse.wst.server.launchShortcut.run",1383593287785
opened,editor,org.eclipse.ui.browser,3.3.1.r36_20101216,"org.eclipse.ui.browser.editor",1383593288094
activated,editor,org.eclipse.ui.browser,3.3.1.r36_20101216,"org.eclipse.ui.browser.editor",1383593288125
executed,command,org.eclipse.ui,3.6.2.M20110203-1100,"org.eclipse.ui.edit.copy",1383593289401
deactivated,workbench,org.eclipse.ui.workbench,3.6.2.M20110210-1200,"",1383593289703
activated,workbench,org.eclipse.ui.workbench,3.6.2.M20110210-1200,"",1383593322850
deactivated,workbench,org.eclipse.ui.workbench,3.6.2.M20110210-1200,"",1383593323931
activated,workbench,org.eclipse.ui.workbench,3.6.2.M20110210-1200,"",1383593324512
activated,view,org.eclipse.ui.navigator.resources,3.4.202.M20101124-0800,"org.eclipse.ui.navigator.ProjectExplorer",1383593326660
closed,editor,org.eclipse.jdt.ui,3.6.2.r362_v20110203,"org.eclipse.jdt.ui.CompilationUnitEditor",1383593326661
closed,editor,org.eclipse.jst.jsp.ui,1.1.503.v201101262228,"org.eclipse.jst.jsp.core.jspsource.source",1383593326760
closed,editor,org.eclipse.jdt.ui,3.6.2.r362_v20110203,"org.eclipse.jdt.ui.CompilationUnitEditor",1383593326783
closed,editor,org.eclipse.ui.browser,3.3.1.r36_20101216,"org.eclipse.ui.browser.editor",1383593326891
closed,editor,org.eclipse.ui.browser,3.3.1.r36_20101216,"org.eclipse.ui.browser.editor",1383593326965
closed,editor,org.eclipse.ui.browser,3.3.1.r36_20101216,"org.eclipse.ui.browser.editor",1383593327038
closed,editor,org.eclipse.ui.browser,3.3.1.r36_20101216,"org.eclipse.ui.browser.editor",1383593327114
closed,editor,org.eclipse.ui.browser,3.3.1.r36_20101216,"org.eclipse.ui.browser.editor",1383593327181
opened,editor,org.eclipse.jst.jsp.ui,1.1.503.v201101262228,"org.eclipse.jst.jsp.core.jspsource.source",1383593329646
activated,editor,org.eclipse.jst.jsp.ui,1.1.503.v201101262228,"org.eclipse.jst.jsp.core.jspsource.source",1383593329682
deactivated,workbench,org.eclipse.ui.workbench,3.6.2.M20110210-1200,"",1383593336496
activated,workbench,org.eclipse.ui.workbench,3.6.2.M20110210-1200,"",1383593362155
executed,command,org.eclipse.ui,3.6.2.M20110203-1100,"org.eclipse.ui.file.save",1383593385611
deactivated,workbench,org.eclipse.ui.workbench,3.6.2.M20110210-1200,"",1383593387491
activated,workbench,org.eclipse.ui.workbench,3.6.2.M20110210-1200,"",1383593390856
executed,command,org.eclipse.ui,3.6.2.M20110203-1100,"org.eclipse.ui.file.save",1383593399154
deactivated,workbench,org.eclipse.ui.workbench,3.6.2.M20110210-1200,"",1383593399449
activated,workbench,org.eclipse.ui.workbench,3.6.2.M20110210-1200,"",1383593403278
executed,command,org.eclipse.ui,3.6.2.M20110203-1100,"org.eclipse.ui.file.save",1383593404207
executed,command,org.eclipse.ui,3.6.2.M20110203-1100,"org.eclipse.ui.file.save",1383593408006
deactivated,workbench,org.eclipse.ui.workbench,3.6.2.M20110210-1200,"",1383593408799
activated,workbench,org.eclipse.ui.workbench,3.6.2.M20110210-1200,"",1383593409426
executed,command,org.eclipse.ui,3.6.2.M20110203-1100,"org.eclipse.ui.edit.cut",1383593412392
executed,command,org.eclipse.ui,3.6.2.M20110203-1100,"org.eclipse.ui.file.save",1383593412917
deactivated,workbench,org.eclipse.ui.workbench,3.6.2.M20110210-1200,"",1383593413332
activated,workbench,org.eclipse.ui.workbench,3.6.2.M20110210-1200,"",1383594187276
deactivated,workbench,org.eclipse.ui.workbench,3.6.2.M20110210-1200,"",1383594187760
activated,workbench,org.eclipse.ui.workbench,3.6.2.M20110210-1200,"",1383594196355
activated,view,org.eclipse.ui.navigator.resources,3.4.202.M20101124-0800,"org.eclipse.ui.navigator.ProjectExplorer",1383594215335
opened,editor,org.eclipse.jdt.ui,3.6.2.r362_v20110203,"org.eclipse.jdt.ui.CompilationUnitEditor",1383594215597
activated,editor,org.eclipse.jdt.ui,3.6.2.r362_v20110203,"org.eclipse.jdt.ui.CompilationUnitEditor",1383594215639
executed,command,org.eclipse.ui,3.6.2.M20110203-1100,"org.eclipse.ui.edit.copy",1383594218470
activated,editor,org.eclipse.jst.jsp.ui,1.1.503.v201101262228,"org.eclipse.jst.jsp.core.jspsource.source",1383594219297
executed,command,org.eclipse.ui,3.6.2.M20110203-1100,"org.eclipse.ui.edit.paste",1383594221069
activated,editor,org.eclipse.jdt.ui,3.6.2.r362_v20110203,"org.eclipse.jdt.ui.CompilationUnitEditor",1383594227973
activated,view,org.eclipse.ui.navigator.resources,3.4.202.M20101124-0800,"org.eclipse.ui.navigator.ProjectExplorer",1383594230674
opened,editor,org.eclipse.jdt.ui,3.6.2.r362_v20110203,"org.eclipse.jdt.ui.CompilationUnitEditor",1383594235429
activated,editor,org.eclipse.jdt.ui,3.6.2.r362_v20110203,"org.eclipse.jdt.ui.CompilationUnitEditor",1383594235454
executed,command,org.eclipse.ui,3.6.2.M20110203-1100,"org.eclipse.ui.edit.text.contentAssist.proposals",1383594248605
executed,command,org.eclipse.ui,3.6.2.M20110203-1100,"org.eclipse.ui.edit.delete",1383594253661
executed,command,org.eclipse.ui,3.6.2.M20110203-1100,"org.eclipse.ui.edit.delete",1383594254072
executed,command,org.eclipse.ui,3.6.2.M20110203-1100,"org.eclipse.ui.file.save",1383594257566
activated,view,org.eclipse.ui.navigator.resources,3.4.202.M20101124-0800,"org.eclipse.ui.navigator.ProjectExplorer",1383594258545
deactivated,workbench,org.eclipse.ui.workbench,3.6.2.M20110210-1200,"",1383594260782
activated,workbench,org.eclipse.ui.workbench,3.6.2.M20110210-1200,"",1383594268203
deactivated,workbench,org.eclipse.ui.workbench,3.6.2.M20110210-1200,"",1383594288822
activated,workbench,org.eclipse.ui.workbench,3.6.2.M20110210-1200,"",1383594298534
executed,command,org.eclipse.ui,3.6.2.M20110203-1100,"org.eclipse.ui.newWizard",1383594298556
deactivated,workbench,org.eclipse.ui.workbench,3.6.2.M20110210-1200,"",1383594302258
activated,workbench,org.eclipse.ui.workbench,3.6.2.M20110210-1200,"",1383594305699
deactivated,workbench,org.eclipse.ui.workbench,3.6.2.M20110210-1200,"",1383594305919
activated,workbench,org.eclipse.ui.workbench,3.6.2.M20110210-1200,"",1383594307146
deactivated,workbench,org.eclipse.ui.workbench,3.6.2.M20110210-1200,"",1383594307176
activated,workbench,org.eclipse.ui.workbench,3.6.2.M20110210-1200,"",1383594308295
executed,command,org.eclipse.wst.server.ui,1.1.207.v20110119,"org.eclipse.wst.server.launchShortcut.run",1383594308305
activated,editor,org.eclipse.jst.jsp.ui,1.1.503.v201101262228,"org.eclipse.jst.jsp.core.jspsource.source",1383594309785
opened,editor,org.eclipse.ui.browser,3.3.1.r36_20101216,"org.eclipse.ui.browser.editor",1383594312931
activated,editor,org.eclipse.ui.browser,3.3.1.r36_20101216,"org.eclipse.ui.browser.editor",1383594312959
activated,editor,org.eclipse.jdt.ui,3.6.2.r362_v20110203,"org.eclipse.jdt.ui.CompilationUnitEditor",1383594315554
activated,editor,org.eclipse.jst.jsp.ui,1.1.503.v201101262228,"org.eclipse.jst.jsp.core.jspsource.source",1383594316513
activated,view,org.eclipse.ui.navigator.resources,3.4.202.M20101124-0800,"org.eclipse.ui.navigator.ProjectExplorer",1383594317518
opened,editor,org.eclipse.jdt.ui,3.6.2.r362_v20110203,"org.eclipse.jdt.ui.CompilationUnitEditor",1383594318412
activated,editor,org.eclipse.jdt.ui,3.6.2.r362_v20110203,"org.eclipse.jdt.ui.CompilationUnitEditor",1383594318436
executed,command,org.eclipse.ui,3.6.2.M20110203-1100,"org.eclipse.ui.edit.copy",1383594321791
activated,editor,org.eclipse.jst.jsp.ui,1.1.503.v201101262228,"org.eclipse.jst.jsp.core.jspsource.source",1383594322792
executed,command,org.eclipse.ui,3.6.2.M20110203-1100,"org.eclipse.ui.edit.paste",1383594323441
executed,command,org.eclipse.ui,3.6.2.M20110203-1100,"org.eclipse.ui.file.save",1383594324861
deactivated,workbench,org.eclipse.ui.workbench,3.6.2.M20110210-1200,"",1383594325333
activated,workbench,org.eclipse.ui.workbench,3.6.2.M20110210-1200,"",1383594326815
executed,command,org.eclipse.ui,3.6.2.M20110203-1100,"org.eclipse.ui.file.save",1383594330444
deactivated,workbench,org.eclipse.ui.workbench,3.6.2.M20110210-1200,"",1383594331278
activated,workbench,org.eclipse.ui.workbench,3.6.2.M20110210-1200,"",1383594332785
activated,editor,org.eclipse.ui.browser,3.3.1.r36_20101216,"org.eclipse.ui.browser.editor",1383594334248
executed,command,org.eclipse.ui,3.6.2.M20110203-1100,"org.eclipse.ui.edit.copy",1383594334942
deactivated,workbench,org.eclipse.ui.workbench,3.6.2.M20110210-1200,"",1383594335223
activated,workbench,org.eclipse.ui.workbench,3.6.2.M20110210-1200,"",1383594372330
activated,view,org.eclipse.ui.console,3.5.0.v20100526,"org.eclipse.ui.console.ConsoleView",1383594373867
deactivated,workbench,org.eclipse.ui.workbench,3.6.2.M20110210-1200,"",1383594382042
activated,workbench,org.eclipse.ui.workbench,3.6.2.M20110210-1200,"",1383594442476
activated,editor,org.eclipse.ui.browser,3.3.1.r36_20101216,"org.eclipse.ui.browser.editor",1383594449449
activated,editor,org.eclipse.jst.jsp.ui,1.1.503.v201101262228,"org.eclipse.jst.jsp.core.jspsource.source",1383594450749
activated,editor,org.eclipse.jdt.ui,3.6.2.r362_v20110203,"org.eclipse.jdt.ui.CompilationUnitEditor",1383594456620
activated,editor,org.eclipse.jst.jsp.ui,1.1.503.v201101262228,"org.eclipse.jst.jsp.core.jspsource.source",1383594461508
executed,command,org.eclipse.ui,3.6.2.M20110203-1100,"org.eclipse.ui.edit.undo",1383594468670
executed,command,org.eclipse.ui,3.6.2.M20110203-1100,"org.eclipse.ui.edit.redo",1383594471974
executed,command,org.eclipse.ui,3.6.2.M20110203-1100,"org.eclipse.ui.file.save",1383594472854
activated,editor,org.eclipse.jdt.ui,3.6.2.r362_v20110203,"org.eclipse.jdt.ui.CompilationUnitEditor",1383594474558
deactivated,workbench,org.eclipse.ui.workbench,3.6.2.M20110210-1200,"",1383594487006
activated,workbench,org.eclipse.ui.workbench,3.6.2.M20110210-1200,"",1383594496790
activated,editor,org.eclipse.jst.jsp.ui,1.1.503.v201101262228,"org.eclipse.jst.jsp.core.jspsource.source",1383594499758
executed,command,org.eclipse.ui,3.6.2.M20110203-1100,"org.eclipse.ui.edit.undo",1383594503980
executed,command,org.eclipse.ui,3.6.2.M20110203-1100,"org.eclipse.ui.edit.undo",1383594504727
executed,command,org.eclipse.ui,3.6.2.M20110203-1100,"org.eclipse.ui.edit.undo",1383594505159
executed,command,org.eclipse.ui,3.6.2.M20110203-1100,"org.eclipse.ui.edit.undo",1383594505765
executed,command,org.eclipse.ui,3.6.2.M20110203-1100,"org.eclipse.ui.edit.undo",1383594506235
executed,command,org.eclipse.ui,3.6.2.M20110203-1100,"org.eclipse.ui.edit.undo",1383594506594
executed,command,org.eclipse.ui,3.6.2.M20110203-1100,"org.eclipse.ui.edit.undo",1383594506956
executed,command,org.eclipse.ui,3.6.2.M20110203-1100,"org.eclipse.ui.edit.undo",1383594507305
executed,command,org.eclipse.ui,3.6.2.M20110203-1100,"org.eclipse.ui.edit.undo",1383594507740
executed,command,org.eclipse.ui,3.6.2.M20110203-1100,"org.eclipse.ui.edit.undo",1383594508697
activated,editor,org.eclipse.jdt.ui,3.6.2.r362_v20110203,"org.eclipse.jdt.ui.CompilationUnitEditor",1383594530258
executed,command,org.eclipse.ui,3.6.2.M20110203-1100,"org.eclipse.ui.edit.copy",1383594531072
activated,view,org.eclipse.ui.navigator.resources,3.4.202.M20101124-0800,"org.eclipse.ui.navigator.ProjectExplorer",1383594534604
opened,editor,org.eclipse.jdt.ui,3.6.2.r362_v20110203,"org.eclipse.jdt.ui.CompilationUnitEditor",1383594536458
activated,editor,org.eclipse.jdt.ui,3.6.2.r362_v20110203,"org.eclipse.jdt.ui.CompilationUnitEditor",1383594536484
executed,command,org.eclipse.ui,3.6.2.M20110203-1100,"org.eclipse.ui.edit.copy",1383594537912
activated,editor,org.eclipse.jst.jsp.ui,1.1.503.v201101262228,"org.eclipse.jst.jsp.core.jspsource.source",1383594541160
executed,command,org.eclipse.ui,3.6.2.M20110203-1100,"org.eclipse.ui.edit.paste",1383594542057
executed,command,org.eclipse.ui,3.6.2.M20110203-1100,"org.eclipse.ui.file.save",1383594542504
deactivated,workbench,org.eclipse.ui.workbench,3.6.2.M20110210-1200,"",1383594543023
activated,workbench,org.eclipse.ui.workbench,3.6.2.M20110210-1200,"",1383594548466
executed,command,org.eclipse.ui,3.6.2.M20110203-1100,"org.eclipse.ui.file.save",1383594553484
deactivated,workbench,org.eclipse.ui.workbench,3.6.2.M20110210-1200,"",1383594553754
activated,workbench,org.eclipse.ui.workbench,3.6.2.M20110210-1200,"",1383594578414
activated,view,org.eclipse.ui.console,3.5.0.v20100526,"org.eclipse.ui.console.ConsoleView",1383594604453
deactivated,workbench,org.eclipse.ui.workbench,3.6.2.M20110210-1200,"",1383594606058
activated,workbench,org.eclipse.ui.workbench,3.6.2.M20110210-1200,"",1383594608087
activated,editor,org.eclipse.jst.jsp.ui,1.1.503.v201101262228,"org.eclipse.jst.jsp.core.jspsource.source",1383594659468
executed,command,org.eclipse.ui,3.6.2.M20110203-1100,"org.eclipse.ui.edit.delete",1383594670456
executed,command,org.eclipse.ui,3.6.2.M20110203-1100,"org.eclipse.ui.file.save",1383594671320
deactivated,workbench,org.eclipse.ui.workbench,3.6.2.M20110210-1200,"",1383594682331
activated,workbench,org.eclipse.ui.workbench,3.6.2.M20110210-1200,"",1383594683428
executed,command,org.eclipse.ui,3.6.2.M20110203-1100,"org.eclipse.ui.edit.copy",1383594700110
executed,command,org.eclipse.ui,3.6.2.M20110203-1100,"org.eclipse.ui.edit.paste",1383594701880
executed,command,org.eclipse.ui,3.6.2.M20110203-1100,"org.eclipse.ui.edit.undo",1383594702958
executed,command,org.eclipse.ui,3.6.2.M20110203-1100,"org.eclipse.ui.edit.paste",1383594705641
executed,command,org.eclipse.ui,3.6.2.M20110203-1100,"org.eclipse.ui.file.save",1383594706036
deactivated,workbench,org.eclipse.ui.workbench,3.6.2.M20110210-1200,"",1383594706349
activated,workbench,org.eclipse.ui.workbench,3.6.2.M20110210-1200,"",1383594707926
activated,view,org.eclipse.ui.console,3.5.0.v20100526,"org.eclipse.ui.console.ConsoleView",1383594707937
executed,command,org.eclipse.debug.ui,3.6.3.v20101201_r362,"org.eclipse.debug.ui.commands.eof",1383594709582
activated,editor,org.eclipse.jst.jsp.ui,1.1.503.v201101262228,"org.eclipse.jst.jsp.core.jspsource.source",1383594710680
executed,command,org.eclipse.ui,3.6.2.M20110203-1100,"org.eclipse.ui.edit.undo",1383594711280
executed,command,org.eclipse.ui,3.6.2.M20110203-1100,"org.eclipse.ui.file.save",1383594712320
deactivated,workbench,org.eclipse.ui.workbench,3.6.2.M20110210-1200,"",1383594712704
activated,workbench,org.eclipse.ui.workbench,3.6.2.M20110210-1200,"",1383594715095
executed,command,org.eclipse.ui.workbench.texteditor,3.6.1.r361_v20100714-0800,"org.eclipse.ui.edit.text.select.lineStart",1383594719587
executed,command,org.eclipse.ui,3.6.2.M20110203-1100,"org.eclipse.ui.file.save",1383594726305
executed,command,org.eclipse.ui,3.6.2.M20110203-1100,"org.eclipse.ui.edit.selectAll",1383594726676
executed,command,org.eclipse.wst.sse.ui,1.2.3.v201102102045,"org.eclipse.wst.sse.ui.format.document",1383594727645
executed,command,org.eclipse.ui,3.6.2.M20110203-1100,"org.eclipse.ui.file.save",1383594727709
closed,editor,org.eclipse.jdt.ui,3.6.2.r362_v20110203,"org.eclipse.jdt.ui.CompilationUnitEditor",1383594739149
closed,editor,org.eclipse.jdt.ui,3.6.2.r362_v20110203,"org.eclipse.jdt.ui.CompilationUnitEditor",1383594739175
closed,editor,org.eclipse.ui.browser,3.3.1.r36_20101216,"org.eclipse.ui.browser.editor",1383594739319
closed,editor,org.eclipse.jdt.ui,3.6.2.r362_v20110203,"org.eclipse.jdt.ui.CompilationUnitEditor",1383594739390
closed,editor,org.eclipse.jdt.ui,3.6.2.r362_v20110203,"org.eclipse.jdt.ui.CompilationUnitEditor",1383594739408
activated,view,org.eclipse.ui.navigator.resources,3.4.202.M20101124-0800,"org.eclipse.ui.navigator.ProjectExplorer",1383594740893
opened,editor,org.eclipse.jst.jsp.ui,1.1.503.v201101262228,"org.eclipse.jst.jsp.core.jspsource.source",1383594744440
activated,editor,org.eclipse.jst.jsp.ui,1.1.503.v201101262228,"org.eclipse.jst.jsp.core.jspsource.source",1383594744475
executed,command,org.eclipse.ui,3.6.2.M20110203-1100,"org.eclipse.ui.edit.copy",1383594758346
activated,editor,org.eclipse.jst.jsp.ui,1.1.503.v201101262228,"org.eclipse.jst.jsp.core.jspsource.source",1383594759891
executed,command,org.eclipse.ui,3.6.2.M20110203-1100,"org.eclipse.ui.edit.paste",1383594761123
executed,command,org.eclipse.ui,3.6.2.M20110203-1100,"org.eclipse.ui.file.save",1383594764997
executed,command,org.eclipse.ui,3.6.2.M20110203-1100,"org.eclipse.ui.edit.copy",1383594768713
executed,command,org.eclipse.ui,3.6.2.M20110203-1100,"org.eclipse.ui.edit.paste",1383594769322
executed,command,org.eclipse.ui,3.6.2.M20110203-1100,"org.eclipse.ui.file.save",1383594771521
deactivated,workbench,org.eclipse.ui.workbench,3.6.2.M20110210-1200,"",1383594771761
activated,workbench,org.eclipse.ui.workbench,3.6.2.M20110210-1200,"",1383594775659
executed,command,org.eclipse.ui,3.6.2.M20110203-1100,"org.eclipse.ui.file.save",1383594793529
deactivated,workbench,org.eclipse.ui.workbench,3.6.2.M20110210-1200,"",1383594793725
activated,workbench,org.eclipse.ui.workbench,3.6.2.M20110210-1200,"",1383594796379
deactivated,workbench,org.eclipse.ui.workbench,3.6.2.M20110210-1200,"",1383594798069
activated,workbench,org.eclipse.ui.workbench,3.6.2.M20110210-1200,"",1383594800359
executed,command,org.eclipse.ui,3.6.2.M20110203-1100,"org.eclipse.ui.edit.cut",1383594803384
executed,command,org.eclipse.ui,3.6.2.M20110203-1100,"org.eclipse.ui.file.save",1383594804387
executed,command,org.eclipse.ui,3.6.2.M20110203-1100,"org.eclipse.ui.edit.paste",1383594817131
executed,command,org.eclipse.ui,3.6.2.M20110203-1100,"org.eclipse.ui.file.save",1383594823011
executed,command,org.eclipse.ui,3.6.2.M20110203-1100,"org.eclipse.ui.edit.delete",1383594832809
executed,command,org.eclipse.ui,3.6.2.M20110203-1100,"org.eclipse.ui.file.save",1383594833141
deactivated,workbench,org.eclipse.ui.workbench,3.6.2.M20110210-1200,"",1383594833831
activated,workbench,org.eclipse.ui.workbench,3.6.2.M20110210-1200,"",1383594836208
deactivated,workbench,org.eclipse.ui.workbench,3.6.2.M20110210-1200,"",1383594840074
activated,workbench,org.eclipse.ui.workbench,3.6.2.M20110210-1200,"",1383594841790
activated,editor,org.eclipse.jst.jsp.ui,1.1.503.v201101262228,"org.eclipse.jst.jsp.core.jspsource.source",1383594843716
executed,command,org.eclipse.ui,3.6.2.M20110203-1100,"org.eclipse.ui.edit.copy",1383594847589
activated,editor,org.eclipse.jst.jsp.ui,1.1.503.v201101262228,"org.eclipse.jst.jsp.core.jspsource.source",1383594848317
activated,editor,org.eclipse.jst.jsp.ui,1.1.503.v201101262228,"org.eclipse.jst.jsp.core.jspsource.source",1383594859749
activated,editor,org.eclipse.jst.jsp.ui,1.1.503.v201101262228,"org.eclipse.jst.jsp.core.jspsource.source",1383594862641
executed,command,org.eclipse.ui,3.6.2.M20110203-1100,"org.eclipse.ui.edit.paste",1383594866902
executed,command,org.eclipse.ui,3.6.2.M20110203-1100,"org.eclipse.ui.file.save",1383594867368
executed,command,org.eclipse.ui,3.6.2.M20110203-1100,"org.eclipse.ui.file.save",1383594882845
deactivated,workbench,org.eclipse.ui.workbench,3.6.2.M20110210-1200,"",1383594883122
activated,workbench,org.eclipse.ui.workbench,3.6.2.M20110210-1200,"",1383594914200
deactivated,workbench,org.eclipse.ui.workbench,3.6.2.M20110210-1200,"",1383594915016
activated,workbench,org.eclipse.ui.workbench,3.6.2.M20110210-1200,"",1383594923556
executed,command,org.eclipse.ui,3.6.2.M20110203-1100,"org.eclipse.ui.file.save",1383594936167
deactivated,workbench,org.eclipse.ui.workbench,3.6.2.M20110210-1200,"",1383594938730
activated,workbench,org.eclipse.ui.workbench,3.6.2.M20110210-1200,"",1383594946272
deactivated,workbench,org.eclipse.ui.workbench,3.6.2.M20110210-1200,"",1383594949462
activated,workbench,org.eclipse.ui.workbench,3.6.2.M20110210-1200,"",1383594960544
deactivated,workbench,org.eclipse.ui.workbench,3.6.2.M20110210-1200,"",1383594987389
activated,workbench,org.eclipse.ui.workbench,3.6.2.M20110210-1200,"",1383595184194
executed,command,org.eclipse.ui,3.6.2.M20110203-1100,"org.eclipse.ui.file.save",1383595215679
