what,kind,bundleId,bundleVersion,description,time
closed,editor,org.eclipse.ui.browser,3.3.1.r36_20101216,"org.eclipse.ui.browser.editor",1382986335602
closed,editor,org.eclipse.ui.browser,3.3.1.r36_20101216,"org.eclipse.ui.browser.editor",1382986335665
closed,editor,org.eclipse.ui.browser,3.3.1.r36_20101216,"org.eclipse.ui.browser.editor",1382986335738
closed,editor,org.eclipse.ui.browser,3.3.1.r36_20101216,"org.eclipse.ui.browser.editor",1382986335814
closed,editor,org.eclipse.ui.browser,3.3.1.r36_20101216,"org.eclipse.ui.browser.editor",1382986335890
deactivated,workbench,org.eclipse.ui.workbench,3.6.2.M20110210-1200,"",1382986362960
activated,workbench,org.eclipse.ui.workbench,3.6.2.M20110210-1200,"",1382986610552
activated,view,org.eclipse.wst.server.ui,1.1.207.v20110119,"org.eclipse.wst.server.ui.ServersView",1382986613623
deactivated,workbench,org.eclipse.ui.workbench,3.6.2.M20110210-1200,"",1382986616571
activated,workbench,org.eclipse.ui.workbench,3.6.2.M20110210-1200,"",1382986622054
executed,command,org.eclipse.wst.server.ui,1.1.207.v20110119,"org.eclipse.wst.server.run",1382986624566
activated,view,org.eclipse.ui.console,3.5.0.v20100526,"org.eclipse.ui.console.ConsoleView",1382986625438
activated,view,org.eclipse.wst.server.ui,1.1.207.v20110119,"org.eclipse.wst.server.ui.ServersView",1382986627013
deactivated,workbench,org.eclipse.ui.workbench,3.6.2.M20110210-1200,"",1382986629928
activated,workbench,org.eclipse.ui.workbench,3.6.2.M20110210-1200,"",1382986922679
activated,view,org.eclipse.ui.navigator.resources,3.4.202.M20101124-0800,"org.eclipse.ui.navigator.ProjectExplorer",1382986923697
deactivated,workbench,org.eclipse.ui.workbench,3.6.2.M20110210-1200,"",1382986930691
activated,workbench,org.eclipse.ui.workbench,3.6.2.M20110210-1200,"",1382987330641
deactivated,workbench,org.eclipse.ui.workbench,3.6.2.M20110210-1200,"",1382987332570
activated,workbench,org.eclipse.ui.workbench,3.6.2.M20110210-1200,"",1382987708770
deactivated,workbench,org.eclipse.ui.workbench,3.6.2.M20110210-1200,"",1382987720064
activated,workbench,org.eclipse.ui.workbench,3.6.2.M20110210-1200,"",1382987720728
deactivated,workbench,org.eclipse.ui.workbench,3.6.2.M20110210-1200,"",1382987725219
executed,command,org.eclipse.ui,3.6.2.M20110203-1100,"org.eclipse.ui.edit.paste",1382987739370
activated,workbench,org.eclipse.ui.workbench,3.6.2.M20110210-1200,"",1382987753709
opened,editor,org.eclipse.jdt.ui,3.6.2.r362_v20110203,"org.eclipse.jdt.ui.CompilationUnitEditor",1382987753894
activated,editor,org.eclipse.jdt.ui,3.6.2.r362_v20110203,"org.eclipse.jdt.ui.CompilationUnitEditor",1382987753959
deactivated,workbench,org.eclipse.ui.workbench,3.6.2.M20110210-1200,"",1382987755563
activated,workbench,org.eclipse.ui.workbench,3.6.2.M20110210-1200,"",1382987757063
executed,command,org.eclipse.ui,3.6.2.M20110203-1100,"org.eclipse.ui.edit.selectAll",1382987757707
executed,command,org.eclipse.ui,3.6.2.M20110203-1100,"org.eclipse.ui.edit.paste",1382987758261
executed,command,org.eclipse.ui,3.6.2.M20110203-1100,"org.eclipse.ui.file.save",1382987758965
activated,view,org.eclipse.ui.navigator.resources,3.4.202.M20101124-0800,"org.eclipse.ui.navigator.ProjectExplorer",1382987762983
deactivated,workbench,org.eclipse.ui.workbench,3.6.2.M20110210-1200,"",1382987767334
deactivated,workbench,org.eclipse.ui.workbench,3.6.2.M20110210-1200,"",1382987796259
activated,workbench,org.eclipse.ui.workbench,3.6.2.M20110210-1200,"",1382987796264
activated,workbench,org.eclipse.ui.workbench,3.6.2.M20110210-1200,"",1382987796278
opened,editor,org.eclipse.ui.browser,3.3.1.r36_20101216,"org.eclipse.ui.browser.editor",1382987796307
activated,editor,org.eclipse.ui.browser,3.3.1.r36_20101216,"org.eclipse.ui.browser.editor",1382987796332
deactivated,workbench,org.eclipse.ui.workbench,3.6.2.M20110210-1200,"",1382987796361
activated,workbench,org.eclipse.ui.workbench,3.6.2.M20110210-1200,"",1382987796376
activated,view,org.eclipse.ui.console,3.5.0.v20100526,"org.eclipse.ui.console.ConsoleView",1382987806182
activated,view,org.eclipse.ui.navigator.resources,3.4.202.M20101124-0800,"org.eclipse.ui.navigator.ProjectExplorer",1382987811016
deactivated,workbench,org.eclipse.ui.workbench,3.6.2.M20110210-1200,"",1382987816745
activated,workbench,org.eclipse.ui.workbench,3.6.2.M20110210-1200,"",1382987858987
executed,command,org.eclipse.ui,3.6.2.M20110203-1100,"org.eclipse.ui.file.refresh",1382987861457
deactivated,workbench,org.eclipse.ui.workbench,3.6.2.M20110210-1200,"",1382987874386
activated,workbench,org.eclipse.ui.workbench,3.6.2.M20110210-1200,"",1382987892279
executed,command,org.eclipse.ui,3.6.2.M20110203-1100,"org.eclipse.ui.newWizard",1382987892298
deactivated,workbench,org.eclipse.ui.workbench,3.6.2.M20110210-1200,"",1382987898707
opened,editor,org.eclipse.ui.browser,3.3.1.r36_20101216,"org.eclipse.ui.browser.editor",1382987914665
activated,editor,org.eclipse.ui.browser,3.3.1.r36_20101216,"org.eclipse.ui.browser.editor",1382987914675
activated,workbench,org.eclipse.ui.workbench,3.6.2.M20110210-1200,"",1382987914692
activated,view,org.eclipse.ui.navigator.resources,3.4.202.M20101124-0800,"org.eclipse.ui.navigator.ProjectExplorer",1382987923853
deactivated,workbench,org.eclipse.ui.workbench,3.6.2.M20110210-1200,"",1382987928074
activated,workbench,org.eclipse.ui.workbench,3.6.2.M20110210-1200,"",1382987938761
executed,command,org.eclipse.ui,3.6.2.M20110203-1100,"org.eclipse.ui.newWizard",1382987938776
activated,editor,org.eclipse.ui.browser,3.3.1.r36_20101216,"org.eclipse.ui.browser.editor",1382987943640
activated,editor,org.eclipse.jdt.ui,3.6.2.r362_v20110203,"org.eclipse.jdt.ui.CompilationUnitEditor",1382987950720
activated,view,org.eclipse.ui.navigator.resources,3.4.202.M20101124-0800,"org.eclipse.ui.navigator.ProjectExplorer",1382987959078
deactivated,workbench,org.eclipse.ui.workbench,3.6.2.M20110210-1200,"",1382987966162
activated,workbench,org.eclipse.ui.workbench,3.6.2.M20110210-1200,"",1382988028392
deactivated,workbench,org.eclipse.ui.workbench,3.6.2.M20110210-1200,"",1382988031096
activated,workbench,org.eclipse.ui.workbench,3.6.2.M20110210-1200,"",1382988031238
deactivated,workbench,org.eclipse.ui.workbench,3.6.2.M20110210-1200,"",1382988032306
activated,workbench,org.eclipse.ui.workbench,3.6.2.M20110210-1200,"",1382988033118
deactivated,workbench,org.eclipse.ui.workbench,3.6.2.M20110210-1200,"",1382988033778
deactivated,workbench,org.eclipse.ui.workbench,3.6.2.M20110210-1200,"",1382988034169
activated,workbench,org.eclipse.ui.workbench,3.6.2.M20110210-1200,"",1382988034214
activated,workbench,org.eclipse.ui.workbench,3.6.2.M20110210-1200,"",1382988034502
executed,command,org.eclipse.ui,3.6.2.M20110203-1100,"org.eclipse.ui.file.refresh",1382988039785
opened,editor,org.eclipse.jst.jsp.ui,1.1.503.v201101262228,"org.eclipse.jst.jsp.core.jspsource.source",1382988044662
activated,editor,org.eclipse.jst.jsp.ui,1.1.503.v201101262228,"org.eclipse.jst.jsp.core.jspsource.source",1382988044737
executed,command,org.eclipse.ui.workbench.texteditor,3.6.1.r361_v20100714-0800,"org.eclipse.ui.edit.text.select.lineEnd",1382988047532
executed,command,org.eclipse.ui.workbench.texteditor,3.6.1.r361_v20100714-0800,"org.eclipse.ui.edit.text.select.lineEnd",1382988051790
executed,command,org.eclipse.ui,3.6.2.M20110203-1100,"org.eclipse.ui.file.save",1382988052526
activated,view,org.eclipse.ui.navigator.resources,3.4.202.M20101124-0800,"org.eclipse.ui.navigator.ProjectExplorer",1382988055229
deactivated,workbench,org.eclipse.ui.workbench,3.6.2.M20110210-1200,"",1382988061168
activated,workbench,org.eclipse.ui.workbench,3.6.2.M20110210-1200,"",1382988062698
executed,command,org.eclipse.ui,3.6.2.M20110203-1100,"org.eclipse.ui.edit.delete",1382988062705
opened,editor,org.eclipse.jdt.ui,3.6.2.r362_v20110203,"org.eclipse.jdt.ui.CompilationUnitEditor",1382988064292
activated,editor,org.eclipse.jdt.ui,3.6.2.r362_v20110203,"org.eclipse.jdt.ui.CompilationUnitEditor",1382988064362
executed,command,org.eclipse.ui,3.6.2.M20110203-1100,"org.eclipse.ui.edit.copy",1382988079237
executed,command,org.eclipse.ui,3.6.2.M20110203-1100,"org.eclipse.ui.edit.paste",1382988081106
executed,command,org.eclipse.ui,3.6.2.M20110203-1100,"org.eclipse.ui.edit.copy",1382988092003
executed,command,org.eclipse.ui,3.6.2.M20110203-1100,"org.eclipse.ui.edit.paste",1382988094193
deactivated,workbench,org.eclipse.ui.workbench,3.6.2.M20110210-1200,"",1382988095719
activated,workbench,org.eclipse.ui.workbench,3.6.2.M20110210-1200,"",1382988096651
executed,command,org.eclipse.ui,3.6.2.M20110203-1100,"org.eclipse.ui.edit.paste",1382988097692
executed,command,org.eclipse.ui,3.6.2.M20110203-1100,"org.eclipse.ui.edit.paste",1382988107648
executed,command,org.eclipse.ui,3.6.2.M20110203-1100,"org.eclipse.ui.edit.paste",1382988109776
executed,command,org.eclipse.ui,3.6.2.M20110203-1100,"org.eclipse.ui.file.save",1382988116333
activated,view,org.eclipse.ui.navigator.resources,3.4.202.M20101124-0800,"org.eclipse.ui.navigator.ProjectExplorer",1382988126893
deactivated,workbench,org.eclipse.ui.workbench,3.6.2.M20110210-1200,"",1382988136604
activated,workbench,org.eclipse.ui.workbench,3.6.2.M20110210-1200,"",1382988143966
executed,command,org.eclipse.ui,3.6.2.M20110203-1100,"org.eclipse.ui.newWizard",1382988143979
deactivated,workbench,org.eclipse.ui.workbench,3.6.2.M20110210-1200,"",1382988150891
activated,workbench,org.eclipse.ui.workbench,3.6.2.M20110210-1200,"",1382988152360
deactivated,workbench,org.eclipse.ui.workbench,3.6.2.M20110210-1200,"",1382988152400
activated,workbench,org.eclipse.ui.workbench,3.6.2.M20110210-1200,"",1382988154319
executed,command,org.eclipse.wst.server.ui,1.1.207.v20110119,"org.eclipse.wst.server.launchShortcut.run",1382988154325
opened,editor,org.eclipse.ui.browser,3.3.1.r36_20101216,"org.eclipse.ui.browser.editor",1382988158653
activated,editor,org.eclipse.ui.browser,3.3.1.r36_20101216,"org.eclipse.ui.browser.editor",1382988158687
executed,command,org.eclipse.ui,3.6.2.M20110203-1100,"org.eclipse.ui.edit.copy",1382988160726
deactivated,workbench,org.eclipse.ui.workbench,3.6.2.M20110210-1200,"",1382988161099
activated,workbench,org.eclipse.ui.workbench,3.6.2.M20110210-1200,"",1382988170960
activated,view,org.eclipse.ui.console,3.5.0.v20100526,"org.eclipse.ui.console.ConsoleView",1382988173217
activated,view,org.eclipse.ui.navigator.resources,3.4.202.M20101124-0800,"org.eclipse.ui.navigator.ProjectExplorer",1382988180571
opened,editor,org.eclipse.wst.wsdl.ui,1.2.304.v201012071645,"org.eclipse.wst.wsdl.ui.internal.WSDLEditor",1382988186648
activated,editor,org.eclipse.wst.wsdl.ui,1.2.304.v201012071645,"org.eclipse.wst.wsdl.ui.internal.WSDLEditor",1382988186683
executed,command,org.eclipse.ui,3.6.2.M20110203-1100,"org.eclipse.ui.edit.copy",1382988188650
activated,editor,org.eclipse.jdt.ui,3.6.2.r362_v20110203,"org.eclipse.jdt.ui.CompilationUnitEditor",1382988190643
executed,command,org.eclipse.ui,3.6.2.M20110203-1100,"org.eclipse.ui.edit.paste",1382988196402
executed,command,org.eclipse.ui,3.6.2.M20110203-1100,"org.eclipse.ui.file.save",1382988196980
activated,view,org.eclipse.ui.navigator.resources,3.4.202.M20101124-0800,"org.eclipse.ui.navigator.ProjectExplorer",1382988200416
deactivated,workbench,org.eclipse.ui.workbench,3.6.2.M20110210-1200,"",1382988203392
activated,workbench,org.eclipse.ui.workbench,3.6.2.M20110210-1200,"",1382988204741
deactivated,workbench,org.eclipse.ui.workbench,3.6.2.M20110210-1200,"",1382988204782
activated,workbench,org.eclipse.ui.workbench,3.6.2.M20110210-1200,"",1382988206462
executed,command,org.eclipse.wst.server.ui,1.1.207.v20110119,"org.eclipse.wst.server.launchShortcut.run",1382988206477
activated,editor,org.eclipse.ui.browser,3.3.1.r36_20101216,"org.eclipse.ui.browser.editor",1382988207820
executed,command,org.eclipse.ui,3.6.2.M20110203-1100,"org.eclipse.ui.edit.paste",1382988208732
opened,editor,org.eclipse.ui.browser,3.3.1.r36_20101216,"org.eclipse.ui.browser.editor",1382988210836
activated,editor,org.eclipse.ui.browser,3.3.1.r36_20101216,"org.eclipse.ui.browser.editor",1382988210855
executed,command,org.eclipse.ui,3.6.2.M20110203-1100,"org.eclipse.ui.edit.copy",1382988212530
deactivated,workbench,org.eclipse.ui.workbench,3.6.2.M20110210-1200,"",1382988213682
activated,workbench,org.eclipse.ui.workbench,3.6.2.M20110210-1200,"",1382988225004
activated,editor,org.eclipse.jdt.ui,3.6.2.r362_v20110203,"org.eclipse.jdt.ui.CompilationUnitEditor",1382988233649
executed,command,org.eclipse.ui,3.6.2.M20110203-1100,"org.eclipse.ui.edit.text.contentAssist.proposals",1382988244231
executed,command,org.eclipse.ui,3.6.2.M20110203-1100,"org.eclipse.ui.edit.text.contentAssist.proposals",1382988245553
executed,command,org.eclipse.ui,3.6.2.M20110203-1100,"org.eclipse.ui.file.save",1382988251943
activated,view,org.eclipse.ui.navigator.resources,3.4.202.M20101124-0800,"org.eclipse.ui.navigator.ProjectExplorer",1382988256470
deactivated,workbench,org.eclipse.ui.workbench,3.6.2.M20110210-1200,"",1382988260020
activated,workbench,org.eclipse.ui.workbench,3.6.2.M20110210-1200,"",1382988261357
deactivated,workbench,org.eclipse.ui.workbench,3.6.2.M20110210-1200,"",1382988261392
activated,workbench,org.eclipse.ui.workbench,3.6.2.M20110210-1200,"",1382988262869
executed,command,org.eclipse.wst.server.ui,1.1.207.v20110119,"org.eclipse.wst.server.launchShortcut.run",1382988262879
opened,editor,org.eclipse.ui.browser,3.3.1.r36_20101216,"org.eclipse.ui.browser.editor",1382988267210
activated,editor,org.eclipse.ui.browser,3.3.1.r36_20101216,"org.eclipse.ui.browser.editor",1382988267246
executed,command,org.eclipse.ui,3.6.2.M20110203-1100,"org.eclipse.ui.edit.copy",1382988269666
deactivated,workbench,org.eclipse.ui.workbench,3.6.2.M20110210-1200,"",1382988272760
activated,workbench,org.eclipse.ui.workbench,3.6.2.M20110210-1200,"",1382988281221
activated,editor,org.eclipse.ui.browser,3.3.1.r36_20101216,"org.eclipse.ui.browser.editor",1382988284663
activated,editor,org.eclipse.jdt.ui,3.6.2.r362_v20110203,"org.eclipse.jdt.ui.CompilationUnitEditor",1382988285952
closed,editor,org.eclipse.ui.browser,3.3.1.r36_20101216,"org.eclipse.ui.browser.editor",1382988288866
executed,command,org.eclipse.ui.workbench.texteditor,3.6.1.r361_v20100714-0800,"org.eclipse.ui.edit.text.goto.lineEnd",1382988301731
executed,command,org.eclipse.ui.workbench.texteditor,3.6.1.r361_v20100714-0800,"org.eclipse.ui.edit.text.select.lineStart",1382988302109
executed,command,org.eclipse.ui,3.6.2.M20110203-1100,"org.eclipse.ui.edit.copy",1382988302545
executed,command,org.eclipse.ui,3.6.2.M20110203-1100,"org.eclipse.ui.edit.paste",1382988305028
executed,command,org.eclipse.ui.workbench.texteditor,3.6.1.r361_v20100714-0800,"org.eclipse.ui.edit.text.goto.lineEnd",1382988311333
executed,command,org.eclipse.ui.workbench.texteditor,3.6.1.r361_v20100714-0800,"org.eclipse.ui.edit.text.select.lineStart",1382988311738
executed,command,org.eclipse.ui,3.6.2.M20110203-1100,"org.eclipse.ui.edit.copy",1382988312150
executed,command,org.eclipse.ui,3.6.2.M20110203-1100,"org.eclipse.ui.edit.paste",1382988315494
executed,command,org.eclipse.ui,3.6.2.M20110203-1100,"org.eclipse.ui.file.save",1382988321673
activated,view,org.eclipse.ui.console,3.5.0.v20100526,"org.eclipse.ui.console.ConsoleView",1382988326723
activated,editor,org.eclipse.jdt.ui,3.6.2.r362_v20110203,"org.eclipse.jdt.ui.CompilationUnitEditor",1382988330853
executed,command,org.eclipse.ui,3.6.2.M20110203-1100,"org.eclipse.ui.file.save",1382988341748
executed,command,org.eclipse.ui,3.6.2.M20110203-1100,"org.eclipse.ui.file.save",1382988344175
activated,view,org.eclipse.ui.navigator.resources,3.4.202.M20101124-0800,"org.eclipse.ui.navigator.ProjectExplorer",1382988350850
deactivated,workbench,org.eclipse.ui.workbench,3.6.2.M20110210-1200,"",1382988355466
activated,workbench,org.eclipse.ui.workbench,3.6.2.M20110210-1200,"",1382988356903
deactivated,workbench,org.eclipse.ui.workbench,3.6.2.M20110210-1200,"",1382988356942
activated,workbench,org.eclipse.ui.workbench,3.6.2.M20110210-1200,"",1382988358345
executed,command,org.eclipse.wst.server.ui,1.1.207.v20110119,"org.eclipse.wst.server.launchShortcut.run",1382988358356
deactivated,workbench,org.eclipse.ui.workbench,3.6.2.M20110210-1200,"",1382988361889
opened,editor,org.eclipse.ui.browser,3.3.1.r36_20101216,"org.eclipse.ui.browser.editor",1382988362755
activated,workbench,org.eclipse.ui.workbench,3.6.2.M20110210-1200,"",1382988362790
activated,editor,org.eclipse.ui.browser,3.3.1.r36_20101216,"org.eclipse.ui.browser.editor",1382988362801
executed,command,org.eclipse.ui,3.6.2.M20110203-1100,"org.eclipse.ui.edit.copy",1382988366007
deactivated,workbench,org.eclipse.ui.workbench,3.6.2.M20110210-1200,"",1382988366338
activated,workbench,org.eclipse.ui.workbench,3.6.2.M20110210-1200,"",1382988373766
activated,editor,org.eclipse.jdt.ui,3.6.2.r362_v20110203,"org.eclipse.jdt.ui.CompilationUnitEditor",1382988378694
activated,view,org.eclipse.ui.navigator.resources,3.4.202.M20101124-0800,"org.eclipse.ui.navigator.ProjectExplorer",1382988398524
activated,editor,org.eclipse.jdt.ui,3.6.2.r362_v20110203,"org.eclipse.jdt.ui.CompilationUnitEditor",1382988401725
activated,editor,org.eclipse.jdt.ui,3.6.2.r362_v20110203,"org.eclipse.jdt.ui.CompilationUnitEditor",1382988418294
executed,command,org.eclipse.ui,3.6.2.M20110203-1100,"org.eclipse.ui.edit.delete",1382988423936
executed,command,org.eclipse.ui,3.6.2.M20110203-1100,"org.eclipse.ui.edit.delete",1382988429098
executed,command,org.eclipse.ui,3.6.2.M20110203-1100,"org.eclipse.ui.edit.delete",1382988429468
executed,command,org.eclipse.ui,3.6.2.M20110203-1100,"org.eclipse.ui.file.save",1382988433355
executed,command,org.eclipse.ui,3.6.2.M20110203-1100,"org.eclipse.ui.edit.cut",1382988436474
executed,command,org.eclipse.ui,3.6.2.M20110203-1100,"org.eclipse.ui.file.save",1382988437125
activated,view,org.eclipse.ui.navigator.resources,3.4.202.M20101124-0800,"org.eclipse.ui.navigator.ProjectExplorer",1382988440495
deactivated,workbench,org.eclipse.ui.workbench,3.6.2.M20110210-1200,"",1382988443506
activated,workbench,org.eclipse.ui.workbench,3.6.2.M20110210-1200,"",1382988445002
deactivated,workbench,org.eclipse.ui.workbench,3.6.2.M20110210-1200,"",1382988445040
activated,workbench,org.eclipse.ui.workbench,3.6.2.M20110210-1200,"",1382988449798
executed,command,org.eclipse.wst.server.ui,1.1.207.v20110119,"org.eclipse.wst.server.launchShortcut.run",1382988449811
opened,editor,org.eclipse.ui.browser,3.3.1.r36_20101216,"org.eclipse.ui.browser.editor",1382988454198
activated,editor,org.eclipse.ui.browser,3.3.1.r36_20101216,"org.eclipse.ui.browser.editor",1382988454244
executed,command,org.eclipse.ui,3.6.2.M20110203-1100,"org.eclipse.ui.edit.copy",1382988455309
deactivated,workbench,org.eclipse.ui.workbench,3.6.2.M20110210-1200,"",1382988455710
activated,workbench,org.eclipse.ui.workbench,3.6.2.M20110210-1200,"",1382988464433
deactivated,workbench,org.eclipse.ui.workbench,3.6.2.M20110210-1200,"",1382988466531
activated,workbench,org.eclipse.ui.workbench,3.6.2.M20110210-1200,"",1382988468167
activated,editor,org.eclipse.jdt.ui,3.6.2.r362_v20110203,"org.eclipse.jdt.ui.CompilationUnitEditor",1382988470521
activated,editor,org.eclipse.jdt.ui,3.6.2.r362_v20110203,"org.eclipse.jdt.ui.CompilationUnitEditor",1382988473381
executed,command,org.eclipse.ui,3.6.2.M20110203-1100,"org.eclipse.ui.edit.cut",1382988477362
executed,command,org.eclipse.ui,3.6.2.M20110203-1100,"org.eclipse.ui.edit.cut",1382988478788
executed,command,org.eclipse.ui,3.6.2.M20110203-1100,"org.eclipse.ui.edit.cut",1382988480246
executed,command,org.eclipse.ui,3.6.2.M20110203-1100,"org.eclipse.ui.edit.undo",1382988487186
executed,command,org.eclipse.ui,3.6.2.M20110203-1100,"org.eclipse.ui.edit.text.contentAssist.proposals",1382988497408
executed,command,org.eclipse.ui,3.6.2.M20110203-1100,"org.eclipse.ui.file.save",1382988511828
activated,view,org.eclipse.ui.console,3.5.0.v20100526,"org.eclipse.ui.console.ConsoleView",1382988513667
activated,editor,org.eclipse.jdt.ui,3.6.2.r362_v20110203,"org.eclipse.jdt.ui.CompilationUnitEditor",1382988515374
executed,command,org.eclipse.ui,3.6.2.M20110203-1100,"org.eclipse.ui.file.save",1382988516788
activated,view,org.eclipse.ui.navigator.resources,3.4.202.M20101124-0800,"org.eclipse.ui.navigator.ProjectExplorer",1382988525241
activated,editor,org.eclipse.jst.jsp.ui,1.1.503.v201101262228,"org.eclipse.jst.jsp.core.jspsource.source",1382988528446
executed,command,org.eclipse.ui,3.6.2.M20110203-1100,"org.eclipse.ui.file.save",1382988542126
activated,view,org.eclipse.ui.navigator.resources,3.4.202.M20101124-0800,"org.eclipse.ui.navigator.ProjectExplorer",1382988545075
deactivated,workbench,org.eclipse.ui.workbench,3.6.2.M20110210-1200,"",1382988548790
activated,workbench,org.eclipse.ui.workbench,3.6.2.M20110210-1200,"",1382988550204
deactivated,workbench,org.eclipse.ui.workbench,3.6.2.M20110210-1200,"",1382988550244
activated,workbench,org.eclipse.ui.workbench,3.6.2.M20110210-1200,"",1382988551563
executed,command,org.eclipse.wst.server.ui,1.1.207.v20110119,"org.eclipse.wst.server.launchShortcut.run",1382988551578
opened,editor,org.eclipse.ui.browser,3.3.1.r36_20101216,"org.eclipse.ui.browser.editor",1382988555848
activated,editor,org.eclipse.ui.browser,3.3.1.r36_20101216,"org.eclipse.ui.browser.editor",1382988555874
executed,command,org.eclipse.ui,3.6.2.M20110203-1100,"org.eclipse.ui.edit.copy",1382988558404
deactivated,workbench,org.eclipse.ui.workbench,3.6.2.M20110210-1200,"",1382988558873
activated,workbench,org.eclipse.ui.workbench,3.6.2.M20110210-1200,"",1382988571904
activated,editor,org.eclipse.jst.jsp.ui,1.1.503.v201101262228,"org.eclipse.jst.jsp.core.jspsource.source",1382988574673
activated,editor,org.eclipse.jdt.ui,3.6.2.r362_v20110203,"org.eclipse.jdt.ui.CompilationUnitEditor",1382988580276
activated,editor,org.eclipse.jdt.ui,3.6.2.r362_v20110203,"org.eclipse.jdt.ui.CompilationUnitEditor",1382988584995
executed,command,org.eclipse.ui,3.6.2.M20110203-1100,"org.eclipse.ui.edit.copy",1382988586855
activated,editor,org.eclipse.jst.jsp.ui,1.1.503.v201101262228,"org.eclipse.jst.jsp.core.jspsource.source",1382988589440
executed,command,org.eclipse.ui,3.6.2.M20110203-1100,"org.eclipse.ui.edit.delete",1382988592478
executed,command,org.eclipse.ui,3.6.2.M20110203-1100,"org.eclipse.ui.edit.delete",1382988592647
executed,command,org.eclipse.ui,3.6.2.M20110203-1100,"org.eclipse.ui.edit.delete",1382988593203
executed,command,org.eclipse.ui,3.6.2.M20110203-1100,"org.eclipse.ui.edit.delete",1382988593625
executed,command,org.eclipse.ui,3.6.2.M20110203-1100,"org.eclipse.ui.edit.paste",1382988593838
executed,command,org.eclipse.ui,3.6.2.M20110203-1100,"org.eclipse.ui.file.save",1382988594282
deactivated,workbench,org.eclipse.ui.workbench,3.6.2.M20110210-1200,"",1382988594713
activated,workbench,org.eclipse.ui.workbench,3.6.2.M20110210-1200,"",1382988608647
activated,view,org.eclipse.ui.console,3.5.0.v20100526,"org.eclipse.ui.console.ConsoleView",1382988608661
deactivated,workbench,org.eclipse.ui.workbench,3.6.2.M20110210-1200,"",1382988675025
activated,workbench,org.eclipse.ui.workbench,3.6.2.M20110210-1200,"",1382988675452
activated,editor,org.eclipse.jst.jsp.ui,1.1.503.v201101262228,"org.eclipse.jst.jsp.core.jspsource.source",1382988677976
executed,command,org.eclipse.ui,3.6.2.M20110203-1100,"org.eclipse.ui.file.save",1382988689708
deactivated,workbench,org.eclipse.ui.workbench,3.6.2.M20110210-1200,"",1382988705005
activated,workbench,org.eclipse.ui.workbench,3.6.2.M20110210-1200,"",1382988758728
activated,editor,org.eclipse.jdt.ui,3.6.2.r362_v20110203,"org.eclipse.jdt.ui.CompilationUnitEditor",1382988760741
deactivated,workbench,org.eclipse.ui.workbench,3.6.2.M20110210-1200,"",1382988780269
activated,workbench,org.eclipse.ui.workbench,3.6.2.M20110210-1200,"",1382988782023
executed,command,org.eclipse.ui,3.6.2.M20110203-1100,"org.eclipse.ui.edit.paste",1382988786895
executed,command,org.eclipse.ui,3.6.2.M20110203-1100,"org.eclipse.ui.file.save",1382988787808
deactivated,workbench,org.eclipse.ui.workbench,3.6.2.M20110210-1200,"",1382988790085
activated,workbench,org.eclipse.ui.workbench,3.6.2.M20110210-1200,"",1382988791432
deactivated,workbench,org.eclipse.ui.workbench,3.6.2.M20110210-1200,"",1382988793858
activated,workbench,org.eclipse.ui.workbench,3.6.2.M20110210-1200,"",1382988794519
activated,view,org.eclipse.ui.console,3.5.0.v20100526,"org.eclipse.ui.console.ConsoleView",1382988795837
activated,editor,org.eclipse.jdt.ui,3.6.2.r362_v20110203,"org.eclipse.jdt.ui.CompilationUnitEditor",1382988798997
deactivated,workbench,org.eclipse.ui.workbench,3.6.2.M20110210-1200,"",1382988802173
activated,workbench,org.eclipse.ui.workbench,3.6.2.M20110210-1200,"",1382988803121
executed,command,org.eclipse.ui,3.6.2.M20110203-1100,"org.eclipse.ui.file.save",1382988806599
deactivated,workbench,org.eclipse.ui.workbench,3.6.2.M20110210-1200,"",1382988809714
activated,workbench,org.eclipse.ui.workbench,3.6.2.M20110210-1200,"",1382988810952
deactivated,workbench,org.eclipse.ui.workbench,3.6.2.M20110210-1200,"",1382988816088
activated,workbench,org.eclipse.ui.workbench,3.6.2.M20110210-1200,"",1382988816981
executed,command,org.eclipse.ui,3.6.2.M20110203-1100,"org.eclipse.ui.edit.cut",1382988825938
executed,command,org.eclipse.ui,3.6.2.M20110203-1100,"org.eclipse.ui.edit.paste",1382988831700
executed,command,org.eclipse.ui,3.6.2.M20110203-1100,"org.eclipse.ui.file.save",1382988832226
executed,command,org.eclipse.ui,3.6.2.M20110203-1100,"org.eclipse.ui.edit.undo",1382988838846
executed,command,org.eclipse.ui,3.6.2.M20110203-1100,"org.eclipse.ui.edit.paste",1382988843562
executed,command,org.eclipse.ui,3.6.2.M20110203-1100,"org.eclipse.ui.edit.undo",1382988854131
executed,command,org.eclipse.ui,3.6.2.M20110203-1100,"org.eclipse.ui.file.save",1382988854878
deactivated,workbench,org.eclipse.ui.workbench,3.6.2.M20110210-1200,"",1382988855448
activated,workbench,org.eclipse.ui.workbench,3.6.2.M20110210-1200,"",1382988859095
executed,command,org.eclipse.ui,3.6.2.M20110203-1100,"org.eclipse.ui.edit.cut",1382988863472
executed,command,org.eclipse.ui,3.6.2.M20110203-1100,"org.eclipse.ui.file.save",1382988863850
deactivated,workbench,org.eclipse.ui.workbench,3.6.2.M20110210-1200,"",1382988877018
activated,workbench,org.eclipse.ui.workbench,3.6.2.M20110210-1200,"",1382988920637
executed,command,org.eclipse.ui,3.6.2.M20110203-1100,"org.eclipse.ui.edit.undo",1382988923445
executed,command,org.eclipse.ui,3.6.2.M20110203-1100,"org.eclipse.ui.edit.undo",1382988923780
executed,command,org.eclipse.ui,3.6.2.M20110203-1100,"org.eclipse.ui.edit.undo",1382988924047
executed,command,org.eclipse.ui,3.6.2.M20110203-1100,"org.eclipse.ui.edit.undo",1382988924323
executed,command,org.eclipse.ui,3.6.2.M20110203-1100,"org.eclipse.ui.edit.undo",1382988924678
