what,kind,bundleId,bundleVersion,description,time
executed,command,org.eclipse.ui,3.6.2.M20110203-1100,"org.eclipse.ui.file.save",1383429453834
deactivated,workbench,org.eclipse.ui.workbench,3.6.2.M20110210-1200,"",1383429454069
activated,workbench,org.eclipse.ui.workbench,3.6.2.M20110210-1200,"",1383429458652
activated,editor,org.eclipse.jst.jsp.ui,1.1.503.v201101262228,"org.eclipse.jst.jsp.core.jspsource.source",1383429460709
deactivated,workbench,org.eclipse.ui.workbench,3.6.2.M20110210-1200,"",1383429463890
activated,workbench,org.eclipse.ui.workbench,3.6.2.M20110210-1200,"",1383429469413
executed,command,org.eclipse.ui,3.6.2.M20110203-1100,"org.eclipse.ui.file.save",1383429471994
activated,editor,org.eclipse.wst.css.ui,1.0.502.v201101122002,"org.eclipse.wst.css.core.csssource.source",1383429474175
executed,command,org.eclipse.ui,3.6.2.M20110203-1100,"org.eclipse.ui.file.save",1383429477720
deactivated,workbench,org.eclipse.ui.workbench,3.6.2.M20110210-1200,"",1383429477915
activated,workbench,org.eclipse.ui.workbench,3.6.2.M20110210-1200,"",1383429481489
activated,editor,org.eclipse.jst.jsp.ui,1.1.503.v201101262228,"org.eclipse.jst.jsp.core.jspsource.source",1383429483325
executed,command,org.eclipse.ui,3.6.2.M20110203-1100,"org.eclipse.ui.file.save",1383429490031
deactivated,workbench,org.eclipse.ui.workbench,3.6.2.M20110210-1200,"",1383429490290
activated,workbench,org.eclipse.ui.workbench,3.6.2.M20110210-1200,"",1383429492708
executed,command,org.eclipse.ui,3.6.2.M20110203-1100,"org.eclipse.ui.edit.undo",1383429493365
executed,command,org.eclipse.ui,3.6.2.M20110203-1100,"org.eclipse.ui.file.save",1383429496140
deactivated,workbench,org.eclipse.ui.workbench,3.6.2.M20110210-1200,"",1383429496328
activated,workbench,org.eclipse.ui.workbench,3.6.2.M20110210-1200,"",1383429499227
deactivated,workbench,org.eclipse.ui.workbench,3.6.2.M20110210-1200,"",1383429499969
activated,workbench,org.eclipse.ui.workbench,3.6.2.M20110210-1200,"",1383429504790
executed,command,org.eclipse.ui,3.6.2.M20110203-1100,"org.eclipse.ui.file.save",1383429507916
deactivated,workbench,org.eclipse.ui.workbench,3.6.2.M20110210-1200,"",1383429508379
activated,workbench,org.eclipse.ui.workbench,3.6.2.M20110210-1200,"",1383429511942
executed,command,org.eclipse.ui,3.6.2.M20110203-1100,"org.eclipse.ui.file.save",1383429516337
deactivated,workbench,org.eclipse.ui.workbench,3.6.2.M20110210-1200,"",1383429516661
activated,workbench,org.eclipse.ui.workbench,3.6.2.M20110210-1200,"",1383429519668
deactivated,workbench,org.eclipse.ui.workbench,3.6.2.M20110210-1200,"",1383429524186
activated,workbench,org.eclipse.ui.workbench,3.6.2.M20110210-1200,"",1383429526240
executed,command,org.eclipse.ui,3.6.2.M20110203-1100,"org.eclipse.ui.file.save",1383429531536
executed,command,org.eclipse.ui,3.6.2.M20110203-1100,"org.eclipse.ui.file.save",1383429534501
deactivated,workbench,org.eclipse.ui.workbench,3.6.2.M20110210-1200,"",1383429534708
activated,workbench,org.eclipse.ui.workbench,3.6.2.M20110210-1200,"",1383429537300
executed,command,org.eclipse.ui,3.6.2.M20110203-1100,"org.eclipse.ui.file.save",1383429541527
deactivated,workbench,org.eclipse.ui.workbench,3.6.2.M20110210-1200,"",1383429541709
activated,workbench,org.eclipse.ui.workbench,3.6.2.M20110210-1200,"",1383429550952
activated,editor,org.eclipse.wst.css.ui,1.0.502.v201101122002,"org.eclipse.wst.css.core.csssource.source",1383429552524
executed,command,org.eclipse.ui,3.6.2.M20110203-1100,"org.eclipse.ui.file.save",1383429556821
deactivated,workbench,org.eclipse.ui.workbench,3.6.2.M20110210-1200,"",1383429557037
activated,workbench,org.eclipse.ui.workbench,3.6.2.M20110210-1200,"",1383429559601
executed,command,org.eclipse.ui,3.6.2.M20110203-1100,"org.eclipse.ui.file.save",1383429563710
executed,command,org.eclipse.ui,3.6.2.M20110203-1100,"org.eclipse.ui.file.save",1383429567154
deactivated,workbench,org.eclipse.ui.workbench,3.6.2.M20110210-1200,"",1383429567347
activated,workbench,org.eclipse.ui.workbench,3.6.2.M20110210-1200,"",1383429570745
executed,command,org.eclipse.ui,3.6.2.M20110203-1100,"org.eclipse.ui.file.save",1383429574825
deactivated,workbench,org.eclipse.ui.workbench,3.6.2.M20110210-1200,"",1383429575175
activated,workbench,org.eclipse.ui.workbench,3.6.2.M20110210-1200,"",1383429577155
deactivated,workbench,org.eclipse.ui.workbench,3.6.2.M20110210-1200,"",1383429577661
activated,workbench,org.eclipse.ui.workbench,3.6.2.M20110210-1200,"",1383429578553
deactivated,workbench,org.eclipse.ui.workbench,3.6.2.M20110210-1200,"",1383429578829
activated,workbench,org.eclipse.ui.workbench,3.6.2.M20110210-1200,"",1383430063644
activated,editor,org.eclipse.jst.jsp.ui,1.1.503.v201101262228,"org.eclipse.jst.jsp.core.jspsource.source",1383430066316
activated,view,org.eclipse.ui.navigator.resources,3.4.202.M20101124-0800,"org.eclipse.ui.navigator.ProjectExplorer",1383430070349
executed,command,org.eclipse.ui,3.6.2.M20110203-1100,"org.eclipse.ui.file.refresh",1383430071502
activated,editor,org.eclipse.jst.jsp.ui,1.1.503.v201101262228,"org.eclipse.jst.jsp.core.jspsource.source",1383430075501
executed,command,org.eclipse.ui,3.6.2.M20110203-1100,"org.eclipse.ui.file.save",1383430080485
deactivated,workbench,org.eclipse.ui.workbench,3.6.2.M20110210-1200,"",1383430080776
activated,workbench,org.eclipse.ui.workbench,3.6.2.M20110210-1200,"",1383430093714
executed,command,org.eclipse.ui,3.6.2.M20110203-1100,"org.eclipse.ui.file.save",1383430098903
deactivated,workbench,org.eclipse.ui.workbench,3.6.2.M20110210-1200,"",1383430099052
activated,workbench,org.eclipse.ui.workbench,3.6.2.M20110210-1200,"",1383430104256
executed,command,org.eclipse.ui,3.6.2.M20110203-1100,"org.eclipse.ui.file.save",1383430109138
deactivated,workbench,org.eclipse.ui.workbench,3.6.2.M20110210-1200,"",1383430109314
activated,workbench,org.eclipse.ui.workbench,3.6.2.M20110210-1200,"",1383430118699
deactivated,workbench,org.eclipse.ui.workbench,3.6.2.M20110210-1200,"",1383430120983
activated,workbench,org.eclipse.ui.workbench,3.6.2.M20110210-1200,"",1383430227056
activated,view,org.eclipse.ui.navigator.resources,3.4.202.M20101124-0800,"org.eclipse.ui.navigator.ProjectExplorer",1383430228851
executed,command,org.eclipse.ui,3.6.2.M20110203-1100,"org.eclipse.ui.file.refresh",1383430229469
deactivated,workbench,org.eclipse.ui.workbench,3.6.2.M20110210-1200,"",1383430230652
activated,workbench,org.eclipse.ui.workbench,3.6.2.M20110210-1200,"",1383430238555
deactivated,workbench,org.eclipse.ui.workbench,3.6.2.M20110210-1200,"",1383430242177
activated,workbench,org.eclipse.ui.workbench,3.6.2.M20110210-1200,"",1383430243061
deactivated,workbench,org.eclipse.ui.workbench,3.6.2.M20110210-1200,"",1383430244163
activated,workbench,org.eclipse.ui.workbench,3.6.2.M20110210-1200,"",1383430305084
executed,command,org.eclipse.ui,3.6.2.M20110203-1100,"org.eclipse.ui.file.refresh",1383430306765
deactivated,workbench,org.eclipse.ui.workbench,3.6.2.M20110210-1200,"",1383430307552
activated,workbench,org.eclipse.ui.workbench,3.6.2.M20110210-1200,"",1383430313722
activated,editor,org.eclipse.jst.jsp.ui,1.1.503.v201101262228,"org.eclipse.jst.jsp.core.jspsource.source",1383430315765
executed,command,org.eclipse.ui,3.6.2.M20110203-1100,"org.eclipse.ui.edit.copy",1383430319009
activated,editor,org.eclipse.wst.css.ui,1.0.502.v201101122002,"org.eclipse.wst.css.core.csssource.source",1383430319729
executed,command,org.eclipse.ui,3.6.2.M20110203-1100,"org.eclipse.ui.file.save",1383430327815
deactivated,workbench,org.eclipse.ui.workbench,3.6.2.M20110210-1200,"",1383430328080
activated,workbench,org.eclipse.ui.workbench,3.6.2.M20110210-1200,"",1383430333259
executed,command,org.eclipse.ui,3.6.2.M20110203-1100,"org.eclipse.ui.file.save",1383430336456
deactivated,workbench,org.eclipse.ui.workbench,3.6.2.M20110210-1200,"",1383430336645
activated,workbench,org.eclipse.ui.workbench,3.6.2.M20110210-1200,"",1383430361829
activated,editor,org.eclipse.jst.jsp.ui,1.1.503.v201101262228,"org.eclipse.jst.jsp.core.jspsource.source",1383430368063
executed,command,org.eclipse.ui,3.6.2.M20110203-1100,"org.eclipse.ui.file.save",1383430368442
deactivated,workbench,org.eclipse.ui.workbench,3.6.2.M20110210-1200,"",1383430369186
activated,workbench,org.eclipse.ui.workbench,3.6.2.M20110210-1200,"",1383430372187
activated,editor,org.eclipse.wst.css.ui,1.0.502.v201101122002,"org.eclipse.wst.css.core.csssource.source",1383430373361
executed,command,org.eclipse.ui,3.6.2.M20110203-1100,"org.eclipse.ui.edit.delete",1383430374826
executed,command,org.eclipse.ui,3.6.2.M20110203-1100,"org.eclipse.ui.file.save",1383430376166
deactivated,workbench,org.eclipse.ui.workbench,3.6.2.M20110210-1200,"",1383430376385
activated,workbench,org.eclipse.ui.workbench,3.6.2.M20110210-1200,"",1383430382361
executed,command,org.eclipse.ui,3.6.2.M20110203-1100,"org.eclipse.ui.file.save",1383430384257
deactivated,workbench,org.eclipse.ui.workbench,3.6.2.M20110210-1200,"",1383430384447
activated,workbench,org.eclipse.ui.workbench,3.6.2.M20110210-1200,"",1383430386294
executed,command,org.eclipse.ui,3.6.2.M20110203-1100,"org.eclipse.ui.file.save",1383430388353
deactivated,workbench,org.eclipse.ui.workbench,3.6.2.M20110210-1200,"",1383430388647
activated,workbench,org.eclipse.ui.workbench,3.6.2.M20110210-1200,"",1383430393094
activated,editor,org.eclipse.jst.jsp.ui,1.1.503.v201101262228,"org.eclipse.jst.jsp.core.jspsource.source",1383430394570
executed,command,org.eclipse.ui,3.6.2.M20110203-1100,"org.eclipse.ui.edit.delete",1383430399942
executed,command,org.eclipse.ui,3.6.2.M20110203-1100,"org.eclipse.ui.edit.delete",1383430400675
executed,command,org.eclipse.ui,3.6.2.M20110203-1100,"org.eclipse.ui.edit.undo",1383430402355
executed,command,org.eclipse.ui,3.6.2.M20110203-1100,"org.eclipse.ui.edit.undo",1383430402778
executed,command,org.eclipse.ui,3.6.2.M20110203-1100,"org.eclipse.ui.edit.undo",1383430403398
executed,command,org.eclipse.ui,3.6.2.M20110203-1100,"org.eclipse.ui.edit.redo",1383430404377
executed,command,org.eclipse.ui,3.6.2.M20110203-1100,"org.eclipse.ui.edit.redo",1383430404839
executed,command,org.eclipse.ui,3.6.2.M20110203-1100,"org.eclipse.ui.file.save",1383430413144
deactivated,workbench,org.eclipse.ui.workbench,3.6.2.M20110210-1200,"",1383430413492
activated,workbench,org.eclipse.ui.workbench,3.6.2.M20110210-1200,"",1383430416938
executed,command,org.eclipse.ui,3.6.2.M20110203-1100,"org.eclipse.ui.file.save",1383430420211
deactivated,workbench,org.eclipse.ui.workbench,3.6.2.M20110210-1200,"",1383430420440
activated,workbench,org.eclipse.ui.workbench,3.6.2.M20110210-1200,"",1383430423217
executed,command,org.eclipse.ui,3.6.2.M20110203-1100,"org.eclipse.ui.file.save",1383430426003
deactivated,workbench,org.eclipse.ui.workbench,3.6.2.M20110210-1200,"",1383430426260
activated,workbench,org.eclipse.ui.workbench,3.6.2.M20110210-1200,"",1383430429264
executed,command,org.eclipse.ui,3.6.2.M20110203-1100,"org.eclipse.ui.file.save",1383430432005
deactivated,workbench,org.eclipse.ui.workbench,3.6.2.M20110210-1200,"",1383430432353
activated,workbench,org.eclipse.ui.workbench,3.6.2.M20110210-1200,"",1383430435079
executed,command,org.eclipse.ui,3.6.2.M20110203-1100,"org.eclipse.ui.file.save",1383430436805
deactivated,workbench,org.eclipse.ui.workbench,3.6.2.M20110210-1200,"",1383430437130
activated,workbench,org.eclipse.ui.workbench,3.6.2.M20110210-1200,"",1383430440727
executed,command,org.eclipse.ui,3.6.2.M20110203-1100,"org.eclipse.ui.file.save",1383430442244
deactivated,workbench,org.eclipse.ui.workbench,3.6.2.M20110210-1200,"",1383430442474
activated,workbench,org.eclipse.ui.workbench,3.6.2.M20110210-1200,"",1383430446219
executed,command,org.eclipse.ui,3.6.2.M20110203-1100,"org.eclipse.ui.file.save",1383430448208
deactivated,workbench,org.eclipse.ui.workbench,3.6.2.M20110210-1200,"",1383430448517
activated,workbench,org.eclipse.ui.workbench,3.6.2.M20110210-1200,"",1383430454625
activated,editor,org.eclipse.wst.css.ui,1.0.502.v201101122002,"org.eclipse.wst.css.core.csssource.source",1383430455792
executed,command,org.eclipse.ui,3.6.2.M20110203-1100,"org.eclipse.ui.file.save",1383430459864
deactivated,workbench,org.eclipse.ui.workbench,3.6.2.M20110210-1200,"",1383430460080
activated,workbench,org.eclipse.ui.workbench,3.6.2.M20110210-1200,"",1383430462434
executed,command,org.eclipse.ui,3.6.2.M20110203-1100,"org.eclipse.ui.edit.delete",1383430463829
executed,command,org.eclipse.ui,3.6.2.M20110203-1100,"org.eclipse.ui.file.save",1383430464700
deactivated,workbench,org.eclipse.ui.workbench,3.6.2.M20110210-1200,"",1383430464896
activated,workbench,org.eclipse.ui.workbench,3.6.2.M20110210-1200,"",1383430474840
executed,command,org.eclipse.ui,3.6.2.M20110203-1100,"org.eclipse.ui.file.save",1383430482614
executed,command,org.eclipse.ui,3.6.2.M20110203-1100,"org.eclipse.ui.edit.delete",1383430484898
executed,command,org.eclipse.ui,3.6.2.M20110203-1100,"org.eclipse.ui.file.save",1383430485952
deactivated,workbench,org.eclipse.ui.workbench,3.6.2.M20110210-1200,"",1383430486342
activated,workbench,org.eclipse.ui.workbench,3.6.2.M20110210-1200,"",1383430489467
executed,command,org.eclipse.ui,3.6.2.M20110203-1100,"org.eclipse.ui.file.save",1383430492744
deactivated,workbench,org.eclipse.ui.workbench,3.6.2.M20110210-1200,"",1383430492975
activated,workbench,org.eclipse.ui.workbench,3.6.2.M20110210-1200,"",1383430496322
executed,command,org.eclipse.ui,3.6.2.M20110203-1100,"org.eclipse.ui.file.save",1383430504064
deactivated,workbench,org.eclipse.ui.workbench,3.6.2.M20110210-1200,"",1383430504345
activated,workbench,org.eclipse.ui.workbench,3.6.2.M20110210-1200,"",1383430510612
executed,command,org.eclipse.ui,3.6.2.M20110203-1100,"org.eclipse.ui.file.save",1383430512478
deactivated,workbench,org.eclipse.ui.workbench,3.6.2.M20110210-1200,"",1383430512744
activated,workbench,org.eclipse.ui.workbench,3.6.2.M20110210-1200,"",1383430514571
executed,command,org.eclipse.ui,3.6.2.M20110203-1100,"org.eclipse.ui.file.save",1383430523923
executed,command,org.eclipse.ui,3.6.2.M20110203-1100,"org.eclipse.ui.file.save",1383430526669
deactivated,workbench,org.eclipse.ui.workbench,3.6.2.M20110210-1200,"",1383430526893
activated,workbench,org.eclipse.ui.workbench,3.6.2.M20110210-1200,"",1383430536854
activated,editor,org.eclipse.jst.jsp.ui,1.1.503.v201101262228,"org.eclipse.jst.jsp.core.jspsource.source",1383430538536
executed,command,org.eclipse.ui,3.6.2.M20110203-1100,"org.eclipse.ui.file.save",1383430541693
deactivated,workbench,org.eclipse.ui.workbench,3.6.2.M20110210-1200,"",1383430541918
activated,workbench,org.eclipse.ui.workbench,3.6.2.M20110210-1200,"",1383430545323
executed,command,org.eclipse.ui,3.6.2.M20110203-1100,"org.eclipse.ui.file.save",1383430546784
deactivated,workbench,org.eclipse.ui.workbench,3.6.2.M20110210-1200,"",1383430547100
activated,workbench,org.eclipse.ui.workbench,3.6.2.M20110210-1200,"",1383430551622
executed,command,org.eclipse.ui,3.6.2.M20110203-1100,"org.eclipse.ui.file.save",1383430554829
deactivated,workbench,org.eclipse.ui.workbench,3.6.2.M20110210-1200,"",1383430555056
activated,workbench,org.eclipse.ui.workbench,3.6.2.M20110210-1200,"",1383430561202
executed,command,org.eclipse.ui,3.6.2.M20110203-1100,"org.eclipse.ui.file.save",1383430568959
deactivated,workbench,org.eclipse.ui.workbench,3.6.2.M20110210-1200,"",1383430569195
activated,workbench,org.eclipse.ui.workbench,3.6.2.M20110210-1200,"",1383430573356
executed,command,org.eclipse.ui,3.6.2.M20110203-1100,"org.eclipse.ui.file.save",1383430575510
deactivated,workbench,org.eclipse.ui.workbench,3.6.2.M20110210-1200,"",1383430575708
activated,workbench,org.eclipse.ui.workbench,3.6.2.M20110210-1200,"",1383430579547
deactivated,workbench,org.eclipse.ui.workbench,3.6.2.M20110210-1200,"",1383430579900
activated,workbench,org.eclipse.ui.workbench,3.6.2.M20110210-1200,"",1383430586301
executed,command,org.eclipse.ui,3.6.2.M20110203-1100,"org.eclipse.ui.file.save",1383430589468
deactivated,workbench,org.eclipse.ui.workbench,3.6.2.M20110210-1200,"",1383430589724
activated,workbench,org.eclipse.ui.workbench,3.6.2.M20110210-1200,"",1383430592870
executed,command,org.eclipse.ui,3.6.2.M20110203-1100,"org.eclipse.ui.edit.undo",1383430593497
executed,command,org.eclipse.ui,3.6.2.M20110203-1100,"org.eclipse.ui.file.save",1383430594296
deactivated,workbench,org.eclipse.ui.workbench,3.6.2.M20110210-1200,"",1383430594755
activated,workbench,org.eclipse.ui.workbench,3.6.2.M20110210-1200,"",1383430596947
deactivated,workbench,org.eclipse.ui.workbench,3.6.2.M20110210-1200,"",1383430597276
activated,workbench,org.eclipse.ui.workbench,3.6.2.M20110210-1200,"",1383430605480
activated,editor,org.eclipse.wst.css.ui,1.0.502.v201101122002,"org.eclipse.wst.css.core.csssource.source",1383430607146
executed,command,org.eclipse.ui,3.6.2.M20110203-1100,"org.eclipse.ui.file.save",1383430612511
deactivated,workbench,org.eclipse.ui.workbench,3.6.2.M20110210-1200,"",1383430612642
activated,workbench,org.eclipse.ui.workbench,3.6.2.M20110210-1200,"",1383430615114
executed,command,org.eclipse.ui,3.6.2.M20110203-1100,"org.eclipse.ui.file.save",1383430616897
deactivated,workbench,org.eclipse.ui.workbench,3.6.2.M20110210-1200,"",1383430617084
activated,workbench,org.eclipse.ui.workbench,3.6.2.M20110210-1200,"",1383430620220
executed,command,org.eclipse.ui,3.6.2.M20110203-1100,"org.eclipse.ui.file.save",1383430621571
deactivated,workbench,org.eclipse.ui.workbench,3.6.2.M20110210-1200,"",1383430621773
activated,workbench,org.eclipse.ui.workbench,3.6.2.M20110210-1200,"",1383430625316
executed,command,org.eclipse.ui,3.6.2.M20110203-1100,"org.eclipse.ui.file.save",1383430626765
deactivated,workbench,org.eclipse.ui.workbench,3.6.2.M20110210-1200,"",1383430626988
activated,workbench,org.eclipse.ui.workbench,3.6.2.M20110210-1200,"",1383430630603
executed,command,org.eclipse.ui,3.6.2.M20110203-1100,"org.eclipse.ui.file.save",1383430632151
deactivated,workbench,org.eclipse.ui.workbench,3.6.2.M20110210-1200,"",1383430632481
activated,workbench,org.eclipse.ui.workbench,3.6.2.M20110210-1200,"",1383430641571
activated,editor,org.eclipse.jst.jsp.ui,1.1.503.v201101262228,"org.eclipse.jst.jsp.core.jspsource.source",1383430642530
deactivated,workbench,org.eclipse.ui.workbench,3.6.2.M20110210-1200,"",1383430644978
activated,workbench,org.eclipse.ui.workbench,3.6.2.M20110210-1200,"",1383430673282
executed,command,org.eclipse.ui,3.6.2.M20110203-1100,"org.eclipse.ui.edit.copy",1383430677845
executed,command,org.eclipse.ui,3.6.2.M20110203-1100,"org.eclipse.ui.edit.copy",1383430678039
activated,editor,org.eclipse.wst.css.ui,1.0.502.v201101122002,"org.eclipse.wst.css.core.csssource.source",1383430681566
executed,command,org.eclipse.ui,3.6.2.M20110203-1100,"org.eclipse.ui.file.save",1383430687845
deactivated,workbench,org.eclipse.ui.workbench,3.6.2.M20110210-1200,"",1383430688081
activated,workbench,org.eclipse.ui.workbench,3.6.2.M20110210-1200,"",1383430690301
executed,command,org.eclipse.ui,3.6.2.M20110203-1100,"org.eclipse.ui.file.save",1383430693165
deactivated,workbench,org.eclipse.ui.workbench,3.6.2.M20110210-1200,"",1383430693343
activated,workbench,org.eclipse.ui.workbench,3.6.2.M20110210-1200,"",1383430695364
executed,command,org.eclipse.ui,3.6.2.M20110203-1100,"org.eclipse.ui.file.save",1383430698433
deactivated,workbench,org.eclipse.ui.workbench,3.6.2.M20110210-1200,"",1383430698709
activated,workbench,org.eclipse.ui.workbench,3.6.2.M20110210-1200,"",1383430700917
executed,command,org.eclipse.ui,3.6.2.M20110203-1100,"org.eclipse.ui.edit.cut",1383430703157
executed,command,org.eclipse.ui,3.6.2.M20110203-1100,"org.eclipse.ui.file.save",1383430703480
executed,command,org.eclipse.ui,3.6.2.M20110203-1100,"org.eclipse.ui.edit.paste",1383430707787
executed,command,org.eclipse.ui,3.6.2.M20110203-1100,"org.eclipse.ui.file.save",1383430708191
deactivated,workbench,org.eclipse.ui.workbench,3.6.2.M20110210-1200,"",1383430708416
activated,workbench,org.eclipse.ui.workbench,3.6.2.M20110210-1200,"",1383430714564
deactivated,workbench,org.eclipse.ui.workbench,3.6.2.M20110210-1200,"",1383430714832
activated,workbench,org.eclipse.ui.workbench,3.6.2.M20110210-1200,"",1383430723809
deactivated,workbench,org.eclipse.ui.workbench,3.6.2.M20110210-1200,"",1383430724093
activated,workbench,org.eclipse.ui.workbench,3.6.2.M20110210-1200,"",1383430725909
activated,editor,org.eclipse.jst.jsp.ui,1.1.503.v201101262228,"org.eclipse.jst.jsp.core.jspsource.source",1383430728075
activated,editor,org.eclipse.wst.css.ui,1.0.502.v201101122002,"org.eclipse.wst.css.core.csssource.source",1383430730252
executed,command,org.eclipse.ui,3.6.2.M20110203-1100,"org.eclipse.ui.edit.undo",1383430730555
executed,command,org.eclipse.ui,3.6.2.M20110203-1100,"org.eclipse.ui.edit.undo",1383430731425
executed,command,org.eclipse.ui,3.6.2.M20110203-1100,"org.eclipse.ui.file.save",1383430732763
activated,editor,org.eclipse.jst.jsp.ui,1.1.503.v201101262228,"org.eclipse.jst.jsp.core.jspsource.source",1383430733575
executed,command,org.eclipse.ui,3.6.2.M20110203-1100,"org.eclipse.ui.edit.copy",1383430759187
executed,command,org.eclipse.ui,3.6.2.M20110203-1100,"org.eclipse.ui.edit.paste",1383430761343
executed,command,org.eclipse.ui,3.6.2.M20110203-1100,"org.eclipse.ui.file.save",1383430772036
executed,command,org.eclipse.ui,3.6.2.M20110203-1100,"org.eclipse.ui.edit.undo",1383430774153
executed,command,org.eclipse.ui,3.6.2.M20110203-1100,"org.eclipse.ui.edit.undo",1383430774609
executed,command,org.eclipse.ui,3.6.2.M20110203-1100,"org.eclipse.ui.edit.undo",1383430775133
executed,command,org.eclipse.ui,3.6.2.M20110203-1100,"org.eclipse.ui.file.save",1383430775956
deactivated,workbench,org.eclipse.ui.workbench,3.6.2.M20110210-1200,"",1383430779217
activated,workbench,org.eclipse.ui.workbench,3.6.2.M20110210-1200,"",1383430784481
activated,editor,org.eclipse.wst.css.ui,1.0.502.v201101122002,"org.eclipse.wst.css.core.csssource.source",1383430785671
activated,editor,org.eclipse.jst.jsp.ui,1.1.503.v201101262228,"org.eclipse.jst.jsp.core.jspsource.source",1383430786920
executed,command,org.eclipse.ui,3.6.2.M20110203-1100,"org.eclipse.ui.edit.undo",1383430787691
executed,command,org.eclipse.ui,3.6.2.M20110203-1100,"org.eclipse.ui.edit.redo",1383430789175
executed,command,org.eclipse.ui,3.6.2.M20110203-1100,"org.eclipse.ui.file.save",1383430789906
activated,editor,org.eclipse.wst.css.ui,1.0.502.v201101122002,"org.eclipse.wst.css.core.csssource.source",1383430790742
executed,command,org.eclipse.ui,3.6.2.M20110203-1100,"org.eclipse.ui.file.save",1383430795847
deactivated,workbench,org.eclipse.ui.workbench,3.6.2.M20110210-1200,"",1383430796013
activated,workbench,org.eclipse.ui.workbench,3.6.2.M20110210-1200,"",1383430839157
executed,command,org.eclipse.ui,3.6.2.M20110203-1100,"org.eclipse.ui.file.save",1383430849468
deactivated,workbench,org.eclipse.ui.workbench,3.6.2.M20110210-1200,"",1383430849640
activated,workbench,org.eclipse.ui.workbench,3.6.2.M20110210-1200,"",1383430853321
executed,command,org.eclipse.ui,3.6.2.M20110203-1100,"org.eclipse.ui.file.save",1383430856046
activated,editor,org.eclipse.jst.jsp.ui,1.1.503.v201101262228,"org.eclipse.jst.jsp.core.jspsource.source",1383430857759
activated,editor,org.eclipse.wst.css.ui,1.0.502.v201101122002,"org.eclipse.wst.css.core.csssource.source",1383430859159
executed,command,org.eclipse.ui,3.6.2.M20110203-1100,"org.eclipse.ui.file.save",1383430868477
deactivated,workbench,org.eclipse.ui.workbench,3.6.2.M20110210-1200,"",1383430868764
activated,workbench,org.eclipse.ui.workbench,3.6.2.M20110210-1200,"",1383430874699
executed,command,org.eclipse.ui,3.6.2.M20110203-1100,"org.eclipse.ui.file.save",1383430887141
executed,command,org.eclipse.ui,3.6.2.M20110203-1100,"org.eclipse.ui.file.save",1383430889267
deactivated,workbench,org.eclipse.ui.workbench,3.6.2.M20110210-1200,"",1383430889409
activated,workbench,org.eclipse.ui.workbench,3.6.2.M20110210-1200,"",1383430894058
executed,command,org.eclipse.ui,3.6.2.M20110203-1100,"org.eclipse.ui.file.save",1383430898722
deactivated,workbench,org.eclipse.ui.workbench,3.6.2.M20110210-1200,"",1383430898900
activated,workbench,org.eclipse.ui.workbench,3.6.2.M20110210-1200,"",1383430904854
deactivated,workbench,org.eclipse.ui.workbench,3.6.2.M20110210-1200,"",1383430905312
activated,workbench,org.eclipse.ui.workbench,3.6.2.M20110210-1200,"",1383430911399
deactivated,workbench,org.eclipse.ui.workbench,3.6.2.M20110210-1200,"",1383430913181
activated,workbench,org.eclipse.ui.workbench,3.6.2.M20110210-1200,"",1383430916156
deactivated,workbench,org.eclipse.ui.workbench,3.6.2.M20110210-1200,"",1383430917542
activated,workbench,org.eclipse.ui.workbench,3.6.2.M20110210-1200,"",1383430927747
activated,editor,org.eclipse.jst.jsp.ui,1.1.503.v201101262228,"org.eclipse.jst.jsp.core.jspsource.source",1383430929446
activated,editor,org.eclipse.wst.css.ui,1.0.502.v201101122002,"org.eclipse.wst.css.core.csssource.source",1383430930459
executed,command,org.eclipse.ui,3.6.2.M20110203-1100,"org.eclipse.ui.file.save",1383430945569
deactivated,workbench,org.eclipse.ui.workbench,3.6.2.M20110210-1200,"",1383430945813
activated,workbench,org.eclipse.ui.workbench,3.6.2.M20110210-1200,"",1383430950072
