what,kind,bundleId,bundleVersion,description,time
executed,command,org.eclipse.ui,3.6.2.M20110203-1100,"org.eclipse.ui.edit.redo",1383684954659
executed,command,org.eclipse.ui,3.6.2.M20110203-1100,"org.eclipse.ui.edit.redo",1383684954687
executed,command,org.eclipse.ui,3.6.2.M20110203-1100,"org.eclipse.ui.edit.redo",1383684954716
executed,command,org.eclipse.ui,3.6.2.M20110203-1100,"org.eclipse.ui.edit.redo",1383684954745
executed,command,org.eclipse.ui,3.6.2.M20110203-1100,"org.eclipse.ui.edit.redo",1383684954773
executed,command,org.eclipse.ui,3.6.2.M20110203-1100,"org.eclipse.ui.edit.redo",1383684954802
executed,command,org.eclipse.ui,3.6.2.M20110203-1100,"org.eclipse.ui.edit.redo",1383684954831
executed,command,org.eclipse.ui,3.6.2.M20110203-1100,"org.eclipse.ui.edit.redo",1383684954859
executed,command,org.eclipse.ui,3.6.2.M20110203-1100,"org.eclipse.ui.edit.redo",1383684954884
executed,command,org.eclipse.ui,3.6.2.M20110203-1100,"org.eclipse.ui.edit.redo",1383684954912
executed,command,org.eclipse.ui,3.6.2.M20110203-1100,"org.eclipse.ui.edit.redo",1383684954939
executed,command,org.eclipse.ui,3.6.2.M20110203-1100,"org.eclipse.ui.edit.redo",1383684954958
executed,command,org.eclipse.ui,3.6.2.M20110203-1100,"org.eclipse.ui.edit.redo",1383684954971
executed,command,org.eclipse.ui,3.6.2.M20110203-1100,"org.eclipse.ui.edit.redo",1383684954998
executed,command,org.eclipse.ui,3.6.2.M20110203-1100,"org.eclipse.ui.edit.redo",1383684955020
executed,command,org.eclipse.ui,3.6.2.M20110203-1100,"org.eclipse.ui.edit.redo",1383684955046
executed,command,org.eclipse.ui,3.6.2.M20110203-1100,"org.eclipse.ui.edit.redo",1383684955071
executed,command,org.eclipse.ui,3.6.2.M20110203-1100,"org.eclipse.ui.edit.redo",1383684955091
executed,command,org.eclipse.ui,3.6.2.M20110203-1100,"org.eclipse.ui.edit.redo",1383684955117
executed,command,org.eclipse.ui,3.6.2.M20110203-1100,"org.eclipse.ui.edit.redo",1383684955154
executed,command,org.eclipse.ui,3.6.2.M20110203-1100,"org.eclipse.ui.edit.redo",1383684955167
executed,command,org.eclipse.ui,3.6.2.M20110203-1100,"org.eclipse.ui.edit.redo",1383684955192
executed,command,org.eclipse.ui,3.6.2.M20110203-1100,"org.eclipse.ui.edit.redo",1383684955212
executed,command,org.eclipse.ui,3.6.2.M20110203-1100,"org.eclipse.ui.edit.redo",1383684955237
executed,command,org.eclipse.ui,3.6.2.M20110203-1100,"org.eclipse.ui.edit.redo",1383684955263
executed,command,org.eclipse.ui,3.6.2.M20110203-1100,"org.eclipse.ui.edit.redo",1383684955303
executed,command,org.eclipse.ui,3.6.2.M20110203-1100,"org.eclipse.ui.edit.redo",1383684955323
executed,command,org.eclipse.ui,3.6.2.M20110203-1100,"org.eclipse.ui.edit.redo",1383684955333
executed,command,org.eclipse.ui,3.6.2.M20110203-1100,"org.eclipse.ui.edit.redo",1383684955353
executed,command,org.eclipse.ui,3.6.2.M20110203-1100,"org.eclipse.ui.file.save",1383684960461
activated,view,org.eclipse.ui.navigator.resources,3.4.202.M20101124-0800,"org.eclipse.ui.navigator.ProjectExplorer",1383684961655
deactivated,workbench,org.eclipse.ui.workbench,3.6.2.M20110210-1200,"",1383684963696
activated,workbench,org.eclipse.ui.workbench,3.6.2.M20110210-1200,"",1383684964408
deactivated,workbench,org.eclipse.ui.workbench,3.6.2.M20110210-1200,"",1383684964441
activated,workbench,org.eclipse.ui.workbench,3.6.2.M20110210-1200,"",1383684965107
executed,command,org.eclipse.wst.server.ui,1.1.207.v20110119,"org.eclipse.wst.server.launchShortcut.run",1383684965114
activated,editor,org.eclipse.ui.browser,3.3.1.r36_20101216,"org.eclipse.ui.browser.editor",1383684966723
executed,command,org.eclipse.ui,3.6.2.M20110203-1100,"org.eclipse.ui.edit.copy",1383684967334
activated,editor,org.eclipse.jdt.ui,3.6.2.r362_v20110203,"org.eclipse.jdt.ui.CompilationUnitEditor",1383684967897
closed,editor,org.eclipse.ui.browser,3.3.1.r36_20101216,"org.eclipse.ui.browser.editor",1383684967897
deactivated,workbench,org.eclipse.ui.workbench,3.6.2.M20110210-1200,"",1383684968115
opened,editor,org.eclipse.ui.browser,3.3.1.r36_20101216,"org.eclipse.ui.browser.editor",1383684969535
activated,workbench,org.eclipse.ui.workbench,3.6.2.M20110210-1200,"",1383684969565
activated,editor,org.eclipse.ui.browser,3.3.1.r36_20101216,"org.eclipse.ui.browser.editor",1383684969591
activated,editor,org.eclipse.jdt.ui,3.6.2.r362_v20110203,"org.eclipse.jdt.ui.CompilationUnitEditor",1383685038013
closed,editor,org.eclipse.ui.browser,3.3.1.r36_20101216,"org.eclipse.ui.browser.editor",1383685038013
deactivated,workbench,org.eclipse.ui.workbench,3.6.2.M20110210-1200,"",1383685043926
activated,workbench,org.eclipse.ui.workbench,3.6.2.M20110210-1200,"",1383685045629
activated,editor,org.eclipse.jst.jsp.ui,1.1.503.v201101262228,"org.eclipse.jst.jsp.core.jspsource.source",1383685047567
closed,editor,org.eclipse.jdt.ui,3.6.2.r362_v20110203,"org.eclipse.jdt.ui.CompilationUnitEditor",1383685047567
activated,editor,org.eclipse.jst.jsp.ui,1.1.503.v201101262228,"org.eclipse.jst.jsp.core.jspsource.source",1383685049037
closed,editor,org.eclipse.jst.jsp.ui,1.1.503.v201101262228,"org.eclipse.jst.jsp.core.jspsource.source",1383685049038
closed,editor,org.eclipse.jst.jsp.ui,1.1.503.v201101262228,"org.eclipse.jst.jsp.core.jspsource.source",1383685050297
activated,view,org.eclipse.ui.navigator.resources,3.4.202.M20101124-0800,"org.eclipse.ui.navigator.ProjectExplorer",1383685053131
opened,editor,org.eclipse.wst.css.ui,1.0.502.v201101122002,"org.eclipse.wst.css.core.csssource.source",1383685058490
activated,editor,org.eclipse.wst.css.ui,1.0.502.v201101122002,"org.eclipse.wst.css.core.csssource.source",1383685058512
activated,editor,org.eclipse.jst.jsp.ui,1.1.503.v201101262228,"org.eclipse.jst.jsp.core.jspsource.source",1383685059532
deactivated,workbench,org.eclipse.ui.workbench,3.6.2.M20110210-1200,"",1383685060183
activated,workbench,org.eclipse.ui.workbench,3.6.2.M20110210-1200,"",1383685062960
executed,command,org.eclipse.ui,3.6.2.M20110203-1100,"org.eclipse.ui.edit.copy",1383685067496
activated,editor,org.eclipse.wst.css.ui,1.0.502.v201101122002,"org.eclipse.wst.css.core.csssource.source",1383685068481
deactivated,workbench,org.eclipse.ui.workbench,3.6.2.M20110210-1200,"",1383685068615
executed,command,org.eclipse.ui,3.6.2.M20110203-1100,"org.eclipse.ui.edit.findReplace",1383685068646
executed,command,org.eclipse.ui,3.6.2.M20110203-1100,"org.eclipse.ui.edit.paste",1383685068812
activated,workbench,org.eclipse.ui.workbench,3.6.2.M20110210-1200,"",1383685069875
executed,command,org.eclipse.ui,3.6.2.M20110203-1100,"org.eclipse.ui.file.save",1383685072959
deactivated,workbench,org.eclipse.ui.workbench,3.6.2.M20110210-1200,"",1383685073212
activated,workbench,org.eclipse.ui.workbench,3.6.2.M20110210-1200,"",1383685074511
activated,view,org.eclipse.ui.console,3.5.0.v20100526,"org.eclipse.ui.console.ConsoleView",1383685074519
activated,editor,org.eclipse.wst.css.ui,1.0.502.v201101122002,"org.eclipse.wst.css.core.csssource.source",1383685079578
executed,command,org.eclipse.ui,3.6.2.M20110203-1100,"org.eclipse.ui.file.save",1383685081639
deactivated,workbench,org.eclipse.ui.workbench,3.6.2.M20110210-1200,"",1383685081885
activated,workbench,org.eclipse.ui.workbench,3.6.2.M20110210-1200,"",1383685083261
activated,view,org.eclipse.ui.console,3.5.0.v20100526,"org.eclipse.ui.console.ConsoleView",1383685083272
activated,editor,org.eclipse.wst.css.ui,1.0.502.v201101122002,"org.eclipse.wst.css.core.csssource.source",1383685093602
activated,view,org.eclipse.ui.navigator.resources,3.4.202.M20101124-0800,"org.eclipse.ui.navigator.ProjectExplorer",1383685094919
opened,editor,org.eclipse.jdt.ui,3.6.2.r362_v20110203,"org.eclipse.jdt.ui.CompilationUnitEditor",1383685098348
activated,editor,org.eclipse.jdt.ui,3.6.2.r362_v20110203,"org.eclipse.jdt.ui.CompilationUnitEditor",1383685098394
activated,view,org.eclipse.ui.navigator.resources,3.4.202.M20101124-0800,"org.eclipse.ui.navigator.ProjectExplorer",1383685123373
opened,editor,org.eclipse.jdt.ui,3.6.2.r362_v20110203,"org.eclipse.jdt.ui.CompilationUnitEditor",1383685125089
activated,editor,org.eclipse.jdt.ui,3.6.2.r362_v20110203,"org.eclipse.jdt.ui.CompilationUnitEditor",1383685125112
executed,command,org.eclipse.ui.workbench.texteditor,3.6.1.r361_v20100714-0800,"org.eclipse.ui.edit.text.goto.lineEnd",1383685179780
executed,command,org.eclipse.ui.workbench.texteditor,3.6.1.r361_v20100714-0800,"org.eclipse.ui.edit.text.goto.lineEnd",1383685199933
executed,command,org.eclipse.ui,3.6.2.M20110203-1100,"org.eclipse.ui.file.save",1383685240677
executed,command,org.eclipse.ui.workbench.texteditor,3.6.1.r361_v20100714-0800,"org.eclipse.ui.edit.text.smartEnter",1383685297296
deactivated,workbench,org.eclipse.ui.workbench,3.6.2.M20110210-1200,"",1383685316906
activated,workbench,org.eclipse.ui.workbench,3.6.2.M20110210-1200,"",1383685343381
executed,command,org.eclipse.ui,3.6.2.M20110203-1100,"org.eclipse.ui.file.save",1383685361904
executed,command,org.eclipse.ui,3.6.2.M20110203-1100,"org.eclipse.ui.file.save",1383685402369
executed,command,org.eclipse.ui,3.6.2.M20110203-1100,"org.eclipse.ui.file.save",1383685411561
executed,command,org.eclipse.ui,3.6.2.M20110203-1100,"org.eclipse.ui.file.save",1383685413134
executed,command,org.eclipse.ui,3.6.2.M20110203-1100,"org.eclipse.ui.edit.text.contentAssist.proposals",1383685457020
executed,command,org.eclipse.ui,3.6.2.M20110203-1100,"org.eclipse.ui.edit.copy",1383685488844
executed,command,org.eclipse.ui,3.6.2.M20110203-1100,"org.eclipse.ui.edit.paste",1383685489715
executed,command,org.eclipse.ui,3.6.2.M20110203-1100,"org.eclipse.ui.edit.copy",1383685500320
executed,command,org.eclipse.ui,3.6.2.M20110203-1100,"org.eclipse.ui.edit.paste",1383685501030
executed,command,org.eclipse.ui,3.6.2.M20110203-1100,"org.eclipse.ui.edit.paste",1383685501786
executed,command,org.eclipse.ui,3.6.2.M20110203-1100,"org.eclipse.ui.file.save",1383685502412
executed,command,org.eclipse.ui,3.6.2.M20110203-1100,"org.eclipse.ui.edit.copy",1383685578052
executed,command,org.eclipse.ui,3.6.2.M20110203-1100,"org.eclipse.ui.edit.paste",1383685597400
executed,command,org.eclipse.ui,3.6.2.M20110203-1100,"org.eclipse.ui.file.save",1383685605200
executed,command,org.eclipse.ui,3.6.2.M20110203-1100,"org.eclipse.ui.edit.copy",1383685615394
executed,command,org.eclipse.ui,3.6.2.M20110203-1100,"org.eclipse.ui.edit.paste",1383685617687
executed,command,org.eclipse.ui,3.6.2.M20110203-1100,"org.eclipse.ui.edit.copy",1383685670975
executed,command,org.eclipse.ui,3.6.2.M20110203-1100,"org.eclipse.ui.edit.paste",1383685673446
executed,command,org.eclipse.ui,3.6.2.M20110203-1100,"org.eclipse.ui.edit.text.contentAssist.proposals",1383685678488
executed,command,org.eclipse.ui,3.6.2.M20110203-1100,"org.eclipse.ui.edit.copy",1383685701658
executed,command,org.eclipse.ui,3.6.2.M20110203-1100,"org.eclipse.ui.edit.paste",1383685702682
executed,command,org.eclipse.ui,3.6.2.M20110203-1100,"org.eclipse.ui.edit.paste",1383685703712
executed,command,org.eclipse.ui,3.6.2.M20110203-1100,"org.eclipse.ui.edit.copy",1383685721738
executed,command,org.eclipse.ui,3.6.2.M20110203-1100,"org.eclipse.ui.edit.paste",1383685722614
executed,command,org.eclipse.ui,3.6.2.M20110203-1100,"org.eclipse.ui.edit.copy",1383685723840
executed,command,org.eclipse.ui,3.6.2.M20110203-1100,"org.eclipse.ui.edit.paste",1383685724453
executed,command,org.eclipse.ui,3.6.2.M20110203-1100,"org.eclipse.ui.file.save",1383685729442
executed,command,org.eclipse.ui,3.6.2.M20110203-1100,"org.eclipse.ui.edit.copy",1383685738552
executed,command,org.eclipse.ui,3.6.2.M20110203-1100,"org.eclipse.ui.edit.paste",1383685742691
executed,command,org.eclipse.ui,3.6.2.M20110203-1100,"org.eclipse.ui.edit.text.contentAssist.proposals",1383685745870
executed,command,org.eclipse.ui,3.6.2.M20110203-1100,"org.eclipse.ui.edit.paste",1383685756718
executed,command,org.eclipse.ui,3.6.2.M20110203-1100,"org.eclipse.ui.file.save",1383685757131
executed,command,org.eclipse.ui,3.6.2.M20110203-1100,"org.eclipse.ui.file.save",1383685760831
executed,command,org.eclipse.ui,3.6.2.M20110203-1100,"org.eclipse.ui.file.save",1383685762445
executed,command,org.eclipse.ui,3.6.2.M20110203-1100,"org.eclipse.ui.file.save",1383685772496
executed,command,org.eclipse.ui,3.6.2.M20110203-1100,"org.eclipse.ui.file.save",1383685776233
executed,command,org.eclipse.ui,3.6.2.M20110203-1100,"org.eclipse.ui.edit.copy",1383685795651
executed,command,org.eclipse.ui,3.6.2.M20110203-1100,"org.eclipse.ui.edit.copy",1383685795846
executed,command,org.eclipse.ui,3.6.2.M20110203-1100,"org.eclipse.ui.edit.paste",1383685796747
executed,command,org.eclipse.ui,3.6.2.M20110203-1100,"org.eclipse.ui.file.save",1383685797211
executed,command,org.eclipse.ui,3.6.2.M20110203-1100,"org.eclipse.ui.file.save",1383685823323
deactivated,workbench,org.eclipse.ui.workbench,3.6.2.M20110210-1200,"",1383685845454
activated,workbench,org.eclipse.ui.workbench,3.6.2.M20110210-1200,"",1383685846935
executed,command,org.eclipse.ui,3.6.2.M20110203-1100,"org.eclipse.ui.file.save",1383685859586
executed,command,org.eclipse.ui,3.6.2.M20110203-1100,"org.eclipse.ui.file.save",1383685888859
activated,view,org.eclipse.ui.navigator.resources,3.4.202.M20101124-0800,"org.eclipse.ui.navigator.ProjectExplorer",1383685950472
deactivated,workbench,org.eclipse.ui.workbench,3.6.2.M20110210-1200,"",1383685952642
activated,workbench,org.eclipse.ui.workbench,3.6.2.M20110210-1200,"",1383685959011
deactivated,workbench,org.eclipse.ui.workbench,3.6.2.M20110210-1200,"",1383685959022
activated,workbench,org.eclipse.ui.workbench,3.6.2.M20110210-1200,"",1383685967769
deactivated,workbench,org.eclipse.ui.workbench,3.6.2.M20110210-1200,"",1383685968307
activated,workbench,org.eclipse.ui.workbench,3.6.2.M20110210-1200,"",1383685971405
deactivated,workbench,org.eclipse.ui.workbench,3.6.2.M20110210-1200,"",1383685978976
activated,workbench,org.eclipse.ui.workbench,3.6.2.M20110210-1200,"",1383685987604
executed,command,org.eclipse.ui,3.6.2.M20110203-1100,"org.eclipse.ui.newWizard",1383685987625
deactivated,workbench,org.eclipse.ui.workbench,3.6.2.M20110210-1200,"",1383685990031
activated,workbench,org.eclipse.ui.workbench,3.6.2.M20110210-1200,"",1383685990830
deactivated,workbench,org.eclipse.ui.workbench,3.6.2.M20110210-1200,"",1383685990858
activated,workbench,org.eclipse.ui.workbench,3.6.2.M20110210-1200,"",1383685991584
executed,command,org.eclipse.wst.server.ui,1.1.207.v20110119,"org.eclipse.wst.server.launchShortcut.run",1383685991591
opened,editor,org.eclipse.ui.browser,3.3.1.r36_20101216,"org.eclipse.ui.browser.editor",1383685995898
activated,editor,org.eclipse.ui.browser,3.3.1.r36_20101216,"org.eclipse.ui.browser.editor",1383685995937
executed,command,org.eclipse.ui,3.6.2.M20110203-1100,"org.eclipse.ui.edit.copy",1383686007958
deactivated,workbench,org.eclipse.ui.workbench,3.6.2.M20110210-1200,"",1383686008279
activated,workbench,org.eclipse.ui.workbench,3.6.2.M20110210-1200,"",1383686096909
activated,view,org.eclipse.ui.console,3.5.0.v20100526,"org.eclipse.ui.console.ConsoleView",1383686098559
deactivated,workbench,org.eclipse.ui.workbench,3.6.2.M20110210-1200,"",1383686100287
activated,workbench,org.eclipse.ui.workbench,3.6.2.M20110210-1200,"",1383686104183
deactivated,workbench,org.eclipse.ui.workbench,3.6.2.M20110210-1200,"",1383686118345
activated,workbench,org.eclipse.ui.workbench,3.6.2.M20110210-1200,"",1383686141190
activated,editor,org.eclipse.jdt.ui,3.6.2.r362_v20110203,"org.eclipse.jdt.ui.CompilationUnitEditor",1383686146862
activated,editor,org.eclipse.jdt.ui,3.6.2.r362_v20110203,"org.eclipse.jdt.ui.CompilationUnitEditor",1383686147464
executed,command,org.eclipse.ui,3.6.2.M20110203-1100,"org.eclipse.ui.edit.undo",1383686153685
activated,view,org.eclipse.ui.console,3.5.0.v20100526,"org.eclipse.ui.console.ConsoleView",1383686160997
activated,editor,org.eclipse.jdt.ui,3.6.2.r362_v20110203,"org.eclipse.jdt.ui.CompilationUnitEditor",1383686169719
executed,command,org.eclipse.ui,3.6.2.M20110203-1100,"org.eclipse.ui.edit.cut",1383686180663
executed,command,org.eclipse.ui,3.6.2.M20110203-1100,"org.eclipse.ui.edit.paste",1383686183135
executed,command,org.eclipse.ui,3.6.2.M20110203-1100,"org.eclipse.ui.file.save",1383686187368
activated,view,org.eclipse.ui.console,3.5.0.v20100526,"org.eclipse.ui.console.ConsoleView",1383686196125
activated,editor,org.eclipse.jdt.ui,3.6.2.r362_v20110203,"org.eclipse.jdt.ui.CompilationUnitEditor",1383686197029
activated,view,org.eclipse.ui.navigator.resources,3.4.202.M20101124-0800,"org.eclipse.ui.navigator.ProjectExplorer",1383686203414
deactivated,workbench,org.eclipse.ui.workbench,3.6.2.M20110210-1200,"",1383686208085
activated,workbench,org.eclipse.ui.workbench,3.6.2.M20110210-1200,"",1383686213705
deactivated,workbench,org.eclipse.ui.workbench,3.6.2.M20110210-1200,"",1383686218993
activated,workbench,org.eclipse.ui.workbench,3.6.2.M20110210-1200,"",1383686227262
executed,command,org.eclipse.ui,3.6.2.M20110203-1100,"org.eclipse.ui.newWizard",1383686227283
deactivated,workbench,org.eclipse.ui.workbench,3.6.2.M20110210-1200,"",1383686230040
activated,workbench,org.eclipse.ui.workbench,3.6.2.M20110210-1200,"",1383686230834
deactivated,workbench,org.eclipse.ui.workbench,3.6.2.M20110210-1200,"",1383686230866
activated,workbench,org.eclipse.ui.workbench,3.6.2.M20110210-1200,"",1383686231513
executed,command,org.eclipse.wst.server.ui,1.1.207.v20110119,"org.eclipse.wst.server.launchShortcut.run",1383686231529
deactivated,workbench,org.eclipse.ui.workbench,3.6.2.M20110210-1200,"",1383686234728
opened,editor,org.eclipse.ui.browser,3.3.1.r36_20101216,"org.eclipse.ui.browser.editor",1383686235872
activated,workbench,org.eclipse.ui.workbench,3.6.2.M20110210-1200,"",1383686235908
activated,editor,org.eclipse.ui.browser,3.3.1.r36_20101216,"org.eclipse.ui.browser.editor",1383686235926
executed,command,org.eclipse.ui,3.6.2.M20110203-1100,"org.eclipse.ui.edit.paste",1383686274722
no handler,command,org.eclipse.ui,3.6.2.M20110203-1100,"org.eclipse.ui.edit.undo",1383686275592
executed,command,org.eclipse.ui,3.6.2.M20110203-1100,"org.eclipse.ui.edit.copy",1383686276172
deactivated,workbench,org.eclipse.ui.workbench,3.6.2.M20110210-1200,"",1383686276518
activated,workbench,org.eclipse.ui.workbench,3.6.2.M20110210-1200,"",1383686305258
activated,view,org.eclipse.ui.console,3.5.0.v20100526,"org.eclipse.ui.console.ConsoleView",1383686306501
deactivated,workbench,org.eclipse.ui.workbench,3.6.2.M20110210-1200,"",1383686308014
activated,workbench,org.eclipse.ui.workbench,3.6.2.M20110210-1200,"",1383686327296
deactivated,workbench,org.eclipse.ui.workbench,3.6.2.M20110210-1200,"",1383686332791
activated,workbench,org.eclipse.ui.workbench,3.6.2.M20110210-1200,"",1383686336931
deactivated,workbench,org.eclipse.ui.workbench,3.6.2.M20110210-1200,"",1383686338120
activated,workbench,org.eclipse.ui.workbench,3.6.2.M20110210-1200,"",1383686347986
deactivated,workbench,org.eclipse.ui.workbench,3.6.2.M20110210-1200,"",1383686350010
activated,workbench,org.eclipse.ui.workbench,3.6.2.M20110210-1200,"",1383686354196
activated,editor,org.eclipse.jdt.ui,3.6.2.r362_v20110203,"org.eclipse.jdt.ui.CompilationUnitEditor",1383686356793
deactivated,workbench,org.eclipse.ui.workbench,3.6.2.M20110210-1200,"",1383686364697
activated,workbench,org.eclipse.ui.workbench,3.6.2.M20110210-1200,"",1383686373001
executed,command,org.eclipse.ui,3.6.2.M20110203-1100,"org.eclipse.ui.file.save",1383686380241
deactivated,workbench,org.eclipse.ui.workbench,3.6.2.M20110210-1200,"",1383686380701
activated,workbench,org.eclipse.ui.workbench,3.6.2.M20110210-1200,"",1383686386015
activated,view,org.eclipse.ui.console,3.5.0.v20100526,"org.eclipse.ui.console.ConsoleView",1383686386027
activated,editor,org.eclipse.jdt.ui,3.6.2.r362_v20110203,"org.eclipse.jdt.ui.CompilationUnitEditor",1383686398432
activated,view,org.eclipse.ui.navigator.resources,3.4.202.M20101124-0800,"org.eclipse.ui.navigator.ProjectExplorer",1383686402027
deactivated,workbench,org.eclipse.ui.workbench,3.6.2.M20110210-1200,"",1383686406119
activated,workbench,org.eclipse.ui.workbench,3.6.2.M20110210-1200,"",1383686411444
deactivated,workbench,org.eclipse.ui.workbench,3.6.2.M20110210-1200,"",1383686416343
activated,workbench,org.eclipse.ui.workbench,3.6.2.M20110210-1200,"",1383686425718
executed,command,org.eclipse.ui,3.6.2.M20110203-1100,"org.eclipse.ui.newWizard",1383686425740
deactivated,workbench,org.eclipse.ui.workbench,3.6.2.M20110210-1200,"",1383686428210
activated,workbench,org.eclipse.ui.workbench,3.6.2.M20110210-1200,"",1383686428999
deactivated,workbench,org.eclipse.ui.workbench,3.6.2.M20110210-1200,"",1383686429029
activated,workbench,org.eclipse.ui.workbench,3.6.2.M20110210-1200,"",1383686430331
executed,command,org.eclipse.wst.server.ui,1.1.207.v20110119,"org.eclipse.wst.server.launchShortcut.run",1383686430343
deactivated,workbench,org.eclipse.ui.workbench,3.6.2.M20110210-1200,"",1383686430998
opened,editor,org.eclipse.ui.browser,3.3.1.r36_20101216,"org.eclipse.ui.browser.editor",1383686434851
activated,workbench,org.eclipse.ui.workbench,3.6.2.M20110210-1200,"",1383686434882
activated,editor,org.eclipse.ui.browser,3.3.1.r36_20101216,"org.eclipse.ui.browser.editor",1383686434899
executed,command,org.eclipse.ui,3.6.2.M20110203-1100,"org.eclipse.ui.edit.copy",1383686534546
activated,view,org.eclipse.ui.navigator.resources,3.4.202.M20101124-0800,"org.eclipse.ui.navigator.ProjectExplorer",1383686535413
deactivated,workbench,org.eclipse.ui.workbench,3.6.2.M20110210-1200,"",1383686537242
activated,workbench,org.eclipse.ui.workbench,3.6.2.M20110210-1200,"",1383686537910
executed,command,org.eclipse.wst.server.ui,1.1.207.v20110119,"org.eclipse.wst.server.launchShortcut.run",1383686537929
opened,editor,org.eclipse.ui.browser,3.3.1.r36_20101216,"org.eclipse.ui.browser.editor",1383686538197
activated,editor,org.eclipse.ui.browser,3.3.1.r36_20101216,"org.eclipse.ui.browser.editor",1383686538234
executed,command,org.eclipse.ui,3.6.2.M20110203-1100,"org.eclipse.ui.edit.copy",1383686539035
deactivated,workbench,org.eclipse.ui.workbench,3.6.2.M20110210-1200,"",1383686539444
activated,workbench,org.eclipse.ui.workbench,3.6.2.M20110210-1200,"",1383686593084
activated,view,org.eclipse.ui.console,3.5.0.v20100526,"org.eclipse.ui.console.ConsoleView",1383686594243
deactivated,workbench,org.eclipse.ui.workbench,3.6.2.M20110210-1200,"",1383686598523
activated,workbench,org.eclipse.ui.workbench,3.6.2.M20110210-1200,"",1383686601316
deactivated,workbench,org.eclipse.ui.workbench,3.6.2.M20110210-1200,"",1383686602082
activated,workbench,org.eclipse.ui.workbench,3.6.2.M20110210-1200,"",1383686650003
activated,view,org.eclipse.ui.navigator.resources,3.4.202.M20101124-0800,"org.eclipse.ui.navigator.ProjectExplorer",1383686653229
deactivated,workbench,org.eclipse.ui.workbench,3.6.2.M20110210-1200,"",1383686654973
executed,command,org.eclipse.ui,3.6.2.M20110203-1100,"org.eclipse.ui.edit.copy",1383686658123
activated,workbench,org.eclipse.ui.workbench,3.6.2.M20110210-1200,"",1383686659094
executed,command,org.eclipse.ui,3.6.2.M20110203-1100,"org.eclipse.ui.file.properties",1383686659105
opened,editor,org.eclipse.jdt.ui,3.6.2.r362_v20110203,"org.eclipse.jdt.ui.CompilationUnitEditor",1383686660875
activated,editor,org.eclipse.jdt.ui,3.6.2.r362_v20110203,"org.eclipse.jdt.ui.CompilationUnitEditor",1383686660913
activated,view,org.eclipse.ui.navigator.resources,3.4.202.M20101124-0800,"org.eclipse.ui.navigator.ProjectExplorer",1383686661157
activated,editor,org.eclipse.jdt.ui,3.6.2.r362_v20110203,"org.eclipse.jdt.ui.CompilationUnitEditor",1383686661176
executed,command,org.eclipse.ui,3.6.2.M20110203-1100,"org.eclipse.ui.edit.paste",1383686661176
executed,command,org.eclipse.ui,3.6.2.M20110203-1100,"org.eclipse.ui.edit.undo",1383686663403
activated,view,org.eclipse.ui.navigator.resources,3.4.202.M20101124-0800,"org.eclipse.ui.navigator.ProjectExplorer",1383686667697
closed,editor,org.eclipse.jst.jsp.ui,1.1.503.v201101262228,"org.eclipse.jst.jsp.core.jspsource.source",1383686667697
closed,editor,org.eclipse.wst.css.ui,1.0.502.v201101122002,"org.eclipse.wst.css.core.csssource.source",1383686667709
closed,editor,org.eclipse.jdt.ui,3.6.2.r362_v20110203,"org.eclipse.jdt.ui.CompilationUnitEditor",1383686667715
closed,editor,org.eclipse.jdt.ui,3.6.2.r362_v20110203,"org.eclipse.jdt.ui.CompilationUnitEditor",1383686667728
closed,editor,org.eclipse.ui.browser,3.3.1.r36_20101216,"org.eclipse.ui.browser.editor",1383686667821
closed,editor,org.eclipse.ui.browser,3.3.1.r36_20101216,"org.eclipse.ui.browser.editor",1383686667891
closed,editor,org.eclipse.ui.browser,3.3.1.r36_20101216,"org.eclipse.ui.browser.editor",1383686667961
closed,editor,org.eclipse.ui.browser,3.3.1.r36_20101216,"org.eclipse.ui.browser.editor",1383686668079
closed,editor,org.eclipse.jdt.ui,3.6.2.r362_v20110203,"org.eclipse.jdt.ui.CompilationUnitEditor",1383686668155
deactivated,workbench,org.eclipse.ui.workbench,3.6.2.M20110210-1200,"",1383686668881
activated,workbench,org.eclipse.ui.workbench,3.6.2.M20110210-1200,"",1383686714441
deactivated,workbench,org.eclipse.ui.workbench,3.6.2.M20110210-1200,"",1383686729823
activated,workbench,org.eclipse.ui.workbench,3.6.2.M20110210-1200,"",1383686732327
executed,command,org.eclipse.ui,3.6.2.M20110203-1100,"org.eclipse.ui.file.properties",1383686732345
deactivated,workbench,org.eclipse.ui.workbench,3.6.2.M20110210-1200,"",1383686733516
activated,workbench,org.eclipse.ui.workbench,3.6.2.M20110210-1200,"",1383687456570
activated,view,org.eclipse.ui.console,3.5.0.v20100526,"org.eclipse.ui.console.ConsoleView",1383687458309
deactivated,workbench,org.eclipse.ui.workbench,3.6.2.M20110210-1200,"",1383687538159
activated,workbench,org.eclipse.ui.workbench,3.6.2.M20110210-1200,"",1383688143750
deactivated,workbench,org.eclipse.ui.workbench,3.6.2.M20110210-1200,"",1383688145866
activated,workbench,org.eclipse.ui.workbench,3.6.2.M20110210-1200,"",1383688170764
activated,view,org.eclipse.ui.navigator.resources,3.4.202.M20101124-0800,"org.eclipse.ui.navigator.ProjectExplorer",1383688173835
opened,editor,org.eclipse.jdt.ui,3.6.2.r362_v20110203,"org.eclipse.jdt.ui.CompilationUnitEditor",1383688177561
activated,editor,org.eclipse.jdt.ui,3.6.2.r362_v20110203,"org.eclipse.jdt.ui.CompilationUnitEditor",1383688177591
deactivated,workbench,org.eclipse.ui.workbench,3.6.2.M20110210-1200,"",1383688185991
activated,workbench,org.eclipse.ui.workbench,3.6.2.M20110210-1200,"",1383688195891
activated,view,org.eclipse.ui.console,3.5.0.v20100526,"org.eclipse.ui.console.ConsoleView",1383688195903
deactivated,workbench,org.eclipse.ui.workbench,3.6.2.M20110210-1200,"",1383688224385
deactivated,workbench,org.eclipse.ui.workbench,3.6.2.M20110210-1200,"",1383692243581
