what,kind,bundleId,bundleVersion,description,time
activated,perspective,org.eclipse.jst.j2ee.ui,,"org.eclipse.jst.j2ee.J2EEPerspective",1385762935523
started,bundle,org.eclipse.osgi,3.6.2.R36x_v20110210,"org.eclipse.osgi",1385762935524
started,bundle,org.eclipse.equinox.simpleconfigurator,1.0.200.v20100503,"org.eclipse.equinox.simpleconfigurator",1385762935526
started,bundle,com.ibm.icu,4.2.1.v20100412,"com.ibm.icu",1385762935526
started,bundle,org.eclipse.compare.core,3.5.101.R36x_v20100929-0800,"org.eclipse.compare.core",1385762935527
started,bundle,org.eclipse.core.contenttype,3.4.100.v20100505-1235,"org.eclipse.core.contenttype",1385762935527
started,bundle,org.eclipse.core.databinding.observable,1.3.0.I20100601-0800,"org.eclipse.core.databinding.observable",1385762935528
started,bundle,org.eclipse.core.expressions,3.4.200.v20100505,"org.eclipse.core.expressions",1385762935528
started,bundle,org.eclipse.core.filebuffers,3.5.100.v20100520-0800,"org.eclipse.core.filebuffers",1385762935528
started,bundle,org.eclipse.core.filesystem,1.3.1.R36x_v20100727-0745,"org.eclipse.core.filesystem",1385762935528
started,bundle,org.eclipse.core.net,1.2.100.I20100511-0800,"org.eclipse.core.net",1385762935528
started,bundle,org.eclipse.core.resources,3.6.1.R36x_v20110131-1630,"org.eclipse.core.resources",1385762935528
started,bundle,org.eclipse.core.runtime,3.6.0.v20100505,"org.eclipse.core.runtime",1385762935529
started,bundle,org.eclipse.core.runtime.compatibility,3.2.100.v20100505,"org.eclipse.core.runtime.compatibility",1385762935530
started,bundle,org.eclipse.core.runtime.compatibility.auth,3.2.200.v20100517,"org.eclipse.core.runtime.compatibility.auth",1385762935531
started,bundle,org.eclipse.debug.core,3.6.0.v20100519,"org.eclipse.debug.core",1385762935531
started,bundle,org.eclipse.debug.ui,3.6.3.v20101201_r362,"org.eclipse.debug.ui",1385762935531
started,bundle,org.eclipse.emf.common,2.6.0.v20100914-1218,"org.eclipse.emf.common",1385762935531
started,bundle,org.eclipse.emf.common.ui,2.6.0.v20100914-1218,"org.eclipse.emf.common.ui",1385762935531
started,bundle,org.eclipse.emf.ecore,2.6.1.v20100914-1218,"org.eclipse.emf.ecore",1385762935532
started,bundle,org.eclipse.emf.ecore.xmi,2.5.0.v20100521-1846,"org.eclipse.emf.ecore.xmi",1385762935532
started,bundle,org.eclipse.emf.edit,2.6.0.v20100914-1218,"org.eclipse.emf.edit",1385762935532
started,bundle,org.eclipse.emf.edit.ui,2.6.0.v20100914-1218,"org.eclipse.emf.edit.ui",1385762935532
started,bundle,org.eclipse.epp.usagedata.gathering,1.3.1.R201102081640,"org.eclipse.epp.usagedata.gathering",1385762935532
started,bundle,org.eclipse.epp.usagedata.recording,1.3.1.R201102081640,"org.eclipse.epp.usagedata.recording",1385762935532
started,bundle,org.eclipse.equinox.app,1.3.1.R36x_v20100803,"org.eclipse.equinox.app",1385762935532
started,bundle,org.eclipse.equinox.common,3.6.0.v20100503,"org.eclipse.equinox.common",1385762935532
started,bundle,org.eclipse.equinox.ds,1.2.1.R36x_v20100803,"org.eclipse.equinox.ds",1385762935534
started,bundle,org.eclipse.equinox.event,1.2.0.v20100503,"org.eclipse.equinox.event",1385762935535
started,bundle,org.eclipse.equinox.p2.artifact.repository,1.1.1.R36x_v20100901,"org.eclipse.equinox.p2.artifact.repository",1385762935535
started,bundle,org.eclipse.equinox.p2.core,2.0.3.R36x_v20110111,"org.eclipse.equinox.p2.core",1385762935537
started,bundle,org.eclipse.equinox.p2.director,2.0.3.R36x_v20101117-1018,"org.eclipse.equinox.p2.director",1385762935538
started,bundle,org.eclipse.equinox.p2.directorywatcher,1.0.203.R36x_v20101220,"org.eclipse.equinox.p2.directorywatcher",1385762935539
started,bundle,org.eclipse.equinox.p2.engine,2.0.1.R36x_v20110201,"org.eclipse.equinox.p2.engine",1385762935539
started,bundle,org.eclipse.equinox.p2.extensionlocation,1.2.0.v20100518,"org.eclipse.equinox.p2.extensionlocation",1385762935539
started,bundle,org.eclipse.equinox.p2.metadata,2.0.1.R36x_v20101202,"org.eclipse.equinox.p2.metadata",1385762935541
started,bundle,org.eclipse.equinox.p2.metadata.repository,1.1.0.v20100513,"org.eclipse.equinox.p2.metadata.repository",1385762935541
started,bundle,org.eclipse.equinox.p2.operations,2.0.0.v20100510,"org.eclipse.equinox.p2.operations",1385762935542
started,bundle,org.eclipse.equinox.p2.publisher,1.1.2.v20100824-2220,"org.eclipse.equinox.p2.publisher",1385762935542
started,bundle,org.eclipse.equinox.p2.reconciler.dropins,1.1.2.R36x_v20110114,"org.eclipse.equinox.p2.reconciler.dropins",1385762935542
started,bundle,org.eclipse.equinox.p2.repository,2.0.2.R36x_v20110111-1500,"org.eclipse.equinox.p2.repository",1385762935543
started,bundle,org.eclipse.equinox.p2.touchpoint.eclipse,2.0.3.R36x_v20101202,"org.eclipse.equinox.p2.touchpoint.eclipse",1385762935543
started,bundle,org.eclipse.equinox.p2.ui.sdk.scheduler,1.0.0.v20100507-1815,"org.eclipse.equinox.p2.ui.sdk.scheduler",1385762935543
started,bundle,org.eclipse.equinox.p2.updatechecker,1.1.101.R36x_v20100823,"org.eclipse.equinox.p2.updatechecker",1385762935544
started,bundle,org.eclipse.equinox.preferences,3.3.0.v20100503,"org.eclipse.equinox.preferences",1385762935544
started,bundle,org.eclipse.equinox.registry,3.5.0.v20100503,"org.eclipse.equinox.registry",1385762935544
started,bundle,org.eclipse.equinox.security,1.0.200.v20100503,"org.eclipse.equinox.security",1385762935544
started,bundle,org.eclipse.equinox.util,1.0.200.v20100503,"org.eclipse.equinox.util",1385762935546
started,bundle,org.eclipse.help,3.5.0.v20100524,"org.eclipse.help",1385762935546
started,bundle,org.eclipse.jdt.core,3.6.2.v_A76_R36x,"org.eclipse.jdt.core",1385762935546
started,bundle,org.eclipse.jdt.core.manipulation,1.3.0.v20100520-0800,"org.eclipse.jdt.core.manipulation",1385762935546
started,bundle,org.eclipse.jdt.launching,3.5.200.v20110105_r362,"org.eclipse.jdt.launching",1385762935546
started,bundle,org.eclipse.jdt.ui,3.6.2.r362_v20110203,"org.eclipse.jdt.ui",1385762935546
started,bundle,org.eclipse.jem,2.0.400.v201005110200,"org.eclipse.jem",1385762935546
started,bundle,org.eclipse.jem.util,2.1.3.v201012070000,"org.eclipse.jem.util",1385762935546
started,bundle,org.eclipse.jem.workbench,2.0.300.v200910290230,"org.eclipse.jem.workbench",1385762935546
started,bundle,org.eclipse.jface,3.6.2.M20110210-1200,"org.eclipse.jface",1385762935547
started,bundle,org.eclipse.jsch.core,1.1.200.I20100505-1245,"org.eclipse.jsch.core",1385762935547
started,bundle,org.eclipse.jst.common.frameworks,1.1.403.v201012160000,"org.eclipse.jst.common.frameworks",1385762935547
started,bundle,org.eclipse.jst.common.project.facet.core,1.4.102.v201008182136,"org.eclipse.jst.common.project.facet.core",1385762935547
started,bundle,org.eclipse.jst.j2ee,1.1.404.v201102081800,"org.eclipse.jst.j2ee",1385762935547
started,bundle,org.eclipse.jst.j2ee.core,1.2.4.v201102101900,"org.eclipse.jst.j2ee.core",1385762935547
started,bundle,org.eclipse.jst.j2ee.navigator.ui,1.1.403.v201012020600,"org.eclipse.jst.j2ee.navigator.ui",1385762935547
started,bundle,org.eclipse.jst.j2ee.ui,1.1.404.v201101122300,"org.eclipse.jst.j2ee.ui",1385762935547
started,bundle,org.eclipse.jst.j2ee.web,1.1.404.v201102030400,"org.eclipse.jst.j2ee.web",1385762935547
started,bundle,org.eclipse.jst.j2ee.webservice,1.1.400.v201004110600,"org.eclipse.jst.j2ee.webservice",1385762935547
started,bundle,org.eclipse.jst.j2ee.webservice.ui,1.1.400.v201004110600,"org.eclipse.jst.j2ee.webservice.ui",1385762935547
started,bundle,org.eclipse.jst.jee,1.0.302.v201101122300,"org.eclipse.jst.jee",1385762935547
started,bundle,org.eclipse.jst.jee.ui,1.0.304.v201101272100,"org.eclipse.jst.jee.ui",1385762935547
started,bundle,org.eclipse.jst.jsf.common,1.2.2.v201101211220,"org.eclipse.jst.jsf.common",1385762935547
started,bundle,org.eclipse.jst.jsf.core,1.3.3.v201102021253,"org.eclipse.jst.jsf.core",1385762935547
started,bundle,org.eclipse.jst.jsf.facelet.ui,1.0.0.v20100602,"org.eclipse.jst.jsf.facelet.ui",1385762935547
started,bundle,org.eclipse.jst.jsf.ui,1.3.1.v20100906,"org.eclipse.jst.jsf.ui",1385762935547
started,bundle,org.eclipse.jst.jsp.core,1.2.304.v201102160550,"org.eclipse.jst.jsp.core",1385762935548
started,bundle,org.eclipse.jst.jsp.ui,1.1.503.v201101262228,"org.eclipse.jst.jsp.ui",1385762935548
started,bundle,org.eclipse.jst.server.core,1.2.101.v20100421,"org.eclipse.jst.server.core",1385762935548
started,bundle,org.eclipse.jst.server.tomcat.core,1.1.203.v20110201,"org.eclipse.jst.server.tomcat.core",1385762935548
started,bundle,org.eclipse.jst.ws.jaxrs.core,1.0.201.v201011231540,"org.eclipse.jst.ws.jaxrs.core",1385762935548
started,bundle,org.eclipse.jst.ws.jaxws.utils,1.0.0.v201004171919,"org.eclipse.jst.ws.jaxws.utils",1385762935548
started,bundle,org.eclipse.mylyn.bugzilla.core,3.4.2.v20100902-0100-e3x,"org.eclipse.mylyn.bugzilla.core",1385762935548
started,bundle,org.eclipse.mylyn.bugzilla.ui,3.4.3.v20110131-0100-e3x,"org.eclipse.mylyn.bugzilla.ui",1385762935548
started,bundle,org.eclipse.mylyn.commons.net,3.4.1.v20100625-2100-e3x,"org.eclipse.mylyn.commons.net",1385762935548
started,bundle,org.eclipse.mylyn.commons.ui,3.4.0.v20100608-0100-e3x,"org.eclipse.mylyn.commons.ui",1385762935549
started,bundle,org.eclipse.mylyn.context.core,3.4.1.v20100909-0100-e3x,"org.eclipse.mylyn.context.core",1385762935549
started,bundle,org.eclipse.mylyn.context.ui,3.4.2.v20110131-0100-e3x,"org.eclipse.mylyn.context.ui",1385762935549
started,bundle,org.eclipse.mylyn.monitor.ui,3.4.1.v20110131-0100-e3x,"org.eclipse.mylyn.monitor.ui",1385762935549
started,bundle,org.eclipse.mylyn.tasks.ui,3.4.3.v20110131-0100-e3x,"org.eclipse.mylyn.tasks.ui",1385762935549
started,bundle,org.eclipse.mylyn.team.ui,3.4.3.v20110131-0100-e3x,"org.eclipse.mylyn.team.ui",1385762935549
started,bundle,org.eclipse.team.core,3.5.101.R36x_v20110203-1036,"org.eclipse.team.core",1385762935549
started,bundle,org.eclipse.team.cvs.core,3.3.301.R36x_v20110119-0815,"org.eclipse.team.cvs.core",1385762935549
started,bundle,org.eclipse.team.cvs.ui,3.3.302.R36x_v20110203-1036,"org.eclipse.team.cvs.ui",1385762935549
started,bundle,org.eclipse.team.ui,3.5.102.R36x_v20110203-1036,"org.eclipse.team.ui",1385762935549
started,bundle,org.eclipse.ui,3.6.2.M20110203-1100,"org.eclipse.ui",1385762935549
started,bundle,org.eclipse.ui.console,3.5.0.v20100526,"org.eclipse.ui.console",1385762935549
started,bundle,org.eclipse.ui.editors,3.6.1.r361_v20100825-0800,"org.eclipse.ui.editors",1385762935549
started,bundle,org.eclipse.ui.forms,3.5.2.r36_v20100702,"org.eclipse.ui.forms",1385762935550
started,bundle,org.eclipse.ui.ide,3.6.2.M20101201-0800,"org.eclipse.ui.ide",1385762935550
started,bundle,org.eclipse.ui.navigator,3.5.0.I20100601-0800,"org.eclipse.ui.navigator",1385762935550
started,bundle,org.eclipse.ui.navigator.resources,3.4.202.M20101124-0800,"org.eclipse.ui.navigator.resources",1385762935550
started,bundle,org.eclipse.ui.net,1.2.100.I20100505-1245,"org.eclipse.ui.net",1385762935550
started,bundle,org.eclipse.ui.views,3.5.1.M20110202-0800,"org.eclipse.ui.views",1385762935550
started,bundle,org.eclipse.ui.workbench,3.6.2.M20110210-1200,"org.eclipse.ui.workbench",1385762935550
started,bundle,org.eclipse.ui.workbench.texteditor,3.6.1.r361_v20100714-0800,"org.eclipse.ui.workbench.texteditor",1385762935550
started,bundle,org.eclipse.update.configurator,3.3.100.v20100512,"org.eclipse.update.configurator",1385762935551
started,bundle,org.eclipse.update.core,3.2.402.R36x_v20100629,"org.eclipse.update.core",1385762935551
started,bundle,org.eclipse.update.scheduler,3.2.300.v20100512,"org.eclipse.update.scheduler",1385762935551
started,bundle,org.eclipse.wst.common.core,1.2.0.v200908252030,"org.eclipse.wst.common.core",1385762935551
started,bundle,org.eclipse.wst.common.emf,1.2.3.v201012100400,"org.eclipse.wst.common.emf",1385762935551
started,bundle,org.eclipse.wst.common.emfworkbench.integration,1.2.3.v201012020600,"org.eclipse.wst.common.emfworkbench.integration",1385762935551
started,bundle,org.eclipse.wst.common.frameworks,1.2.0.v201003040800,"org.eclipse.wst.common.frameworks",1385762935551
started,bundle,org.eclipse.wst.common.frameworks.ui,1.2.0.v201004080500,"org.eclipse.wst.common.frameworks.ui",1385762935551
started,bundle,org.eclipse.wst.common.modulecore,1.2.5.v201101270100,"org.eclipse.wst.common.modulecore",1385762935551
started,bundle,org.eclipse.wst.common.project.facet.core,1.4.102.v201008170019,"org.eclipse.wst.common.project.facet.core",1385762935551
started,bundle,org.eclipse.wst.common.ui,1.1.500.v200911190730,"org.eclipse.wst.common.ui",1385762935551
started,bundle,org.eclipse.wst.common.uriresolver,1.1.401.v201004280700,"org.eclipse.wst.common.uriresolver",1385762935551
started,bundle,org.eclipse.wst.css.core,1.1.402.v201102031915,"org.eclipse.wst.css.core",1385762935551
started,bundle,org.eclipse.wst.css.ui,1.0.502.v201101122002,"org.eclipse.wst.css.ui",1385762935551
started,bundle,org.eclipse.wst.dtd.ui,1.0.500.v201004290328,"org.eclipse.wst.dtd.ui",1385762935552
started,bundle,org.eclipse.wst.html.core,1.1.404.v201101190004,"org.eclipse.wst.html.core",1385762935552
started,bundle,org.eclipse.wst.html.ui,1.0.504.v201101122108,"org.eclipse.wst.html.ui",1385762935552
started,bundle,org.eclipse.wst.jsdt.core,1.1.4.v201102102045,"org.eclipse.wst.jsdt.core",1385762935552
started,bundle,org.eclipse.wst.jsdt.manipulation,1.0.200.v201004150600,"org.eclipse.wst.jsdt.manipulation",1385762935552
started,bundle,org.eclipse.wst.jsdt.ui,1.1.4.v201102160540,"org.eclipse.wst.jsdt.ui",1385762935552
started,bundle,org.eclipse.wst.jsdt.web.core,1.0.304.v201102160550,"org.eclipse.wst.jsdt.web.core",1385762935552
started,bundle,org.eclipse.wst.jsdt.web.support.jsp,1.0.303.v201012160047,"org.eclipse.wst.jsdt.web.support.jsp",1385762935552
started,bundle,org.eclipse.wst.jsdt.web.ui,1.0.304.v201012160349,"org.eclipse.wst.jsdt.web.ui",1385762935552
started,bundle,org.eclipse.wst.server.ui,1.1.207.v20110119,"org.eclipse.wst.server.ui",1385762935552
started,bundle,org.eclipse.wst.sse.core,1.1.504.v201102160550,"org.eclipse.wst.sse.core",1385762935552
started,bundle,org.eclipse.wst.sse.ui,1.2.3.v201102102045,"org.eclipse.wst.sse.ui",1385762935552
started,bundle,org.eclipse.wst.validation,1.2.201.v201101270100,"org.eclipse.wst.validation",1385762935552
started,bundle,org.eclipse.wst.web,1.1.402.v201012160000,"org.eclipse.wst.web",1385762935552
started,bundle,org.eclipse.wst.wsdl,1.2.104.v201012082239,"org.eclipse.wst.wsdl",1385762935552
started,bundle,org.eclipse.wst.xml.core,1.1.503.v201102102045,"org.eclipse.wst.xml.core",1385762935552
started,bundle,org.eclipse.wst.xml.ui,1.1.103.v201101122108,"org.eclipse.wst.xml.ui",1385762935552
started,bundle,oracle.eclipse.tools.common,3.2.3.201107052022,"oracle.eclipse.tools.common",1385762935552
started,bundle,oracle.eclipse.tools.common.ui,3.2.3.201107052022,"oracle.eclipse.tools.common.ui",1385762935552
started,bundle,oracle.eclipse.tools.common.upgrade,3.2.3.201107052022,"oracle.eclipse.tools.common.upgrade",1385762935552
started,bundle,oracle.eclipse.tools.envcheck,3.2.3.201107052022,"oracle.eclipse.tools.envcheck",1385762935552
started,bundle,oracle.eclipse.tools.weblogic,3.2.3.201107052022,"oracle.eclipse.tools.weblogic",1385762935552
started,bundle,oracle.eclipse.tools.weblogic.ui,3.2.3.201107052022,"oracle.eclipse.tools.weblogic.ui",1385762935552
started,bundle,oracle.eclipse.tools.xmlbeans,3.2.3.201107052022,"oracle.eclipse.tools.xmlbeans",1385762935552
started,bundle,org.eclipse.core.jobs,3.5.1.R36x_v20100824-p001,"org.eclipse.core.jobs",1385762935554
started,bundle,org.eclipse.sapphire.modeling,0.2.3.201106221307,"org.eclipse.sapphire.modeling",1385762935554
started,bundle,org.eclipse.wst.server.core,1.1.206.v20110110_p001,"org.eclipse.wst.server.core",1385762935554
started,bundle,com.amazonaws.eclipse.ec2,1.1.0.v201311261154,"com.amazonaws.eclipse.ec2",1385762935554
os,sysinfo,,,"win32",1385762935559
arch,sysinfo,,,"x86",1385762935559
ws,sysinfo,,,"win32",1385762935559
locale,sysinfo,,,"en_US",1385762935559
processors,sysinfo,,,"4",1385762935559
java.runtime.name,sysinfo,,,"Java(TM) SE Runtime Environment",1385762935559
java.runtime.version,sysinfo,,,"1.7.0_45-b18",1385762935559
java.specification.name,sysinfo,,,"Java Platform API Specification",1385762935559
java.specification.vendor,sysinfo,,,"Oracle Corporation",1385762935559
java.specification.version,sysinfo,,,"1.7",1385762935559
java.vendor,sysinfo,,,"Oracle Corporation",1385762935559
java.version,sysinfo,,,"1.7.0_45",1385762935559
java.vm.info,sysinfo,,,"mixed mode, sharing",1385762935559
java.vm.name,sysinfo,,,"Java HotSpot(TM) Client VM",1385762935559
java.vm.specification.name,sysinfo,,,"Java Virtual Machine Specification",1385762935559
java.vm.specification.vendor,sysinfo,,,"Oracle Corporation",1385762935559
java.vm.specification.version,sysinfo,,,"1.7",1385762935559
java.vm.vendor,sysinfo,,,"Oracle Corporation",1385762935559
java.vm.version,sysinfo,,,"24.45-b08",1385762935559
started,bundle,org.eclipse.jdt.apt.core,3.3.402.R36_v20110120-1000,"org.eclipse.jdt.apt.core",1385762936982
started,bundle,org.eclipse.jdt.apt.pluggable.core,1.0.301.R36_v20100727-0110,"org.eclipse.jdt.apt.pluggable.core",1385762936988
started,bundle,com.amazonaws.eclipse.core,2.0.1.v201311261154,"com.amazonaws.eclipse.core",1385762937321
started,bundle,com.amazonaws.eclipse.elasticbeanstalk,1.0.0.v201311251309,"com.amazonaws.eclipse.elasticbeanstalk",1385762937334
started,bundle,org.eclipse.core.databinding,1.3.100.I20100601-0800,"org.eclipse.core.databinding",1385762937341
started,bundle,org.eclipse.wst.dtd.core,1.1.401.v201101122255,"org.eclipse.wst.dtd.core",1385762937383
started,bundle,org.eclipse.core.databinding.property,1.3.0.I20100601-0800,"org.eclipse.core.databinding.property",1385762937425
started,bundle,org.eclipse.wst.wsdl.validation,1.1.501.v201004201506,"org.eclipse.wst.wsdl.validation",1385762937436
started,bundle,org.eclipse.wst.xsd.core,1.1.503.v201011121919,"org.eclipse.wst.xsd.core",1385762937442
started,bundle,org.eclipse.wst.xsl.core,1.1.0.v201004290328,"org.eclipse.wst.xsl.core",1385762937447
started,bundle,org.eclipse.core.variables,3.2.400.v20100505,"org.eclipse.core.variables",1385762937514
deactivated,workbench,org.eclipse.ui.workbench,3.6.2.M20110210-1200,"",1385762937532
activated,workbench,org.eclipse.ui.workbench,3.6.2.M20110210-1200,"",1385762990833
deactivated,workbench,org.eclipse.ui.workbench,3.6.2.M20110210-1200,"",1385762991818
deactivated,workbench,org.eclipse.ui.workbench,3.6.2.M20110210-1200,"",1385762999274
activated,workbench,org.eclipse.ui.workbench,3.6.2.M20110210-1200,"",1385762999289
started,bundle,org.eclipse.ui.browser,3.3.1.r36_20101216,"org.eclipse.ui.browser",1385763009556
deactivated,workbench,org.eclipse.ui.workbench,3.6.2.M20110210-1200,"",1385763016036
activated,workbench,org.eclipse.ui.workbench,3.6.2.M20110210-1200,"",1385763016043
executed,command,org.eclipse.ui,3.6.2.M20110203-1100,"org.eclipse.ui.edit.paste",1385763042681
executed,command,org.eclipse.ui,3.6.2.M20110203-1100,"org.eclipse.ui.edit.paste",1385763053385
started,bundle,com.amazonaws.eclipse.cloudformation,1.0.0.v201311261154,"com.amazonaws.eclipse.cloudformation",1385763056903
started,bundle,com.amazonaws.eclipse.identitymanagement,1.0.0.v201311261154,"com.amazonaws.eclipse.identitymanagement",1385763056907
started,bundle,com.amazonaws.eclipse.datatools.enablement.simpledb.ui,1.0.0.v201311261154,"com.amazonaws.eclipse.datatools.enablement.simpledb.ui",1385763056912
error,log,,,"Problems occurred when invoking code from plug-in: ""org.eclipse.equinox.preferences"".",1385763057114
started,bundle,com.amazonaws.eclipse.dynamodb,1.0.0.v201311261154,"com.amazonaws.eclipse.dynamodb",1385763057118
started,bundle,com.amazonaws.eclipse.rds,1.0.0.v201311261154,"com.amazonaws.eclipse.rds",1385763057134
opened,view,com.amazonaws.eclipse.core,2.0.1.v201311261154,"com.amazonaws.eclipse.explorer.view",1385763057222
activated,workbench,org.eclipse.ui.workbench,3.6.2.M20110210-1200,"",1385763057255
activated,view,com.amazonaws.eclipse.core,2.0.1.v201311261154,"com.amazonaws.eclipse.explorer.view",1385763057317
deactivated,workbench,org.eclipse.ui.workbench,3.6.2.M20110210-1200,"",1385763059878
activated,workbench,org.eclipse.ui.workbench,3.6.2.M20110210-1200,"",1385763061880
deactivated,workbench,org.eclipse.ui.workbench,3.6.2.M20110210-1200,"",1385763063102
activated,workbench,org.eclipse.ui.workbench,3.6.2.M20110210-1200,"",1385763081072
deactivated,workbench,org.eclipse.ui.workbench,3.6.2.M20110210-1200,"",1385763083386
activated,workbench,org.eclipse.ui.workbench,3.6.2.M20110210-1200,"",1385763100686
deactivated,workbench,org.eclipse.ui.workbench,3.6.2.M20110210-1200,"",1385763101144
activated,workbench,org.eclipse.ui.workbench,3.6.2.M20110210-1200,"",1385763102558
deactivated,workbench,org.eclipse.ui.workbench,3.6.2.M20110210-1200,"",1385763109118
activated,workbench,org.eclipse.ui.workbench,3.6.2.M20110210-1200,"",1385763111430
deactivated,workbench,org.eclipse.ui.workbench,3.6.2.M20110210-1200,"",1385763115061
activated,workbench,org.eclipse.ui.workbench,3.6.2.M20110210-1200,"",1385763250103
executed,command,org.eclipse.ui,3.6.2.M20110203-1100,"org.eclipse.ui.newWizard",1385763250112
activated,view,org.eclipse.wst.server.ui,1.1.207.v20110119,"org.eclipse.wst.server.ui.ServersView",1385763250388
deactivated,workbench,org.eclipse.ui.workbench,3.6.2.M20110210-1200,"",1385763252479
activated,workbench,org.eclipse.ui.workbench,3.6.2.M20110210-1200,"",1385763257609
activated,view,org.eclipse.ui.navigator.resources,3.4.202.M20101124-0800,"org.eclipse.ui.navigator.ProjectExplorer",1385763258289
started,bundle,org.eclipse.wst.common.project.facet.ui,1.4.103.v201101271715,"org.eclipse.wst.common.project.facet.ui",1385763261001
started,bundle,org.eclipse.wst.web.ui,1.1.400.v201004141630,"org.eclipse.wst.web.ui",1385763261002
started,bundle,org.eclipse.jst.servlet.ui,1.1.404.v201101270100,"org.eclipse.jst.servlet.ui",1385763261003
started,bundle,org.eclipse.jst.common.project.facet.ui,1.4.102.v201008182136,"org.eclipse.jst.common.project.facet.ui",1385763261289
deactivated,workbench,org.eclipse.ui.workbench,3.6.2.M20110210-1200,"",1385763261493
started,bundle,org.eclipse.jst.server.tomcat.ui,1.1.200.v20100418,"org.eclipse.jst.server.tomcat.ui",1385763269447
error,log,,,"Unhandled event loop exception",1385763275245
error,log,,,"Unhandled event loop exception",1385763319844
activated,workbench,org.eclipse.ui.workbench,3.6.2.M20110210-1200,"",1385763325701
deactivated,workbench,org.eclipse.ui.workbench,3.6.2.M20110210-1200,"",1385763328259
activated,workbench,org.eclipse.ui.workbench,3.6.2.M20110210-1200,"",1385763335974
activated,view,org.eclipse.wst.server.ui,1.1.207.v20110119,"org.eclipse.wst.server.ui.ServersView",1385763339141
deactivated,workbench,org.eclipse.ui.workbench,3.6.2.M20110210-1200,"",1385763342261
error,log,,,"Error finishing task wizard",1385763346573
activated,workbench,org.eclipse.ui.workbench,3.6.2.M20110210-1200,"",1385763353165
activated,editor,org.eclipse.jst.jsp.ui,1.1.503.v201101262228,"org.eclipse.jst.jsp.core.jspsource.source",1385763356541
activated,view,org.eclipse.wst.server.ui,1.1.207.v20110119,"org.eclipse.wst.server.ui.ServersView",1385763357489
activated,editor,org.eclipse.jst.jsp.ui,1.1.503.v201101262228,"org.eclipse.jst.jsp.core.jspsource.source",1385763362555
deactivated,workbench,org.eclipse.ui.workbench,3.6.2.M20110210-1200,"",1385763362744
activated,workbench,org.eclipse.ui.workbench,3.6.2.M20110210-1200,"",1385763368756
activated,view,org.eclipse.ui.navigator.resources,3.4.202.M20101124-0800,"org.eclipse.ui.navigator.ProjectExplorer",1385763369663
started,bundle,org.eclipse.wst.ws.service.policy.ui,1.0.202.v201004211732,"org.eclipse.wst.ws.service.policy.ui",1385763369757
started,bundle,org.eclipse.wst.ws.service.policy,1.0.204.v201011011834,"org.eclipse.wst.ws.service.policy",1385763369759
started,bundle,org.eclipse.wst.command.env,1.0.409.v201004211805,"org.eclipse.wst.command.env",1385763369774
started,bundle,org.eclipse.wst.ws,1.1.203.v201004211805,"org.eclipse.wst.ws",1385763369775
started,bundle,org.eclipse.compare,3.5.101.R36x_v20100929-0800,"org.eclipse.compare",1385763369879
started,bundle,oracle.eclipse.tools.webservices,3.2.3.201107052022,"oracle.eclipse.tools.webservices",1385763371506
deactivated,workbench,org.eclipse.ui.workbench,3.6.2.M20110210-1200,"",1385763371648
started,bundle,org.eclipse.jst.server.preview.adapter,1.1.100.v20100308,"org.eclipse.jst.server.preview.adapter",1385763371690
started,bundle,org.eclipse.wst.server.http.core,1.0.200.v20090429,"org.eclipse.wst.server.http.core",1385763375209
started,bundle,org.eclipse.wst.server.preview.adapter,1.1.0.v20090311b,"org.eclipse.wst.server.preview.adapter",1385763375214
started,bundle,org.eclipse.jst.server.generic.core,1.0.606.v20100512,"org.eclipse.jst.server.generic.core",1385763375270
activated,workbench,org.eclipse.ui.workbench,3.6.2.M20110210-1200,"",1385763376487
executed,command,org.eclipse.wst.server.ui,1.1.207.v20110119,"org.eclipse.wst.server.launchShortcut.run",1385763376546
started,bundle,org.eclipse.jdt.debug,3.6.1.v20100715_r361,"org.eclipse.jdt.debug",1385763376589
deactivated,workbench,org.eclipse.ui.workbench,3.6.2.M20110210-1200,"",1385763381654
activated,workbench,org.eclipse.ui.workbench,3.6.2.M20110210-1200,"",1385763411749
deactivated,workbench,org.eclipse.ui.workbench,3.6.2.M20110210-1200,"",1385763413514
activated,workbench,org.eclipse.ui.workbench,3.6.2.M20110210-1200,"",1385763413871
